xof 0303txt 0032
template ColorRGBA {
 <35ff44e0-6c7c-11cf-8f52-0040333594a3>
 FLOAT red;
 FLOAT green;
 FLOAT blue;
 FLOAT alpha;
}

template ColorRGB {
 <d3e16e81-7835-11cf-8f52-0040333594a3>
 FLOAT red;
 FLOAT green;
 FLOAT blue;
}

template Material {
 <3d82ab4d-62da-11cf-ab39-0020af71e433>
 ColorRGBA faceColor;
 FLOAT power;
 ColorRGB specularColor;
 ColorRGB emissiveColor;
 [...]
}

template TextureFilename {
 <a42790e1-7810-11cf-8f52-0040333594a3>
 STRING filename;
}

template Frame {
 <3d82ab46-62da-11cf-ab39-0020af71e433>
 [...]
}

template Matrix4x4 {
 <f6f23f45-7686-11cf-8f52-0040333594a3>
 array FLOAT matrix[16];
}

template FrameTransformMatrix {
 <f6f23f41-7686-11cf-8f52-0040333594a3>
 Matrix4x4 frameMatrix;
}

template Vector {
 <3d82ab5e-62da-11cf-ab39-0020af71e433>
 FLOAT x;
 FLOAT y;
 FLOAT z;
}

template MeshFace {
 <3d82ab5f-62da-11cf-ab39-0020af71e433>
 DWORD nFaceVertexIndices;
 array DWORD faceVertexIndices[nFaceVertexIndices];
}

template Mesh {
 <3d82ab44-62da-11cf-ab39-0020af71e433>
 DWORD nVertices;
 array Vector vertices[nVertices];
 DWORD nFaces;
 array MeshFace faces[nFaces];
 [...]
}

template MeshNormals {
 <f6f23f43-7686-11cf-8f52-0040333594a3>
 DWORD nNormals;
 array Vector normals[nNormals];
 DWORD nFaceNormals;
 array MeshFace faceNormals[nFaceNormals];
}

template MeshMaterialList {
 <f6f23f42-7686-11cf-8f52-0040333594a3>
 DWORD nMaterials;
 DWORD nFaceIndexes;
 array DWORD faceIndexes[nFaceIndexes];
 [Material <3d82ab4d-62da-11cf-ab39-0020af71e433>]
}

template Coords2d {
 <f6f23f44-7686-11cf-8f52-0040333594a3>
 FLOAT u;
 FLOAT v;
}

template MeshTextureCoords {
 <f6f23f40-7686-11cf-8f52-0040333594a3>
 DWORD nTextureCoords;
 array Coords2d textureCoords[nTextureCoords];
}

template Animation {
 <3d82ab4f-62da-11cf-ab39-0020af71e433>
 [...]
}

template AnimationSet {
 <3d82ab50-62da-11cf-ab39-0020af71e433>
 [Animation <3d82ab4f-62da-11cf-ab39-0020af71e433>]
}

template FloatKeys {
 <10dd46a9-775b-11cf-8f52-0040333594a3>
 DWORD nValues;
 array FLOAT values[nValues];
}

template TimedFloatKeys {
 <f406b180-7b3b-11cf-8f52-0040333594a3>
 DWORD time;
 FloatKeys tfkeys;
}

template AnimationKey {
 <10dd46a8-775b-11cf-8f52-0040333594a3>
 DWORD keyType;
 DWORD nKeys;
 array TimedFloatKeys keys[nKeys];
}


Material crystal_1 {
 1.000000;1.000000;1.000000;1.000000;;
 3.200000;
 0.000000;0.000000;0.000000;;
 0.000000;0.000000;0.000000;;

 TextureFilename {
  "crystal_1_color.jpg";
 }
}

Frame crystal_1 {
 

 FrameTransformMatrix {
  0.579500,0.000000,0.000000,0.000000,0.000000,0.579500,0.000000,0.000000,0.000000,0.000000,0.579500,0.000000,0.000000,0.000000,0.000000,1.000000;;
 }

 Mesh  {
  402;
  -0.286747;3.321685;3.582330;,
  -2.543684;3.321685;2.867113;,
  -3.039959;3.321685;2.112287;,
  -3.034202;2.875086;0.705817;,
  -2.543684;3.321685;-0.088559;,
  0.198724;3.171078;-0.147498;,
  2.057163;3.171078;1.009558;,
  3.109889;2.888735;2.560630;,
  -0.286747;2.106848;5.105687;,
  -3.648956;4.839199;5.756016;,
  -3.734693;2.106848;3.816910;,
  -4.395653;2.106848;2.444413;,
  -4.864344;1.967686;0.503861;,
  -2.962920;2.106848;-1.038357;,
  -0.286747;2.106848;-2.327133;,
  2.661299;2.106848;-1.401239;,
  3.852308;2.106848;-0.451441;,
  4.513268;2.106848;0.921058;,
  4.513266;2.106848;2.444416;,
  1.198413;2.106848;4.766710;,
  -0.286747;0.351358;5.951087;,
  -3.616339;0.351358;5.528387;,
  -5.624908;0.351358;4.202292;,
  -6.156724;0.351358;2.378660;,
  -7.392038;-0.005584;-7.041894;,
  -4.500776;0.351358;-7.854589;,
  4.513268;0.351358;-0.978539;,
  7.732316;0.351358;4.393900;,
  6.908110;0.351358;6.105376;,
  1.565217;0.351358;5.528389;,
  -2.700030;-1.597090;6.895116;,
  -5.624907;-1.597090;4.202292;,
  -6.156724;-1.597090;2.378660;,
  -4.693684;-1.597090;-8.762689;,
  3.028104;0.351358;-2.162918;,
  4.513268;-1.597090;-0.978538;,
  5.337471;-1.597090;0.732939;,
  7.732316;-1.597090;4.393899;,
  6.908110;-1.597090;6.105375;,
  -0.862920;-1.597090;7.378325;,
  -0.835194;-3.352580;6.533380;,
  -2.308441;-3.352580;6.145876;,
  -3.734693;-3.352580;3.816910;,
  -4.395653;-3.352580;2.444413;,
  -4.395653;-3.352580;0.921056;,
  -7.392038;-1.261452;-7.041894;,
  -1.979934;-3.584617;-2.382925;,
  -0.286747;-3.817784;-2.402470;,
  3.852307;-3.352580;-0.451440;,
  4.513267;-3.352580;0.921058;,
  4.513266;-3.352580;2.444416;,
  3.852305;-3.352580;3.816913;,
  1.198413;-3.352580;4.766709;,
  -2.543684;-4.567417;2.867113;,
  -2.910489;-4.567417;1.260035;,
  -1.110951;-5.032621;-0.690993;,
  -0.286747;-5.032621;-0.879112;,
  3.028103;-4.567417;2.105435;,
  0.537455;-4.567417;3.394211;,
  8.627943;5.714469;-7.027861;,
  8.013538;5.714469;-7.517832;,
  8.202762;4.808864;-7.910759;,
  8.968913;4.808864;-7.299774;,
  15.559674;-0.622867;10.118232;,
  1.098853;5.690998;16.426918;,
  -7.016585;0.089468;-15.487542;,
  -8.363068;-1.335201;-15.146720;,
  -7.016585;-1.335201;-15.487542;,
  -14.487336;-0.096657;5.206266;,
  -14.200083;-1.149076;6.191268;,
  -14.487336;-1.149076;5.206266;,
  -6.194773;5.821549;1.682735;,
  -3.632848;-5.111513;15.471114;,
  9.389453;-6.440722;-5.051482;,
  -1.326837;-7.668899;-4.132784;,
  6.410875;6.952366;1.974605;,
  6.903258;7.398590;1.390872;,
  7.801090;6.786830;1.306542;,
  7.188491;6.193639;2.058936;,
  -2.270395;5.567529;-3.186481;,
  -1.856258;4.839199;6.247667;,
  -1.856258;2.797351;7.875987;,
  -3.946790;2.797351;7.463546;,
  4.702092;-8.975702;4.688821;,
  5.115232;-8.975702;3.830930;,
  4.186917;-9.735046;3.619047;,
  3.544503;-9.735046;4.424608;,
  3.957641;-8.975702;5.282499;,
  3.594885;4.791573;-0.102558;,
  2.378446;4.791573;-1.659552;,
  3.353955;3.993624;-1.850579;,
  4.136252;3.993624;-1.226718;,
  -4.869649;-5.132990;3.553195;,
  -4.087352;-5.930938;2.929334;,
  -4.328282;-5.930938;1.873748;,
  -5.303792;-5.132990;1.651094;,
  -3.589240;4.751752;8.043440;,
  -15.559674;-0.613540;6.093176;,
  -14.200083;-0.096657;6.191268;,
  -8.363068;0.089468;-15.146720;,
  -7.624190;-0.538495;-16.426918;,
  3.663106;-1.597090;6.980482;,
  3.846665;0.351358;6.772218;,
  4.410928;2.439661;5.248628;,
  -6.569787;-0.622866;-0.227453;,
  -6.682570;1.636888;0.239744;,
  0.890390;-2.297795;-4.886429;,
  1.126638;-3.898872;-4.800639;,
  4.110816;-3.563470;-3.393985;,
  3.516581;-0.893003;-4.627927;,
  2.901863;-2.843427;-5.887473;,
  -1.619845;3.753882;0.956224;,
  0.198724;2.594536;1.207755;,
  4.400086;0.347362;1.380293;,
  -0.647986;-3.577544;1.418680;,
  -3.057415;-1.597090;3.947324;,
  6.710010;-1.597090;1.884148;,
  7.223277;0.348979;1.557693;,
  6.649658;1.975130;3.997877;,
  6.098431;2.115852;4.450409;,
  6.770356;3.916730;7.244741;,
  7.323265;2.711803;8.374874;,
  5.232685;2.711803;8.830244;,
  5.618005;4.137851;7.789824;,
  6.700024;4.324896;8.865229;,
  -5.551817;1.554500;-1.462418;,
  -5.538558;3.302226;-2.992134;,
  -4.204784;3.060814;-3.785356;,
  -7.173382;-3.565466;-1.952028;,
  -3.585732;-2.522628;-3.373969;,
  -2.524240;-2.236609;-4.693527;,
  -1.336120;-3.710225;-4.130712;,
  -6.574835;2.271953;-6.061185;,
  -3.813030;2.249023;-6.313916;,
  -4.757596;5.343560;-5.060526;,
  -5.419168;5.460012;-4.665959;,
  -5.933288;4.952237;-6.189480;,
  -4.563198;4.937559;-6.313770;,
  -5.244219;5.855556;-5.819918;,
  -5.977515;-4.310798;-3.229145;,
  -7.393579;-0.890426;-1.483784;,
  -7.802979;-0.691462;-4.914258;,
  -7.927924;-2.999512;-4.413129;,
  -11.301172;-2.822951;-2.833992;,
  -11.036104;-1.776712;-1.380853;,
  -10.926872;-3.103699;-1.613132;,
  -11.314139;-1.688582;-2.694551;,
  -12.322136;-2.354974;-1.729525;,
  1.216399;-0.307801;-3.219236;,
  0.767446;1.422708;-2.876430;,
  0.468164;-0.145005;-6.782014;,
  0.294009;1.154830;-6.388984;,
  -0.974861;0.049147;-8.046748;,
  -1.220652;1.608627;-7.394874;,
  4.126340;2.637578;-12.642397;,
  -1.823434;1.398532;-4.527089;,
  -5.216822;-6.056125;2.747101;,
  -10.822306;7.539062;0.009659;,
  10.568606;-2.445607;-8.062459;,
  0.328781;9.761956;2.692371;,
  -5.379800;0.955530;-4.434806;,
  -6.227615;-0.260782;-2.944118;,
  -5.970080;-9.761956;-9.733671;,
  -4.395653;2.106848;2.444413;,
  -4.395653;2.106848;2.444413;,
  -4.864344;1.967686;0.503861;,
  3.852308;2.106848;-0.451441;,
  4.513268;2.106848;0.921058;,
  4.513266;2.106848;2.444416;,
  -3.616339;0.351358;5.528387;,
  -5.624908;0.351358;4.202292;,
  -0.862920;-1.597090;7.378325;,
  -5.624907;-1.597090;4.202292;,
  -3.734693;-3.352580;3.816910;,
  -4.693684;-1.597090;-8.762689;,
  -7.392038;-1.261452;-7.041894;,
  -0.835194;-3.352580;6.533380;,
  -3.734693;-3.352580;3.816910;,
  3.852307;-3.352580;-0.451440;,
  4.513267;-3.352580;0.921058;,
  4.513266;-3.352580;2.444416;,
  1.198413;-3.352580;4.766709;,
  3.852308;2.106848;-0.451441;,
  8.013538;5.714469;-7.517832;,
  2.661299;2.106848;-1.401239;,
  8.627943;5.714469;-7.027861;,
  8.202762;4.808864;-7.910759;,
  3.028104;0.351358;-2.162918;,
  8.968913;4.808864;-7.299774;,
  4.513268;0.351358;-0.978539;,
  4.513268;0.351358;-0.978539;,
  8.968913;4.808864;-7.299774;,
  6.908110;0.351358;6.105376;,
  7.732316;-1.597090;4.393899;,
  6.908110;-1.597090;6.105375;,
  6.908110;0.351358;6.105376;,
  -0.286747;2.106848;5.105687;,
  1.198413;2.106848;4.766710;,
  1.565217;0.351358;5.528389;,
  -0.286747;0.351358;5.951087;,
  -0.286747;0.351358;5.951087;,
  -4.500776;0.351358;-7.854589;,
  -7.392038;-0.005584;-7.041894;,
  -8.363068;-1.335201;-15.146720;,
  -7.392038;-1.261452;-7.041894;,
  -7.016585;-1.335201;-15.487542;,
  -4.693684;-1.597090;-8.762689;,
  -4.693684;-1.597090;-8.762689;,
  -7.016585;-1.335201;-15.487542;,
  -6.156724;0.351358;2.378660;,
  -14.200083;-0.096657;6.191268;,
  -5.624908;0.351358;4.202292;,
  -14.200083;-1.149076;6.191268;,
  -5.624907;-1.597090;4.202292;,
  -6.156724;-1.597090;2.378660;,
  -14.487336;-0.096657;5.206266;,
  -6.156724;0.351358;2.378660;,
  -3.034202;2.875086;0.705817;,
  -3.039959;3.321685;2.112287;,
  -4.395653;2.106848;2.444413;,
  -4.864344;1.967686;0.503861;,
  -4.864344;1.967686;0.503861;,
  -2.700030;-1.597090;6.895116;,
  -0.862920;-1.597090;7.378325;,
  -0.835194;-3.352580;6.533380;,
  -2.308441;-3.352580;6.145876;,
  -2.700030;-1.597090;6.895116;,
  5.337471;-1.597090;0.732939;,
  4.513268;-1.597090;-0.978538;,
  4.513268;-1.597090;-0.978538;,
  3.852307;-3.352580;-0.451440;,
  4.513267;-3.352580;0.921058;,
  -0.286747;-3.817784;-2.402470;,
  -1.979934;-3.584617;-2.382925;,
  -0.286747;-5.032621;-0.879112;,
  3.109889;2.888735;2.560630;,
  6.903258;7.398590;1.390872;,
  2.057163;3.171078;1.009558;,
  6.410875;6.952366;1.974605;,
  2.057163;3.171078;1.009558;,
  7.801090;6.786830;1.306542;,
  4.513268;2.106848;0.921058;,
  6.903258;7.398590;1.390872;,
  7.188491;6.193639;2.058936;,
  4.513266;2.106848;2.444416;,
  7.801090;6.786830;1.306542;,
  6.410875;6.952366;1.974605;,
  0.198724;3.171078;-0.147498;,
  -2.543684;3.321685;-0.088559;,
  -2.962920;2.106848;-1.038357;,
  -0.286747;2.106848;-2.327133;,
  -0.286747;2.106848;-2.327133;,
  -2.543684;3.321685;2.867113;,
  -1.856258;4.839199;6.247667;,
  -0.286747;3.321685;3.582330;,
  -3.648956;4.839199;5.756016;,
  -0.286747;2.106848;5.105687;,
  -0.286747;0.351358;5.951087;,
  -1.856258;4.839199;6.247667;,
  -0.286747;0.351358;5.951087;,
  -1.856258;2.797351;7.875987;,
  -3.616339;0.351358;5.528387;,
  -3.734693;2.106848;3.816910;,
  -3.648956;4.839199;5.756016;,
  -3.946790;2.797351;7.463546;,
  -3.039959;3.321685;2.112287;,
  -2.543684;3.321685;2.867113;,
  3.852305;-3.352580;3.816913;,
  5.115232;-8.975702;3.830930;,
  4.513266;-3.352580;2.444416;,
  4.702092;-8.975702;4.688821;,
  4.513266;-3.352580;2.444416;,
  4.186917;-9.735046;3.619047;,
  3.028103;-4.567417;2.105435;,
  5.115232;-8.975702;3.830930;,
  3.544503;-9.735046;4.424608;,
  0.537455;-4.567417;3.394211;,
  4.186917;-9.735046;3.619047;,
  3.957641;-8.975702;5.282499;,
  1.198413;-3.352580;4.766709;,
  3.544503;-9.735046;4.424608;,
  4.702092;-8.975702;4.688821;,
  3.957641;-8.975702;5.282499;,
  -4.869649;-5.132990;3.553195;,
  2.057163;3.171078;1.009558;,
  2.378446;4.791573;-1.659552;,
  0.198724;3.171078;-0.147498;,
  3.594885;4.791573;-0.102558;,
  0.198724;3.171078;-0.147498;,
  3.353955;3.993624;-1.850579;,
  2.661299;2.106848;-1.401239;,
  2.378446;4.791573;-1.659552;,
  4.136252;3.993624;-1.226718;,
  3.852308;2.106848;-0.451441;,
  -4.395653;-3.352580;2.444413;,
  -4.869649;-5.132990;3.553195;,
  -3.734693;-3.352580;3.816910;,
  -4.087352;-5.930938;2.929334;,
  -2.543684;-4.567417;2.867113;,
  -5.303792;-5.132990;1.651094;,
  -4.395653;-3.352580;0.921056;,
  -4.395653;-3.352580;0.921056;,
  -5.303792;-5.132990;1.651094;,
  -3.946790;2.797351;7.463546;,
  -1.856258;2.797351;7.875987;,
  -3.946790;2.797351;7.463546;,
  -14.487336;-1.149076;5.206266;,
  -14.487336;-0.096657;5.206266;,
  -14.200083;-0.096657;6.191268;,
  -7.016585;0.089468;-15.487542;,
  -7.016585;0.089468;-15.487542;,
  -8.363068;0.089468;-15.146720;,
  1.198413;-3.352580;4.766709;,
  4.410928;2.439661;5.248628;,
  1.198413;2.106848;4.766710;,
  -7.927924;-2.999512;-4.413129;,
  3.516581;-0.893003;-4.627927;,
  4.110816;-3.563470;-3.393985;,
  3.028104;0.351358;-2.162918;,
  1.126638;-3.898872;-4.800639;,
  2.901863;-2.843427;-5.887473;,
  -2.910489;-4.567417;1.260035;,
  -1.110951;-5.032621;-0.690993;,
  -2.700030;-1.597090;6.895116;,
  -3.734693;-3.352580;3.816910;,
  -2.308441;-3.352580;6.145876;,
  7.732316;0.351358;4.393900;,
  7.223277;0.348979;1.557693;,
  6.649658;1.975130;3.997877;,
  6.908110;0.351358;6.105376;,
  6.098431;2.115852;4.450409;,
  6.098431;2.115852;4.450409;,
  6.908110;0.351358;6.105376;,
  6.770356;3.916730;7.244741;,
  5.232685;2.711803;8.830244;,
  3.846665;0.351358;6.772218;,
  3.846665;0.351358;6.772218;,
  5.618005;4.137851;7.789824;,
  4.410928;2.439661;5.248628;,
  5.232685;2.711803;8.830244;,
  7.323265;2.711803;8.374874;,
  7.323265;2.711803;8.374874;,
  -0.286747;-3.817784;-2.402470;,
  0.890390;-2.297795;-4.886429;,
  -1.979934;-3.584617;-2.382925;,
  -7.392038;-0.005584;-7.041894;,
  -5.551817;1.554500;-1.462418;,
  -6.574835;2.271953;-6.061185;,
  -7.392038;-0.005584;-7.041894;,
  -5.419168;5.460012;-4.665959;,
  -5.538558;3.302226;-2.992134;,
  -5.933288;4.952237;-6.189480;,
  -6.574835;2.271953;-6.061185;,
  -5.419168;5.460012;-4.665959;,
  -4.563198;4.937559;-6.313770;,
  -3.813030;2.249023;-6.313916;,
  -4.563198;4.937559;-6.313770;,
  -4.757596;5.343560;-5.060526;,
  -5.419168;5.460012;-4.665959;,
  -4.395653;-3.352580;0.921056;,
  -7.173382;-3.565466;-1.952028;,
  -7.927924;-2.999512;-4.413129;,
  -11.314139;-1.688582;-2.694551;,
  -7.802979;-0.691462;-4.914258;,
  -11.036104;-1.776712;-1.380853;,
  -7.393579;-0.890426;-1.483784;,
  -11.314139;-1.688582;-2.694551;,
  -7.393579;-0.890426;-1.483784;,
  -7.173382;-3.565466;-1.952028;,
  -11.036104;-1.776712;-1.380853;,
  -11.301172;-2.822951;-2.833992;,
  -11.301172;-2.822951;-2.833992;,
  -11.036104;-1.776712;-1.380853;,
  -10.926872;-3.103699;-1.613132;,
  2.661299;2.106848;-1.401239;,
  0.767446;1.422708;-2.876430;,
  0.468164;-0.145005;-6.782014;,
  0.294009;1.154830;-6.388984;,
  -0.974861;0.049147;-8.046748;,
  0.468164;-0.145005;-6.782014;,
  0.294009;1.154830;-6.388984;,
  -1.220652;1.608627;-7.394874;,
  -1.220652;1.608627;-7.394874;,
  -0.974861;0.049147;-8.046748;,
  -4.328282;-5.930938;1.873748;,
  -4.864344;1.967686;0.503861;,
  -6.682570;1.636888;0.239744;,
  -5.551817;1.554500;-1.462418;,
  -5.551817;1.554500;-1.462418;,
  4.110816;-3.563470;-3.393985;,
  3.516581;-0.893003;-4.627927;,
  2.901863;-2.843427;-5.887473;,
  4.110816;-3.563470;-3.393985;,
  0.198724;3.171078;-0.147498;,
  2.057163;3.171078;1.009558;,
  2.057163;3.171078;1.009558;,
  0.198724;2.594536;1.207755;,
  -5.538558;3.302226;-2.992134;,
  -1.979934;-3.584617;-2.382925;,
  -2.524240;-2.236609;-4.693527;,
  -3.585732;-2.522628;-3.373969;,
  -1.979934;-3.584617;-2.382925;;
  322;
  3;11,1,2;,
  3;1,11,10;,
  3;13,3,4;,
  3;3,13,12;,
  3;14,5,15;,
  3;91,89,88;,
  3;89,91,90;,
  3;16,6,17;,
  3;78,76,75;,
  3;76,78,77;,
  3;7,112,19;,
  3;19,0,8;,
  3;80,9,96;,
  3;23,10,163;,
  3;10,23,22;,
  3;164,105,23;,
  3;105,164,165;,
  3;12,13,125;,
  3;126,14,127;,
  3;14,126,13;,
  3;62,60,59;,
  3;60,62,61;,
  3;166,113,26;,
  3;113,166,167;,
  3;167,18,113;,
  3;168,119,118;,
  3;168,103,119;,
  3;30,20,21;,
  3;20,30,39;,
  3;169,170,31;,
  3;69,98,97;,
  3;23,105,104;,
  3;24,45,141;,
  3;66,100,67;,
  3;25,152,33;,
  3;34,26,35;,
  3;26,36,35;,
  3;36,117,116;,
  3;28,102,38;,
  3;29,20,171;,
  3;42,115,31;,
  3;43,172,32;,
  3;172,43,173;,
  3;32,44,43;,
  3;174,129,175;,
  3;129,174,130;,
  3;34,35,48;,
  3;50,36,116;,
  3;36,50,49;,
  3;51,37,38;,
  3;37,51,50;,
  3;38,101,51;,
  3;171,40,52;,
  3;53,176,41;,
  3;176,53,58;,
  3;41,177,53;,
  3;92,95,156;,
  3;175,139,142;,
  3;175,129,139;,
  3;47,178,56;,
  3;178,179,57;,
  3;179,180,57;,
  3;84,83,85;,
  3;83,87,86;,
  3;181,176,58;,
  3;182,183,184;,
  3;183,182,185;,
  3;184,186,187;,
  3;186,184,183;,
  3;187,188,189;,
  3;188,187,186;,
  3;190,185,182;,
  3;185,190,191;,
  3;192,63,27;,
  3;27,63,193;,
  3;193,63,194;,
  3;194,63,195;,
  3;196,64,197;,
  3;197,64,198;,
  3;198,64,199;,
  3;200,64,196;,
  3;201,99,202;,
  3;99,201,65;,
  3;202,203,204;,
  3;203,202,99;,
  3;204,205,206;,
  3;205,204,203;,
  3;207,65,201;,
  3;65,207,208;,
  3;209,210,211;,
  3;210,209,68;,
  3;211,212,213;,
  3;212,211,210;,
  3;213,70,214;,
  3;70,213,212;,
  3;214,215,216;,
  3;215,214,70;,
  3;217,71,218;,
  3;218,71,219;,
  3;219,71,220;,
  3;221,71,217;,
  3;222,72,223;,
  3;223,72,224;,
  3;224,72,225;,
  3;225,72,226;,
  3;227,73,228;,
  3;229,73,230;,
  3;230,73,231;,
  3;231,73,227;,
  3;232,74,46;,
  3;233,74,55;,
  3;55,74,234;,
  3;234,74,232;,
  3;235,236,237;,
  3;236,235,238;,
  3;239,240,241;,
  3;240,239,242;,
  3;241,243,244;,
  3;243,241,245;,
  3;244,246,235;,
  3;246,244,243;,
  3;247,79,248;,
  3;248,79,249;,
  3;249,79,250;,
  3;251,79,247;,
  3;252,253,254;,
  3;253,252,255;,
  3;254,253,256;,
  3;256,81,257;,
  3;81,256,258;,
  3;259,260,261;,
  3;262,82,263;,
  3;82,262,261;,
  3;262,255,252;,
  3;261,260,264;,
  3;265,0,111;,
  3;0,265,266;,
  3;267,268,269;,
  3;268,267,270;,
  3;271,272,273;,
  3;272,271,274;,
  3;273,275,276;,
  3;275,273,277;,
  3;276,278,279;,
  3;278,276,280;,
  3;279,281,267;,
  3;281,279,282;,
  3;83,86,85;,
  3;58,53,114;,
  3;283,156,93;,
  3;284,285,286;,
  3;285,284,287;,
  3;288,289,290;,
  3;289,288,291;,
  3;290,292,293;,
  3;292,290,289;,
  3;293,287,284;,
  3;287,293,292;,
  3;294,295,296;,
  3;296,297,298;,
  3;297,296,295;,
  3;298,94,54;,
  3;94,298,297;,
  3;54,299,300;,
  3;299,54,94;,
  3;301,302,294;,
  3;56,178,114;,
  3;122,124,123;,
  3;38,102,101;,
  3;58,114,57;,
  3;106,109,110;,
  3;303,96,9;,
  3;80,96,304;,
  3;96,305,304;,
  3;69,97,306;,
  3;306,97,307;,
  3;97,308,307;,
  3;67,100,309;,
  3;310,100,311;,
  3;100,66,311;,
  3;51,101,312;,
  3;101,102,29;,
  3;102,313,29;,
  3;103,168,19;,
  3;29,313,314;,
  3;101,29,52;,
  3;52,29,171;,
  3;169,10,170;,
  3;23,104,32;,
  3;104,44,32;,
  3;315,141,45;,
  3;141,161,24;,
  3;47,108,178;,
  3;108,47,107;,
  3;48,316,34;,
  3;316,48,317;,
  3;318,109,148;,
  3;106,110,319;,
  3;320,108,107;,
  3;3,111,4;,
  3;111,3,265;,
  3;4,111,5;,
  3;111,112,5;,
  3;6,112,7;,
  3;111,0,112;,
  3;26,113,36;,
  3;113,117,36;,
  3;19,112,0;,
  3;7,19,168;,
  3;56,321,322;,
  3;321,56,114;,
  3;114,53,321;,
  3;169,115,323;,
  3;115,324,323;,
  3;169,31,115;,
  3;323,324,325;,
  3;25,153,152;,
  3;25,133,153;,
  3;114,178,57;,
  3;50,116,37;,
  3;116,117,326;,
  3;327,168,118;,
  3;116,326,37;,
  3;113,18,117;,
  3;117,328,326;,
  3;328,329,326;,
  3;329,328,330;,
  3;120,123,124;,
  3;331,121,332;,
  3;121,331,333;,
  3;332,334,335;,
  3;334,332,121;,
  3;336,337,338;,
  3;337,336,339;,
  3;338,333,331;,
  3;333,338,337;,
  3;120,124,340;,
  3;124,122,341;,
  3;342,106,319;,
  3;150,343,130;,
  3;321,344,322;,
  3;24,161,160;,
  3;160,132,345;,
  3;135,138,136;,
  3;138,137,136;,
  3;346,161,105;,
  3;161,140,104;,
  3;140,44,104;,
  3;44,140,128;,
  3;130,131,344;,
  3;131,343,47;,
  3;321,129,344;,
  3;161,104,105;,
  3;347,25,348;,
  3;25,347,133;,
  3;127,349,126;,
  3;349,127,134;,
  3;350,351,352;,
  3;351,350,353;,
  3;352,354,355;,
  3;354,352,351;,
  3;133,134,127;,
  3;134,133,356;,
  3;137,138,357;,
  3;138,358,357;,
  3;359,139,129;,
  3;360,139,359;,
  3;161,141,140;,
  3;360,142,139;,
  3;144,146,147;,
  3;361,362,363;,
  3;362,361,143;,
  3;363,364,365;,
  3;364,363,366;,
  3;367,145,368;,
  3;145,367,369;,
  3;368,370,361;,
  3;370,368,145;,
  3;371,147,146;,
  3;372,147,373;,
  3;147,371,373;,
  3;374,148,149;,
  3;148,374,318;,
  3;375,14,15;,
  3;106,376,148;,
  3;149,376,151;,
  3;376,149,148;,
  3;377,14,375;,
  3;14,155,127;,
  3;150,130,378;,
  3;344,131,47;,
  3;148,109,106;,
  3;379,154,380;,
  3;380,154,381;,
  3;382,154,383;,
  3;383,154,379;,
  3;377,155,14;,
  3;127,155,133;,
  3;155,377,153;,
  3;155,153,133;,
  3;130,343,131;,
  3;359,129,321;,
  3;294,302,295;,
  3;93,156,384;,
  3;156,95,384;,
  3;385,157,386;,
  3;386,157,387;,
  3;388,157,385;,
  3;389,158,390;,
  3;390,158,391;,
  3;391,158,392;,
  3;393,159,394;,
  3;395,159,396;,
  3;396,159,393;,
  3;132,160,397;,
  3;160,161,346;,
  3;397,160,346;,
  3;125,13,126;,
  3;398,162,399;,
  3;399,162,400;,
  3;400,162,401;,
  3;378,130,174;;

  MeshNormals  {
   611;
   -0.590317;0.740853;0.320409;,
   -0.569281;0.753080;0.329834;,
   -0.566949;0.734592;0.372752;,
   -0.618384;0.737707;0.270906;,
   -0.575244;0.739653;-0.349297;,
   -0.563503;0.796994;-0.217407;,
   -0.729393;0.680739;-0.067679;,
   -0.375114;0.842581;-0.386454;,
   0.165375;0.833902;-0.526554;,
   0.144456;0.876117;-0.459948;,
   0.160629;0.844171;-0.511443;,
   0.458841;0.777555;-0.429968;,
   0.458790;0.772993;-0.438171;,
   0.457598;0.814120;-0.357510;,
   0.452166;0.688520;-0.566998;,
   0.385053;0.904074;-0.185432;,
   0.385053;0.904074;-0.185432;,
   0.420480;0.514046;0.747632;,
   0.420480;0.514046;0.747632;,
   0.420480;0.514046;0.747632;,
   0.420480;0.514046;0.747632;,
   -0.203774;0.951221;0.231633;,
   -0.208632;0.947343;0.242930;,
   -0.182991;0.965791;0.183745;,
   0.140888;0.774033;0.617271;,
   0.140888;0.774033;0.617271;,
   -0.010552;0.999204;0.038475;,
   -0.010552;0.999204;0.038475;,
   -0.644226;0.664219;0.379193;,
   -0.647335;0.738457;0.188779;,
   -0.470520;0.825336;0.312140;,
   -0.174940;0.984172;-0.028325;,
   -0.184640;0.972803;-0.139865;,
   -0.184640;0.972803;-0.139865;,
   0.194977;0.962252;0.189881;,
   0.180698;0.945187;0.271974;,
   0.213905;0.974821;0.062993;,
   0.166438;0.923499;0.345612;,
   0.564381;0.424991;-0.707712;,
   0.564381;0.424991;-0.707712;,
   0.564381;0.424991;-0.707712;,
   0.977429;0.135963;-0.161699;,
   0.979113;0.196745;-0.051282;,
   0.926216;0.374289;0.045076;,
   0.959339;-0.127445;-0.251847;,
   0.997937;-0.064194;0.000001;,
   0.031577;0.992470;-0.118350;,
   0.143335;0.982653;-0.117676;,
   0.149718;0.981084;-0.122713;,
   0.009867;0.993024;-0.117495;,
   -0.145781;0.571738;0.807381;,
   0.045989;0.564359;0.824248;,
   -0.106239;0.537037;0.836842;,
   -0.110038;0.608310;0.786035;,
   -0.550970;0.000000;0.834525;,
   -0.550970;0.000000;0.834525;,
   0.100571;0.000000;0.994930;,
   0.099843;0.000000;0.995003;,
   -0.071961;0.000000;0.997407;,
   -0.984768;-0.036960;0.169900;,
   -0.996154;-0.062429;0.061482;,
   -0.998883;-0.038279;0.027693;,
   -0.999832;0.000000;-0.018311;,
   -0.998187;0.002557;-0.060138;,
   -0.981405;0.008271;-0.191769;,
   -0.147453;-0.799314;-0.582541;,
   -0.147453;-0.799314;-0.582541;,
   -0.014122;0.413975;-0.910179;,
   -0.016190;0.395124;-0.918485;,
   -0.013071;0.423463;-0.905819;,
   0.623490;-0.000000;-0.781831;,
   0.623490;-0.000000;-0.781831;,
   0.900969;-0.000000;-0.433883;,
   0.900969;-0.000000;-0.433883;,
   0.900969;-0.000000;-0.433883;,
   0.615861;-0.285604;-0.734266;,
   0.615861;-0.285604;-0.734266;,
   0.212829;-0.000000;0.977089;,
   0.244387;0.052610;0.968250;,
   0.229647;0.027867;0.972875;,
   0.186713;0.544005;0.818044;,
   0.098206;-0.111354;0.988917;,
   0.098206;-0.111354;0.988917;,
   -0.679922;-0.718634;0.145849;,
   -0.668972;-0.704809;0.236051;,
   -0.728927;-0.683921;0.030301;,
   -0.616610;-0.729120;0.296944;,
   -0.727764;-0.683533;-0.056056;,
   -0.137366;-0.988676;-0.060416;,
   -0.055958;-0.985880;-0.157824;,
   -0.156589;-0.985450;-0.066093;,
   0.043798;-0.983082;-0.177854;,
   0.243114;-0.361769;-0.900010;,
   0.243114;-0.361769;-0.900010;,
   0.243114;-0.361769;-0.900010;,
   0.701452;-0.668804;-0.246306;,
   0.627413;-0.674284;-0.389478;,
   0.527225;-0.772623;-0.353676;,
   0.905198;-0.424991;0.000001;,
   0.382312;-0.905505;0.184112;,
   0.253297;-0.959667;0.121982;,
   0.232247;-0.966205;0.111845;,
   0.382312;-0.905505;0.184112;,
   0.131334;-0.863471;0.487001;,
   0.147440;-0.861074;0.486635;,
   0.156112;-0.859686;0.486383;,
   0.664454;-0.261365;0.700135;,
   0.618424;-0.332865;0.711866;,
   0.669575;-0.252781;0.698407;,
   -0.066910;-0.937391;0.341790;,
   -0.076286;-0.935323;0.345473;,
   -0.092527;-0.931500;0.351775;,
   -0.057857;-0.939294;0.338201;,
   -0.534200;-0.779492;0.327142;,
   -0.534200;-0.779492;0.327142;,
   -0.904924;0.334612;0.262958;,
   -0.927242;0.341926;0.152673;,
   -0.960764;0.169839;0.219288;,
   -0.192881;-0.799950;-0.568223;,
   -0.192881;-0.799950;-0.568223;,
   0.425951;-0.622880;-0.656191;,
   0.356661;-0.730414;-0.582485;,
   0.356661;-0.730414;-0.582485;,
   0.494175;-0.836155;-0.237982;,
   0.550227;-0.821031;-0.152182;,
   0.580120;-0.808180;-0.101517;,
   0.633145;-0.774033;0.000000;,
   0.570443;-0.774034;0.274712;,
   0.478154;-0.791181;0.381316;,
   0.498487;-0.801963;0.329189;,
   0.394759;-0.774034;0.495013;,
   0.431858;-0.801963;0.412739;,
   0.417851;-0.770749;0.480986;,
   0.417851;-0.770749;0.480986;,
   0.417851;-0.770749;0.480986;,
   -0.253169;0.913850;0.317464;,
   -0.253169;0.913850;0.317465;,
   -0.253169;0.913850;0.317464;,
   -0.778432;0.105813;-0.618747;,
   -0.778432;0.105813;-0.618747;,
   -0.778432;0.105813;-0.618747;,
   -0.778432;0.105813;-0.618747;,
   0.311758;-0.866013;-0.390932;,
   0.311758;-0.866013;-0.390933;,
   0.311758;-0.866013;-0.390933;,
   0.776194;0.105609;0.621587;,
   0.776193;0.105610;0.621587;,
   0.776194;0.105609;0.621587;,
   0.776193;0.105610;0.621587;,
   0.091570;0.994822;0.044098;,
   0.091570;0.994822;0.044098;,
   0.590308;0.000000;-0.807178;,
   0.091570;-0.994822;0.044098;,
   -0.420771;-0.000000;0.907167;,
   -0.420771;-0.000000;0.907167;,
   -0.067030;0.953551;-0.293678;,
   0.981705;0.184195;-0.048236;,
   0.981705;0.184195;-0.048236;,
   0.100703;-0.891737;0.441208;,
   0.100703;-0.891737;0.441208;,
   0.100703;-0.891737;0.441208;,
   -0.993125;0.050791;0.105468;,
   -0.993125;0.050791;0.105468;,
   -0.993125;0.050791;0.105468;,
   -0.103621;0.994432;0.019169;,
   -0.031424;0.999321;-0.019246;,
   -0.115429;0.992989;0.025475;,
   -0.008012;0.999467;-0.031652;,
   -0.992899;0.000000;0.118958;,
   -0.992899;0.000000;0.118958;,
   -0.026105;-0.999631;0.007568;,
   0.002235;-0.999959;0.008831;,
   0.947746;0.047391;-0.315485;,
   0.910066;0.005287;-0.414430;,
   0.947889;0.052603;-0.314228;,
   0.912155;0.000000;-0.409846;,
   -0.048872;0.998703;0.014252;,
   -0.185933;0.981065;0.054223;,
   -0.048872;0.998703;0.014252;,
   -0.183414;0.981580;0.053488;,
   0.225947;0.000000;0.974140;,
   0.225947;0.000000;0.974140;,
   -0.048872;-0.998703;0.014252;,
   -0.188497;-0.980534;0.054971;,
   -0.048872;-0.998703;0.014252;,
   -0.191093;-0.979989;0.055728;,
   -0.321413;-0.000000;-0.946939;,
   -0.321413;-0.000000;-0.946939;,
   -0.321413;-0.000000;-0.946939;,
   -0.321413;0.000000;-0.946939;,
   0.623159;0.746151;-0.234375;,
   0.623159;0.746151;-0.234375;,
   0.623159;0.746151;-0.234375;,
   0.041625;0.219999;0.974612;,
   -0.891673;-0.382082;0.242761;,
   -0.891673;-0.382082;0.242761;,
   -0.891673;-0.382082;0.242761;,
   -0.033828;0.281650;-0.958921;,
   -0.096890;0.924618;0.368367;,
   -0.096890;0.924618;0.368367;,
   -0.096890;0.924618;0.368367;,
   0.954085;-0.117540;0.275512;,
   0.954085;-0.117540;0.275512;,
   0.047002;-0.982781;-0.178697;,
   0.047002;-0.982781;-0.178697;,
   -0.975142;-0.146609;-0.166147;,
   -0.975142;-0.146609;-0.166147;,
   0.556870;0.786116;-0.268174;,
   -0.636355;0.007990;-0.771355;,
   -0.364326;-0.914595;0.175450;,
   -0.364325;-0.914595;0.175450;,
   -0.364325;-0.914595;0.175450;,
   0.683874;-0.247532;0.686326;,
   0.683874;-0.247532;0.686326;,
   0.044434;0.399421;-0.915690;,
   0.044434;0.399421;-0.915690;,
   -0.931175;-0.258879;0.256699;,
   -0.931175;-0.258879;0.256699;,
   -0.931175;-0.258879;0.256699;,
   0.092868;-0.908748;0.406882;,
   0.136263;-0.790580;0.597006;,
   0.205931;-0.816695;0.539074;,
   0.969150;-0.192698;-0.153672;,
   0.969150;-0.192698;-0.153672;,
   -0.604014;0.633487;0.483592;,
   -0.755886;0.651793;0.061667;,
   -0.587026;0.626695;0.512497;,
   -0.774954;0.601562;-0.193826;,
   -0.002729;0.086165;-0.996277;,
   -0.013583;0.103267;-0.994561;,
   -0.000262;0.082273;-0.996610;,
   -0.018115;0.110398;-0.993722;,
   0.833762;-0.551713;0.021299;,
   0.801985;-0.572473;0.170573;,
   0.836680;-0.547693;0.000001;,
   0.795055;-0.574557;0.194350;,
   0.096394;0.058589;0.993617;,
   0.015430;0.090505;0.995776;,
   0.111466;0.052566;0.992377;,
   -0.009966;0.100366;0.994901;,
   0.056924;0.805923;0.589277;,
   0.056924;0.805923;0.589277;,
   0.056924;0.805923;0.589277;,
   -0.962015;0.254239;0.099445;,
   -0.962015;0.254239;0.099445;,
   -0.392308;-0.427158;-0.814636;,
   -0.392308;-0.427158;-0.814636;,
   -0.392308;-0.427158;-0.814636;,
   0.840880;0.388392;-0.376926;,
   0.840880;0.388392;-0.376926;,
   0.129852;0.894442;-0.427916;,
   0.123871;0.895619;-0.427228;,
   0.135818;0.893234;-0.428587;,
   0.116944;0.896938;-0.426411;,
   0.875830;0.377328;0.300909;,
   0.863957;0.341663;0.369925;,
   0.873821;0.301126;0.381785;,
   0.862392;0.286945;0.417066;,
   0.871973;0.212409;0.441072;,
   -0.095416;-0.652695;0.751588;,
   -0.123437;-0.639484;0.758831;,
   -0.116033;-0.643043;0.756989;,
   -0.998302;-0.022164;-0.053867;,
   -0.997446;0.066137;-0.026978;,
   -0.992509;0.117851;-0.032193;,
   -0.993834;-0.104134;-0.038086;,
   -0.781331;0.377328;-0.497138;,
   -0.781331;0.377328;-0.497138;,
   -0.781331;0.377328;-0.497138;,
   -0.150972;-0.625808;0.765226;,
   -0.082728;0.984454;0.154939;,
   -0.090792;0.981245;0.170042;,
   -0.116784;0.968774;0.218721;,
   0.000000;1.000000;0.000000;,
   0.882884;0.199352;0.425176;,
   0.882884;0.199351;0.425176;,
   0.882884;0.199352;0.425176;,
   0.882884;0.199352;0.425176;,
   0.361178;-0.186613;-0.913633;,
   0.361178;-0.186613;-0.913633;,
   0.361178;-0.186613;-0.913633;,
   0.361178;-0.186613;-0.913634;,
   -0.458327;-0.401628;-0.792863;,
   -0.661568;-0.361070;-0.657234;,
   -0.419946;-0.406191;-0.811575;,
   -0.736096;-0.337005;-0.587018;,
   -0.727744;-0.300551;0.616488;,
   -0.727744;-0.300551;0.616488;,
   -0.727744;-0.300551;0.616488;,
   -0.727744;-0.300551;0.616488;,
   0.362427;0.213256;0.907286;,
   0.519677;0.312790;0.795046;,
   0.330610;0.193202;0.923780;,
   0.583280;0.353301;0.731412;,
   -0.086452;-0.910510;-0.404350;,
   0.083115;-0.870085;-0.485844;,
   -0.048564;-0.893845;-0.445738;,
   -0.051316;-0.645856;0.761732;,
   -0.051316;-0.645856;0.761732;,
   -0.051316;-0.645856;0.761732;,
   -0.374607;0.811868;0.447817;,
   -0.418933;0.797662;0.433857;,
   -0.292766;0.832566;0.470235;,
   -0.511919;0.760249;0.399950;,
   -0.445298;-0.127011;-0.886329;,
   -0.436033;-0.160746;-0.885458;,
   -0.466717;-0.039081;-0.883543;,
   -0.398940;-0.278565;-0.873641;,
   0.575852;-0.383370;-0.722095;,
   0.575852;-0.383370;-0.722095;,
   0.742961;-0.015719;0.669151;,
   0.771113;-0.008794;0.636638;,
   0.615055;-0.043335;0.787292;,
   0.909521;0.033368;0.414317;,
   -0.876836;0.437157;0.200132;,
   -0.802591;0.454378;0.386508;,
   0.342008;-0.347350;0.873143;,
   0.342009;-0.347350;0.873143;,
   0.342008;-0.347350;0.873143;,
   0.342009;-0.347350;0.873143;,
   0.546231;-0.828305;-0.124674;,
   0.651292;-0.744124;-0.148653;,
   0.540049;-0.832558;-0.123263;,
   0.651292;-0.744124;-0.148653;,
   -0.070703;-0.347350;-0.935066;,
   -0.070703;-0.347350;-0.935066;,
   -0.070703;-0.347350;-0.935066;,
   -0.070703;-0.347350;-0.935066;,
   -0.890809;0.454378;0.000000;,
   0.266303;-0.794871;0.545218;,
   0.287437;-0.788130;0.544272;,
   -0.630108;0.561542;0.536315;,
   -0.630109;0.561542;0.536315;,
   0.259574;0.078428;0.962533;,
   -0.159197;-0.889033;-0.429275;,
   -0.254706;0.613682;-0.747342;,
   -0.252568;0.598594;-0.760194;,
   -0.241398;0.578998;-0.778773;,
   -0.984812;0.170604;0.032232;,
   0.614393;0.491934;0.616865;,
   0.614393;0.491934;0.616865;,
   -0.187526;-0.247720;0.950510;,
   -0.371086;-0.922271;0.108218;,
   -0.637336;0.000000;-0.770586;,
   -0.360006;0.927024;0.104987;,
   0.839663;0.000000;-0.543108;,
   -0.125091;0.860305;-0.494194;,
   -0.866097;0.000000;-0.499876;,
   -0.866097;0.000000;-0.499876;,
   0.173844;-0.856636;0.485751;,
   -0.563503;0.008909;0.826066;,
   -0.474121;0.137619;0.869638;,
   -0.575442;-0.010122;0.817780;,
   -0.379286;0.610047;0.695690;,
   -0.084400;0.989122;-0.120472;,
   -0.174813;0.360937;0.916060;,
   -0.174813;0.360937;0.916060;,
   -0.625870;-0.097155;0.773852;,
   0.693659;-0.210360;0.688902;,
   -0.435188;0.613290;0.659156;,
   -0.435188;0.613290;0.659156;,
   -0.987671;-0.000000;0.156544;,
   -0.750114;-0.649590;-0.123940;,
   -0.981222;0.011311;-0.192548;,
   -0.388186;0.909860;0.146513;,
   -0.464214;0.874689;0.139371;,
   -0.559895;0.801763;0.209031;,
   0.075043;-0.994138;0.077841;,
   0.075043;-0.994138;0.077842;,
   0.075043;-0.994138;0.077842;,
   0.075043;-0.994138;0.077841;,
   0.966869;0.246243;0.067293;,
   0.966869;0.246243;0.067293;,
   0.966869;0.246243;0.067293;,
   0.966869;0.246243;0.067293;,
   -0.055257;0.886892;-0.458661;,
   -0.055257;0.886892;-0.458661;,
   -0.055257;0.886892;-0.458661;,
   -0.467568;-0.115948;-0.876320;,
   -0.467568;-0.115948;-0.876320;,
   -0.467568;-0.115948;-0.876320;,
   0.127969;-0.934586;-0.331924;,
   0.085760;-0.945353;-0.314569;,
   0.282338;-0.876468;-0.389987;,
   -0.513236;0.853005;-0.094719;,
   -0.473696;0.838827;-0.268293;,
   0.041100;0.909917;-0.412749;,
   0.041100;0.909917;-0.412749;,
   0.041100;0.909917;-0.412749;,
   0.470005;0.812222;0.345530;,
   0.470005;0.812222;0.345530;,
   -0.246782;0.910008;0.333143;,
   0.545988;0.825799;-0.141254;,
   0.634806;0.765553;-0.104647;,
   0.587533;0.799531;-0.124716;,
   0.905584;0.421862;0.044167;,
   0.056066;0.439981;-0.896255;,
   0.056673;0.420028;-0.905740;,
   0.058766;0.340721;-0.938326;,
   0.671757;0.735538;-0.087901;,
   0.424766;0.672278;0.606313;,
   0.274208;-0.813291;0.513194;,
   0.404543;-0.909846;-0.092334;,
   -0.927237;-0.357204;0.112416;,
   -0.929810;0.350351;0.112728;,
   -0.929810;0.350351;0.112728;,
   -0.929810;0.350351;0.112728;,
   0.077953;-0.614604;0.784974;,
   0.077953;-0.614604;0.784974;,
   0.077953;-0.614604;0.784974;,
   -0.788182;-0.381823;0.482680;,
   -0.788182;-0.381823;0.482680;,
   -0.788182;-0.381823;0.482680;,
   -0.017479;0.383264;-0.923473;,
   -0.164678;0.597363;-0.784881;,
   -0.106833;0.649744;-0.752608;,
   -0.147210;0.655044;-0.741112;,
   -0.148762;-0.873739;-0.463088;,
   0.570352;-0.787860;-0.232323;,
   0.945566;-0.277818;-0.169476;,
   0.945566;-0.277818;-0.169476;,
   0.377432;0.809093;-0.450460;,
   0.377432;0.809093;-0.450460;,
   0.377432;0.809093;-0.450460;,
   0.926116;0.000000;-0.377238;,
   0.926116;0.000000;-0.377238;,
   0.926116;0.000000;-0.377238;,
   0.053492;0.514245;-0.855974;,
   0.839079;0.522624;-0.151035;,
   0.629513;0.650906;0.424305;,
   0.695171;0.608130;0.383296;,
   0.735832;0.577045;0.354359;,
   0.556398;0.689803;0.463241;,
   -0.028460;0.903880;-0.426838;,
   -0.013822;0.916049;-0.400828;,
   0.071887;0.967938;-0.240683;,
   0.939545;0.136639;-0.313983;,
   0.939545;0.136639;-0.313983;,
   0.939545;0.136639;-0.313983;,
   0.939545;0.136639;-0.313983;,
   0.152243;-0.698787;0.698941;,
   0.152243;-0.698787;0.698941;,
   0.152243;-0.698787;0.698941;,
   0.152243;-0.698787;0.698941;,
   -0.908686;0.376751;0.179860;,
   -0.908686;0.376751;0.179860;,
   -0.908686;0.376751;0.179860;,
   -0.908686;0.376751;0.179860;,
   -0.085880;0.846730;-0.525046;,
   -0.085880;0.846730;-0.525046;,
   0.925801;0.374127;-0.054053;,
   0.925801;0.374127;-0.054053;,
   0.208084;-0.210000;0.955302;,
   0.208084;-0.210000;0.955302;,
   -0.853664;-0.152645;-0.497954;,
   -0.053970;-0.665828;-0.744151;,
   -0.056025;-0.592094;-0.803919;,
   -0.057395;-0.524078;-0.849734;,
   -0.536656;-0.788296;-0.300982;,
   -0.428379;-0.838908;-0.335746;,
   -0.568563;-0.746098;-0.346516;,
   -0.644631;0.729512;0.228610;,
   -0.795821;0.025029;0.605014;,
   -0.807768;0.584340;0.077831;,
   -0.807768;0.584340;0.077831;,
   -0.807768;0.584340;0.077831;,
   -0.077137;0.427366;-0.900782;,
   -0.077137;0.427366;-0.900782;,
   -0.077137;0.427366;-0.900782;,
   -0.643996;0.613167;-0.457488;,
   -0.643996;0.613167;-0.457488;,
   -0.337438;0.937833;0.081276;,
   -0.403997;0.912026;0.070673;,
   -0.724243;-0.256791;0.639946;,
   -0.718946;-0.237292;0.653306;,
   -0.744939;-0.355911;0.564264;,
   -0.700734;-0.178585;0.690709;,
   -0.717826;-0.661584;-0.216872;,
   -0.717825;-0.661584;-0.216872;,
   -0.717826;-0.661584;-0.216872;,
   0.430318;-0.846320;-0.313957;,
   0.430318;-0.846320;-0.313956;,
   0.430318;-0.846320;-0.313956;,
   -0.441523;-0.842879;-0.307590;,
   -0.991513;-0.023032;-0.127954;,
   -0.192830;0.550335;-0.812372;,
   -0.292307;0.464774;-0.835788;,
   0.505634;0.511060;0.695092;,
   0.505174;0.510973;0.695490;,
   0.505804;0.511092;0.694944;,
   0.504881;0.510918;0.695743;,
   -0.941762;0.236998;0.238570;,
   -0.941753;0.237022;0.238582;,
   -0.941818;0.236847;0.238500;,
   -0.941665;0.237260;0.238694;,
   -0.091088;-0.025591;-0.995514;,
   -0.090948;-0.025698;-0.995524;,
   -0.091308;-0.025423;-0.995498;,
   -0.090591;-0.025969;-0.995550;,
   0.961364;0.268044;0.062709;,
   0.961358;0.268098;0.062571;,
   0.961373;0.267962;0.062918;,
   0.961342;0.268235;0.062221;,
   0.779336;0.621423;-0.080429;,
   0.779336;0.621423;-0.080429;,
   0.779336;0.621423;-0.080429;,
   0.361343;0.863888;0.350898;,
   0.596601;-0.801420;-0.042361;,
   0.596601;-0.801420;-0.042361;,
   0.596601;-0.801420;-0.042361;,
   -0.246188;-0.919598;0.306156;,
   -0.246188;-0.919598;0.306156;,
   -0.547488;-0.836455;-0.024498;,
   -0.547488;-0.836455;-0.024498;,
   -0.547488;-0.836455;-0.024498;,
   -0.310053;0.943030;0.120670;,
   -0.290742;0.948579;0.125170;,
   -0.439380;0.885283;0.152382;,
   -0.484345;-0.113932;-0.867427;,
   -0.565601;0.043782;-0.823516;,
   -0.494999;-0.158687;-0.854280;,
   -0.548704;0.095817;-0.830508;,
   0.068323;-0.166558;0.983662;,
   -0.021948;-0.174132;0.984478;,
   0.068323;-0.166558;0.983662;,
   -0.033793;-0.175020;0.983985;,
   -0.136245;-0.973784;-0.182160;,
   -0.136245;-0.973784;-0.182160;,
   -0.136245;-0.973784;-0.182160;,
   -0.136245;-0.973784;-0.182160;,
   -0.715624;0.077155;-0.694211;,
   -0.179321;-0.183929;0.966444;,
   -0.468172;-0.881652;-0.059209;,
   -0.468172;-0.881652;-0.059209;,
   -0.468172;-0.881652;-0.059209;,
   0.419609;0.372221;-0.827877;,
   0.443835;0.354166;-0.823150;,
   0.519128;0.293682;-0.802656;,
   0.331269;0.432958;-0.838336;,
   0.189232;0.775349;-0.602516;,
   0.978692;0.011427;-0.205017;,
   0.974761;0.137112;-0.176185;,
   0.963025;0.187260;-0.193693;,
   0.950368;0.256664;-0.175852;,
   0.974037;0.174218;-0.144571;,
   0.490398;0.861475;-0.131797;,
   0.378420;0.770803;-0.512504;,
   0.378420;0.770803;-0.512504;,
   0.378420;0.770803;-0.512504;,
   0.279568;-0.848543;-0.449241;,
   0.385965;-0.835474;-0.391171;,
   0.355024;-0.840645;-0.408993;,
   -0.136153;-0.990465;0.021028;,
   -0.136153;-0.990465;0.021028;,
   -0.273930;0.643606;-0.714656;,
   0.856211;-0.041002;0.514997;,
   0.856211;-0.041002;0.514997;,
   0.151709;0.966392;0.207536;,
   0.096338;0.953628;0.285155;,
   0.190023;0.963771;0.187181;,
   -0.706570;0.175225;-0.685605;,
   -0.706570;0.175225;-0.685605;,
   0.168740;-0.927043;-0.334840;,
   0.168740;-0.927043;-0.334840;,
   -0.100486;0.965399;-0.240638;,
   -0.100486;0.965399;-0.240638;,
   0.522753;0.831924;-0.186097;,
   0.522753;0.831924;-0.186097;,
   0.259822;0.957563;0.124764;,
   0.288594;0.948564;0.130152;,
   -0.058856;-0.397233;-0.915829;,
   -0.575606;-0.775808;-0.258457;,
   0.114281;-0.993106;-0.026084;,
   0.114281;-0.993106;-0.026084;,
   -0.446962;-0.701358;-0.555267;,
   -0.446962;-0.701358;-0.555267;,
   -0.446962;-0.701358;-0.555267;,
   -0.133691;-0.055196;0.989485;,
   -0.133691;-0.055196;0.989485;,
   -0.721160;-0.523504;-0.453731;,
   -0.721160;-0.523504;-0.453731;,
   0.651354;0.663973;-0.367258;,
   0.651354;0.663973;-0.367258;,
   0.468917;0.454330;0.757431;,
   0.468917;0.454330;0.757431;,
   -0.250091;0.579650;-0.775539;,
   -0.025441;-0.963654;-0.265938;,
   0.498022;0.334838;-0.799912;,
   0.498022;0.334838;-0.799912;,
   0.165867;-0.202904;0.965048;,
   0.165867;-0.202904;0.965048;,
   -0.999836;0.016673;0.007093;,
   -0.999836;0.016673;0.007093;,
   -0.999836;0.016673;0.007093;,
   -0.868268;-0.301117;0.394258;,
   -0.868268;-0.301117;0.394258;,
   -0.884780;0.444254;-0.140726;,
   -0.998061;-0.036538;-0.050396;,
   -0.998061;-0.036538;-0.050396;,
   -0.998061;-0.036538;-0.050396;,
   -0.255121;0.637917;0.726619;,
   -0.255121;0.637917;0.726619;,
   0.921657;-0.198896;-0.333150;,
   0.921657;-0.198896;-0.333150;,
   0.921657;-0.198896;-0.333150;,
   -0.684121;0.595406;-0.421271;,
   -0.684121;0.595406;-0.421271;,
   -0.684121;0.595406;-0.421271;,
   -0.652232;-0.367567;0.662938;,
   -0.652232;-0.367567;0.662938;,
   0.434725;-0.824863;-0.361408;;
   322;
   3;0,1,2;,
   3;1,0,3;,
   3;4,5,6;,
   3;5,4,7;,
   3;8,9,10;,
   3;11,12,13;,
   3;12,11,14;,
   3;15,16,16;,
   3;17,18,19;,
   3;18,17,20;,
   3;21,22,23;,
   3;24,24,25;,
   3;26,26,27;,
   3;28,3,0;,
   3;3,28,29;,
   3;0,30,28;,
   3;30,0,31;,
   3;32,32,33;,
   3;34,35,36;,
   3;35,34,37;,
   3;38,38,39;,
   3;38,38,40;,
   3;41,42,43;,
   3;42,41,44;,
   3;44,45,42;,
   3;46,47,48;,
   3;46,49,47;,
   3;50,51,52;,
   3;51,50,53;,
   3;54,55,55;,
   3;56,57,58;,
   3;59,60,61;,
   3;62,63,64;,
   3;65,66,66;,
   3;67,68,69;,
   3;70,70,71;,
   3;72,73,74;,
   3;75,75,76;,
   3;77,78,79;,
   3;80,51,53;,
   3;81,82,82;,
   3;83,84,85;,
   3;84,83,86;,
   3;85,87,83;,
   3;88,89,90;,
   3;89,88,91;,
   3;92,93,94;,
   3;95,96,97;,
   3;96,95,98;,
   3;99,100,101;,
   3;100,99,102;,
   3;103,104,105;,
   3;106,107,108;,
   3;109,110,111;,
   3;110,109,112;,
   3;113,114,113;,
   3;115,116,117;,
   3;118,119,118;,
   3;120,120,120;,
   3;121,122,122;,
   3;123,124,125;,
   3;124,126,125;,
   3;127,128,129;,
   3;128,130,131;,
   3;132,133,134;,
   3;135,136,135;,
   3;136,135,137;,
   3;138,139,140;,
   3;139,138,141;,
   3;142,143,142;,
   3;143,142,144;,
   3;145,146,147;,
   3;146,145,148;,
   3;149,150,149;,
   3;151,151,151;,
   3;100,152,101;,
   3;153,153,154;,
   3;155,155,155;,
   3;156,157,157;,
   3;158,159,160;,
   3;161,162,163;,
   3;164,165,166;,
   3;165,164,167;,
   3;62,168,63;,
   3;168,62,169;,
   3;90,170,88;,
   3;170,90,171;,
   3;172,173,174;,
   3;173,172,175;,
   3;176,177,178;,
   3;177,176,179;,
   3;180,56,181;,
   3;56,180,57;,
   3;182,183,184;,
   3;183,182,185;,
   3;186,187,188;,
   3;187,186,189;,
   3;190,191,192;,
   3;193,193,193;,
   3;194,195,196;,
   3;197,197,197;,
   3;198,199,200;,
   3;201,202,201;,
   3;203,203,204;,
   3;205,205,206;,
   3;207,207,207;,
   3;208,208,208;,
   3;209,210,211;,
   3;212,212,213;,
   3;214,215,215;,
   3;216,217,218;,
   3;219,220,221;,
   3;222,223,223;,
   3;224,225,226;,
   3;225,224,227;,
   3;228,229,230;,
   3;229,228,231;,
   3;232,233,234;,
   3;233,232,235;,
   3;236,237,238;,
   3;237,236,239;,
   3;240,241,242;,
   3;243,244,244;,
   3;245,246,247;,
   3;248,248,249;,
   3;250,251,252;,
   3;251,250,253;,
   3;254,255,256;,
   3;256,257,258;,
   3;257,256,255;,
   3;259,260,261;,
   3;262,263,264;,
   3;263,262,265;,
   3;266,267,268;,
   3;261,260,269;,
   3;270,271,272;,
   3;271,270,273;,
   3;274,275,276;,
   3;275,274,277;,
   3;278,279,280;,
   3;279,278,281;,
   3;282,283,284;,
   3;283,282,285;,
   3;286,287,288;,
   3;287,286,289;,
   3;290,291,292;,
   3;291,290,293;,
   3;128,131,129;,
   3;294,295,296;,
   3;297,298,299;,
   3;300,301,302;,
   3;301,300,303;,
   3;304,305,306;,
   3;305,304,307;,
   3;308,309,308;,
   3;309,308,309;,
   3;310,311,312;,
   3;311,310,313;,
   3;314,115,315;,
   3;316,317,318;,
   3;317,316,319;,
   3;320,321,322;,
   3;321,320,323;,
   3;324,325,326;,
   3;325,324,327;,
   3;328,116,314;,
   3;221,329,330;,
   3;331,331,332;,
   3;79,78,333;,
   3;294,296,334;,
   3;335,336,337;,
   3;263,338,264;,
   3;339,339,340;,
   3;341,341,341;,
   3;185,342,183;,
   3;343,343,343;,
   3;344,177,179;,
   3;175,345,173;,
   3;346,346,346;,
   3;347,348,347;,
   3;105,104,349;,
   3;350,351,352;,
   3;353,353,353;,
   3;49,46,354;,
   3;355,355,356;,
   3;350,352,357;,
   3;108,358,106;,
   3;359,359,360;,
   3;59,61,361;,
   3;362,87,85;,
   3;363,64,63;,
   3;364,365,366;,
   3;367,368,369;,
   3;368,367,370;,
   3;371,372,373;,
   3;372,371,374;,
   3;375,376,377;,
   3;378,379,380;,
   3;381,382,383;,
   3;5,384,6;,
   3;384,5,385;,
   3;386,387,388;,
   3;389,390,390;,
   3;391,22,21;,
   3;392,393,394;,
   3;43,42,395;,
   3;396,397,398;,
   3;399,394,393;,
   3;400,400,400;,
   3;221,401,219;,
   3;401,221,330;,
   3;402,320,322;,
   3;403,403,403;,
   3;404,405,406;,
   3;407,408,409;,
   3;410,411,412;,
   3;67,413,68;,
   3;414,415,416;,
   3;296,417,334;,
   3;95,97,418;,
   3;419,419,420;,
   3;421,422,423;,
   3;424,425,426;,
   3;396,427,397;,
   3;428,428,428;,
   3;429,430,431;,
   3;430,429,432;,
   3;433,434,435;,
   3;436,437,438;,
   3;437,436,439;,
   3;440,441,442;,
   3;441,440,443;,
   3;444,445,446;,
   3;445,444,447;,
   3;448,433,449;,
   3;433,448,434;,
   3;450,451,450;,
   3;452,453,452;,
   3;454,454,454;,
   3;455,456,457;,
   3;458,459,460;,
   3;366,365,461;,
   3;462,462,462;,
   3;463,464,465;,
   3;466,467,468;,
   3;469,470,469;,
   3;365,471,472;,
   3;473,474,475;,
   3;474,473,476;,
   3;477,478,479;,
   3;480,481,482;,
   3;458,483,459;,
   3;484,61,60;,
   3;485,414,486;,
   3;414,485,415;,
   3;487,488,489;,
   3;488,487,490;,
   3;491,492,493;,
   3;492,491,494;,
   3;495,496,497;,
   3;496,495,498;,
   3;499,500,501;,
   3;500,499,502;,
   3;503,504,505;,
   3;506,506,506;,
   3;507,508,509;,
   3;510,511,511;,
   3;365,364,471;,
   3;512,513,514;,
   3;515,516,517;,
   3;518,519,520;,
   3;519,518,521;,
   3;364,515,471;,
   3;515,364,516;,
   3;522,523,524;,
   3;523,522,525;,
   3;526,527,528;,
   3;527,526,529;,
   3;521,530,519;,
   3;525,531,523;,
   3;532,533,534;,
   3;535,536,537;,
   3;536,535,538;,
   3;539,8,10;,
   3;540,541,542;,
   3;543,541,544;,
   3;541,543,542;,
   3;545,545,545;,
   3;546,547,548;,
   3;549,550,551;,
   3;552,553,552;,
   3;554,336,335;,
   3;555,555,556;,
   3;557,558,559;,
   3;560,561,561;,
   3;562,563,563;,
   3;564,564,565;,
   3;566,567,567;,
   3;568,557,559;,
   3;568,559,569;,
   3;457,456,570;,
   3;571,483,458;,
   3;314,116,115;,
   3;572,573,573;,
   3;574,575,576;,
   3;577,578,577;,
   3;579,580,579;,
   3;581,582,582;,
   3;583,583,584;,
   3;336,585,337;,
   3;381,586,382;,
   3;587,588,587;,
   3;589,590,589;,
   3;591,592,593;,
   3;594,595,595;,
   3;596,596,596;,
   3;597,598,599;,
   3;600,600,601;,
   3;602,603,604;,
   3;605,606,607;,
   3;608,609,609;,
   3;551,550,610;;
  }

  MeshMaterialList  {
   1;
   322;
   0,
   0,
   0,
   0,
   0,
   0,
   0,
   0,
   0,
   0,
   0,
   0,
   0,
   0,
   0,
   0,
   0,
   0,
   0,
   0,
   0,
   0,
   0,
   0,
   0,
   0,
   0,
   0,
   0,
   0,
   0,
   0,
   0,
   0,
   0,
   0,
   0,
   0,
   0,
   0,
   0,
   0,
   0,
   0,
   0,
   0,
   0,
   0,
   0,
   0,
   0,
   0,
   0,
   0,
   0,
   0,
   0,
   0,
   0,
   0,
   0,
   0,
   0,
   0,
   0,
   0,
   0,
   0,
   0,
   0,
   0,
   0,
   0,
   0,
   0,
   0,
   0,
   0,
   0,
   0,
   0,
   0,
   0,
   0,
   0,
   0,
   0,
   0,
   0,
   0,
   0,
   0,
   0,
   0,
   0,
   0,
   0,
   0,
   0,
   0,
   0,
   0,
   0,
   0,
   0,
   0,
   0,
   0,
   0,
   0,
   0,
   0,
   0,
   0,
   0,
   0,
   0,
   0,
   0,
   0,
   0,
   0,
   0,
   0,
   0,
   0,
   0,
   0,
   0,
   0,
   0,
   0,
   0,
   0,
   0,
   0,
   0,
   0,
   0,
   0,
   0,
   0,
   0,
   0,
   0,
   0,
   0,
   0,
   0,
   0,
   0,
   0,
   0,
   0,
   0,
   0,
   0,
   0,
   0,
   0,
   0,
   0,
   0,
   0,
   0,
   0,
   0,
   0,
   0,
   0,
   0,
   0,
   0,
   0,
   0,
   0,
   0,
   0,
   0,
   0,
   0,
   0,
   0,
   0,
   0,
   0,
   0,
   0,
   0,
   0,
   0,
   0,
   0,
   0,
   0,
   0,
   0,
   0,
   0,
   0,
   0,
   0,
   0,
   0,
   0,
   0,
   0,
   0,
   0,
   0,
   0,
   0,
   0,
   0,
   0,
   0,
   0,
   0,
   0,
   0,
   0,
   0,
   0,
   0,
   0,
   0,
   0,
   0,
   0,
   0,
   0,
   0,
   0,
   0,
   0,
   0,
   0,
   0,
   0,
   0,
   0,
   0,
   0,
   0,
   0,
   0,
   0,
   0,
   0,
   0,
   0,
   0,
   0,
   0,
   0,
   0,
   0,
   0,
   0,
   0,
   0,
   0,
   0,
   0,
   0,
   0,
   0,
   0,
   0,
   0,
   0,
   0,
   0,
   0,
   0,
   0,
   0,
   0,
   0,
   0,
   0,
   0,
   0,
   0,
   0,
   0,
   0,
   0,
   0,
   0,
   0,
   0,
   0,
   0,
   0,
   0,
   0,
   0,
   0,
   0,
   0,
   0,
   0,
   0,
   0,
   0,
   0,
   0,
   0,
   0,
   0,
   0,
   0,
   0,
   0,
   0,
   0,
   0,
   0,
   0,
   0,
   0;
   { crystal_1 }
  }

  MeshTextureCoords  {
   402;
   0.899915;0.441216;,
   0.859781;0.993916;,
   0.839886;0.992650;,
   0.813378;0.423412;,
   0.805989;0.441909;,
   0.836028;0.493997;,
   0.878883;0.515277;,
   0.918685;0.516842;,
   0.923644;0.423376;,
   0.410812;0.474364;,
   0.865642;0.951268;,
   0.832016;0.952534;,
   0.785196;0.391477;,
   0.779159;0.445175;,
   0.786248;0.510426;,
   0.837416;0.554834;,
   0.868730;0.566032;,
   0.901736;0.562346;,
   0.573148;0.246502;,
   0.934533;0.455180;,
   0.925149;0.327305;,
   0.996985;0.345563;,
   0.853184;0.895028;,
   0.811760;0.901494;,
   0.603468;0.856344;,
   0.628994;0.496182;,
   0.614058;0.327882;,
   0.128884;0.101434;,
   0.810227;0.208527;,
   0.888283;0.308179;,
   0.961354;0.389139;,
   0.867244;0.854290;,
   0.811995;0.858433;,
   0.582584;0.509283;,
   0.610630;0.369723;,
   0.656975;0.331398;,
   0.660403;0.289556;,
   0.734000;0.227418;,
   0.775556;0.234065;,
   0.920106;0.381872;,
   0.886716;0.409148;,
   0.935131;0.788500;,
   0.912992;0.819220;,
   0.814178;0.803524;,
   0.780501;0.803095;,
   0.606501;0.828756;,
   0.437239;0.410488;,
   0.792807;0.657831;,
   0.698546;0.342631;,
   0.681024;0.325522;,
   0.711122;0.315924;,
   0.744320;0.321520;,
   0.837916;0.375357;,
   0.871544;0.757917;,
   0.325305;0.681047;,
   0.442999;0.313880;,
   0.824269;0.674153;,
   0.916380;0.642057;,
   0.914612;0.704008;,
   0.463054;0.774523;,
   0.445686;0.774523;,
   0.443541;0.796634;,
   0.465199;0.796634;,
   0.344124;0.109483;,
   0.205917;0.212147;,
   0.123905;0.810960;,
   0.055401;0.796723;,
   0.086097;0.796723;,
   0.365000;0.969059;,
   0.492072;0.744802;,
   0.296656;0.970110;,
   0.472015;0.236210;,
   0.005198;0.367674;,
   0.792023;0.174964;,
   0.524870;0.363882;,
   0.076711;0.664290;,
   0.092519;0.675787;,
   0.110728;0.660025;,
   0.090776;0.644741;,
   0.038618;0.059448;,
   0.399135;0.513751;,
   0.472267;0.587514;,
   0.375730;0.469781;,
   0.264750;0.517201;,
   0.243707;0.517201;,
   0.248390;0.543707;,
   0.270797;0.547757;,
   0.284463;0.524568;,
   0.537178;0.584721;,
   0.537047;0.628200;,
   0.565512;0.616798;,
   0.568197;0.594952;,
   0.402686;0.756245;,
   0.398304;0.703793;,
   0.351605;0.718225;,
   0.364478;0.736263;,
   0.453094;0.502172;,
   0.463100;0.759232;,
   0.494110;0.767971;,
   0.154431;0.812982;,
   0.078173;0.767422;,
   0.819493;0.293955;,
   0.851295;0.264280;,
   0.981763;0.509745;,
   0.753534;0.879500;,
   0.763600;0.929488;,
   0.906767;0.177065;,
   0.761832;0.604817;,
   0.820232;0.562206;,
   0.894601;0.112203;,
   0.940477;0.138874;,
   0.837550;0.446987;,
   0.858977;0.478125;,
   0.612574;0.276189;,
   0.862165;0.705755;,
   0.924034;0.859414;,
   0.684107;0.259115;,
   0.652331;0.227477;,
   0.982808;0.566352;,
   0.985319;0.550721;,
   0.119739;0.766426;,
   0.144821;0.749410;,
   0.185020;0.752926;,
   0.145089;0.753199;,
   0.150642;0.786709;,
   0.739401;0.401621;,
   0.717652;0.419784;,
   0.717515;0.454072;,
   0.714674;0.801144;,
   0.736603;0.711190;,
   0.722017;0.676534;,
   0.748109;0.659598;,
   0.609495;0.940978;,
   0.672339;0.491028;,
   0.695884;0.458645;,
   0.516915;0.466131;,
   0.517395;0.428869;,
   0.488037;0.420955;,
   0.497879;0.446653;,
   0.716947;0.758973;,
   0.727652;0.860137;,
   0.652728;0.846511;,
   0.671025;0.783988;,
   0.119662;0.440464;,
   0.267871;0.408991;,
   0.090751;0.440387;,
   0.260345;0.437761;,
   0.236111;0.413664;,
   0.852548;0.156908;,
   0.813565;0.166466;,
   0.710109;0.596315;,
   0.847397;0.236954;,
   0.648431;0.572472;,
   0.680749;0.553295;,
   0.359208;0.395214;,
   0.725248;0.507390;,
   0.395377;0.729060;,
   0.313066;0.225830;,
   0.156193;0.232413;,
   0.215619;0.380675;,
   0.654463;0.912452;,
   0.692874;0.886313;,
   0.696487;0.129519;,
   0.832069;0.952532;,
   0.831586;0.951319;,
   0.789775;0.959158;,
   0.573226;0.312547;,
   0.574183;0.280571;,
   0.929895;0.544505;,
   0.903449;0.912367;,
   0.853176;0.894988;,
   0.920100;0.381948;,
   0.853212;0.850756;,
   0.846259;0.793574;,
   0.619324;0.674869;,
   0.623079;0.745464;,
   0.958334;0.764175;,
   0.875018;0.791115;,
   0.873807;0.598730;,
   0.907315;0.600660;,
   0.936669;0.616982;,
   0.946012;0.705938;,
   0.416267;0.995175;,
   0.452330;0.800489;,
   0.449885;0.996998;,
   0.434988;0.799549;,
   0.474544;0.800395;,
   0.492946;0.996815;,
   0.495973;0.797262;,
   0.534486;0.990741;,
   0.373477;0.990356;,
   0.412914;0.797063;,
   0.138009;0.060456;,
   0.131585;0.144411;,
   0.145767;0.183925;,
   0.164916;0.222494;,
   0.468659;0.184216;,
   0.468389;0.150550;,
   0.454105;0.109927;,
   0.429369;0.076007;,
   0.467138;0.227250;,
   0.099462;0.986973;,
   0.165983;0.993016;,
   0.185873;0.811331;,
   0.193700;0.991561;,
   0.216014;0.806055;,
   0.256410;0.958106;,
   0.060438;0.959563;,
   0.092894;0.805606;,
   0.391135;0.776144;,
   0.342419;0.966993;,
   0.349328;0.772319;,
   0.319163;0.967351;,
   0.306272;0.772981;,
   0.264602;0.778090;,
   0.273939;0.975101;,
   0.222544;0.787330;,
   0.552393;0.292109;,
   0.558250;0.260026;,
   0.563244;0.219437;,
   0.546090;0.178673;,
   0.515925;0.319092;,
   0.152303;0.223659;,
   0.119092;0.197978;,
   0.084360;0.172523;,
   0.052621;0.161295;,
   0.009563;0.161856;,
   0.650083;0.049771;,
   0.637367;0.089780;,
   0.758228;0.001666;,
   0.718487;0.018246;,
   0.685591;0.025411;,
   0.429263;0.373564;,
   0.479444;0.275633;,
   0.435381;0.330940;,
   0.060032;0.528289;,
   0.069032;0.660764;,
   0.018535;0.527770;,
   0.076083;0.643462;,
   0.188024;0.525619;,
   0.115542;0.657108;,
   0.129095;0.531148;,
   0.139503;0.659470;,
   0.099450;0.637958;,
   0.095554;0.529765;,
   0.115544;0.657084;,
   0.076101;0.643589;,
   0.067979;0.156564;,
   0.106777;0.109864;,
   0.127316;0.081133;,
   0.117743;0.016189;,
   0.014286;0.146282;,
   0.341790;0.574633;,
   0.423228;0.557160;,
   0.374378;0.615567;,
   0.398784;0.524143;,
   0.414679;0.630736;,
   0.446191;0.659953;,
   0.423222;0.557211;,
   0.291160;0.411398;,
   0.367239;0.423523;,
   0.307972;0.483643;,
   0.325481;0.534780;,
   0.398643;0.524163;,
   0.375839;0.469758;,
   0.840939;0.406832;,
   0.860625;0.407293;,
   0.344914;0.659793;,
   0.311845;0.536792;,
   0.376474;0.648070;,
   0.292119;0.544119;,
   0.148474;0.663405;,
   0.226029;0.542543;,
   0.191331;0.659223;,
   0.199241;0.545158;,
   0.247470;0.546756;,
   0.249128;0.680678;,
   0.225982;0.542703;,
   0.273654;0.552830;,
   0.291022;0.690636;,
   0.247468;0.546605;,
   0.292159;0.544208;,
   0.273666;0.552919;,
   0.421845;0.719472;,
   0.483629;0.657030;,
   0.550680;0.674830;,
   0.489076;0.704871;,
   0.535134;0.634897;,
   0.506403;0.504935;,
   0.533093;0.581771;,
   0.489741;0.568125;,
   0.548941;0.558769;,
   0.528919;0.603540;,
   0.483790;0.601262;,
   0.430896;0.663259;,
   0.400033;0.699396;,
   0.399035;0.652382;,
   0.372852;0.707218;,
   0.357653;0.664290;,
   0.329537;0.735916;,
   0.291708;0.707982;,
   0.464219;0.668056;,
   0.441956;0.709477;,
   0.467952;0.458910;,
   0.436636;0.557627;,
   0.479967;0.539187;,
   0.475928;0.728878;,
   0.452682;0.728123;,
   0.435391;0.742792;,
   0.106082;0.772404;,
   0.062047;0.744102;,
   0.042684;0.767920;,
   0.784528;0.369034;,
   0.898507;0.229779;,
   0.930236;0.294597;,
   0.669632;0.797054;,
   0.632861;0.427572;,
   0.696247;0.408038;,
   0.832652;0.112309;,
   0.940052;0.190475;,
   0.758021;0.558858;,
   0.836658;0.747788;,
   0.819090;0.692100;,
   0.959772;0.914454;,
   0.956236;0.832945;,
   0.989505;0.883305;,
   0.709256;0.192396;,
   0.938395;0.605681;,
   0.675527;0.164178;,
   0.734385;0.158855;,
   0.678983;0.148697;,
   0.191022;0.670074;,
   0.135084;0.677116;,
   0.183020;0.744601;,
   0.098120;0.756818;,
   0.066694;0.687965;,
   0.286789;0.699368;,
   0.209663;0.754979;,
   0.230039;0.685272;,
   0.248417;0.764605;,
   0.115203;0.804658;,
   0.188036;0.800116;,
   0.914188;0.246324;,
   0.754879;0.608464;,
   0.774694;0.690769;,
   0.581961;0.890269;,
   0.718027;0.934005;,
   0.645193;0.436306;,
   0.609318;0.432476;,
   0.695961;0.441625;,
   0.558936;0.530254;,
   0.526822;0.456990;,
   0.587674;0.460846;,
   0.512636;0.491450;,
   0.521856;0.426993;,
   0.577516;0.400400;,
   0.673483;0.476966;,
   0.474968;0.447323;,
   0.477214;0.464394;,
   0.812155;0.772864;,
   0.727491;0.795772;,
   0.130178;0.522074;,
   0.143752;0.434335;,
   0.182228;0.520433;,
   0.164827;0.413308;,
   0.231769;0.462172;,
   0.143710;0.434239;,
   0.017515;0.496375;,
   0.071929;0.522162;,
   0.063758;0.427595;,
   0.119646;0.440343;,
   0.237456;0.448450;,
   0.204421;0.408543;,
   0.210609;0.437766;,
   0.789983;0.117047;,
   0.785776;0.536617;,
   0.877446;0.233846;,
   0.714401;0.568881;,
   0.669987;0.610657;,
   0.396765;0.234958;,
   0.366913;0.230024;,
   0.325523;0.231519;,
   0.469307;0.269480;,
   0.435728;0.252236;,
   0.375221;0.710098;,
   0.269942;0.401210;,
   0.307948;0.385155;,
   0.350221;0.401153;,
   0.226736;0.382884;,
   0.032698;0.360370;,
   0.088789;0.395769;,
   0.140428;0.408050;,
   0.203563;0.403820;,
   0.214425;0.222047;,
   0.167361;0.233263;,
   0.285236;0.242065;,
   0.246974;0.221952;,
   0.679582;0.968019;,
   0.482733;0.045169;,
   0.483674;0.105492;,
   0.477516;0.142947;,
   0.474996;0.190735;;
  }
 }
}

AnimationSet Anim-1 {
 

 Animation Anim-crystal_1 {
  
  { crystal_1 }

  AnimationKey {
   4;
   101;
   0;16;0.579500,0.000000,0.000000,0.000000,0.000000,0.579500,0.000000,0.000000,0.000000,0.000000,0.579500,0.000000,0.000000,0.000000,0.000000,1.000000;;,
   160;16;0.579500,0.000000,0.000000,0.000000,0.000000,0.579500,0.000000,0.000000,0.000000,0.000000,0.579500,0.000000,0.000000,0.000000,0.000000,1.000000;;,
   320;16;0.579500,0.000000,0.000000,0.000000,0.000000,0.579500,0.000000,0.000000,0.000000,0.000000,0.579500,0.000000,0.000000,0.000000,0.000000,1.000000;;,
   480;16;0.579500,0.000000,0.000000,0.000000,0.000000,0.579500,0.000000,0.000000,0.000000,0.000000,0.579500,0.000000,0.000000,0.000000,0.000000,1.000000;;,
   640;16;0.579500,0.000000,0.000000,0.000000,0.000000,0.579500,0.000000,0.000000,0.000000,0.000000,0.579500,0.000000,0.000000,0.000000,0.000000,1.000000;;,
   800;16;0.579500,0.000000,0.000000,0.000000,0.000000,0.579500,0.000000,0.000000,0.000000,0.000000,0.579500,0.000000,0.000000,0.000000,0.000000,1.000000;;,
   960;16;0.579500,0.000000,0.000000,0.000000,0.000000,0.579500,0.000000,0.000000,0.000000,0.000000,0.579500,0.000000,0.000000,0.000000,0.000000,1.000000;;,
   1120;16;0.579500,0.000000,0.000000,0.000000,0.000000,0.579500,0.000000,0.000000,0.000000,0.000000,0.579500,0.000000,0.000000,0.000000,0.000000,1.000000;;,
   1280;16;0.579500,0.000000,0.000000,0.000000,0.000000,0.579500,0.000000,0.000000,0.000000,0.000000,0.579500,0.000000,0.000000,0.000000,0.000000,1.000000;;,
   1440;16;0.579500,0.000000,0.000000,0.000000,0.000000,0.579500,0.000000,0.000000,0.000000,0.000000,0.579500,0.000000,0.000000,0.000000,0.000000,1.000000;;,
   1600;16;0.579500,0.000000,0.000000,0.000000,0.000000,0.579500,0.000000,0.000000,0.000000,0.000000,0.579500,0.000000,0.000000,0.000000,0.000000,1.000000;;,
   1760;16;0.579500,0.000000,0.000000,0.000000,0.000000,0.579500,0.000000,0.000000,0.000000,0.000000,0.579500,0.000000,0.000000,0.000000,0.000000,1.000000;;,
   1920;16;0.579500,0.000000,0.000000,0.000000,0.000000,0.579500,0.000000,0.000000,0.000000,0.000000,0.579500,0.000000,0.000000,0.000000,0.000000,1.000000;;,
   2080;16;0.579500,0.000000,0.000000,0.000000,0.000000,0.579500,0.000000,0.000000,0.000000,0.000000,0.579500,0.000000,0.000000,0.000000,0.000000,1.000000;;,
   2240;16;0.579500,0.000000,0.000000,0.000000,0.000000,0.579500,0.000000,0.000000,0.000000,0.000000,0.579500,0.000000,0.000000,0.000000,0.000000,1.000000;;,
   2400;16;0.579500,0.000000,0.000000,0.000000,0.000000,0.579500,0.000000,0.000000,0.000000,0.000000,0.579500,0.000000,0.000000,0.000000,0.000000,1.000000;;,
   2560;16;0.579500,0.000000,0.000000,0.000000,0.000000,0.579500,0.000000,0.000000,0.000000,0.000000,0.579500,0.000000,0.000000,0.000000,0.000000,1.000000;;,
   2720;16;0.579500,0.000000,0.000000,0.000000,0.000000,0.579500,0.000000,0.000000,0.000000,0.000000,0.579500,0.000000,0.000000,0.000000,0.000000,1.000000;;,
   2880;16;0.579500,0.000000,0.000000,0.000000,0.000000,0.579500,0.000000,0.000000,0.000000,0.000000,0.579500,0.000000,0.000000,0.000000,0.000000,1.000000;;,
   3040;16;0.579500,0.000000,0.000000,0.000000,0.000000,0.579500,0.000000,0.000000,0.000000,0.000000,0.579500,0.000000,0.000000,0.000000,0.000000,1.000000;;,
   3200;16;0.579500,0.000000,0.000000,0.000000,0.000000,0.579500,0.000000,0.000000,0.000000,0.000000,0.579500,0.000000,0.000000,0.000000,0.000000,1.000000;;,
   3360;16;0.579500,0.000000,0.000000,0.000000,0.000000,0.579500,0.000000,0.000000,0.000000,0.000000,0.579500,0.000000,0.000000,0.000000,0.000000,1.000000;;,
   3520;16;0.579500,0.000000,0.000000,0.000000,0.000000,0.579500,0.000000,0.000000,0.000000,0.000000,0.579500,0.000000,0.000000,0.000000,0.000000,1.000000;;,
   3680;16;0.579500,0.000000,0.000000,0.000000,0.000000,0.579500,0.000000,0.000000,0.000000,0.000000,0.579500,0.000000,0.000000,0.000000,0.000000,1.000000;;,
   3840;16;0.579500,0.000000,0.000000,0.000000,0.000000,0.579500,0.000000,0.000000,0.000000,0.000000,0.579500,0.000000,0.000000,0.000000,0.000000,1.000000;;,
   4000;16;0.579500,0.000000,0.000000,0.000000,0.000000,0.579500,0.000000,0.000000,0.000000,0.000000,0.579500,0.000000,0.000000,0.000000,0.000000,1.000000;;,
   4160;16;0.579500,0.000000,0.000000,0.000000,0.000000,0.579500,0.000000,0.000000,0.000000,0.000000,0.579500,0.000000,0.000000,0.000000,0.000000,1.000000;;,
   4320;16;0.579500,0.000000,0.000000,0.000000,0.000000,0.579500,0.000000,0.000000,0.000000,0.000000,0.579500,0.000000,0.000000,0.000000,0.000000,1.000000;;,
   4480;16;0.579500,0.000000,0.000000,0.000000,0.000000,0.579500,0.000000,0.000000,0.000000,0.000000,0.579500,0.000000,0.000000,0.000000,0.000000,1.000000;;,
   4640;16;0.579500,0.000000,0.000000,0.000000,0.000000,0.579500,0.000000,0.000000,0.000000,0.000000,0.579500,0.000000,0.000000,0.000000,0.000000,1.000000;;,
   4800;16;0.579500,0.000000,0.000000,0.000000,0.000000,0.579500,0.000000,0.000000,0.000000,0.000000,0.579500,0.000000,0.000000,0.000000,0.000000,1.000000;;,
   4960;16;0.579500,0.000000,0.000000,0.000000,0.000000,0.579500,0.000000,0.000000,0.000000,0.000000,0.579500,0.000000,0.000000,0.000000,0.000000,1.000000;;,
   5120;16;0.579500,0.000000,0.000000,0.000000,0.000000,0.579500,0.000000,0.000000,0.000000,0.000000,0.579500,0.000000,0.000000,0.000000,0.000000,1.000000;;,
   5280;16;0.579500,0.000000,0.000000,0.000000,0.000000,0.579500,0.000000,0.000000,0.000000,0.000000,0.579500,0.000000,0.000000,0.000000,0.000000,1.000000;;,
   5440;16;0.579500,0.000000,0.000000,0.000000,0.000000,0.579500,0.000000,0.000000,0.000000,0.000000,0.579500,0.000000,0.000000,0.000000,0.000000,1.000000;;,
   5600;16;0.579500,0.000000,0.000000,0.000000,0.000000,0.579500,0.000000,0.000000,0.000000,0.000000,0.579500,0.000000,0.000000,0.000000,0.000000,1.000000;;,
   5760;16;0.579500,0.000000,0.000000,0.000000,0.000000,0.579500,0.000000,0.000000,0.000000,0.000000,0.579500,0.000000,0.000000,0.000000,0.000000,1.000000;;,
   5920;16;0.579500,0.000000,0.000000,0.000000,0.000000,0.579500,0.000000,0.000000,0.000000,0.000000,0.579500,0.000000,0.000000,0.000000,0.000000,1.000000;;,
   6080;16;0.579500,0.000000,0.000000,0.000000,0.000000,0.579500,0.000000,0.000000,0.000000,0.000000,0.579500,0.000000,0.000000,0.000000,0.000000,1.000000;;,
   6240;16;0.579500,0.000000,0.000000,0.000000,0.000000,0.579500,0.000000,0.000000,0.000000,0.000000,0.579500,0.000000,0.000000,0.000000,0.000000,1.000000;;,
   6400;16;0.579500,0.000000,0.000000,0.000000,0.000000,0.579500,0.000000,0.000000,0.000000,0.000000,0.579500,0.000000,0.000000,0.000000,0.000000,1.000000;;,
   6560;16;0.579500,0.000000,0.000000,0.000000,0.000000,0.579500,0.000000,0.000000,0.000000,0.000000,0.579500,0.000000,0.000000,0.000000,0.000000,1.000000;;,
   6720;16;0.579500,0.000000,0.000000,0.000000,0.000000,0.579500,0.000000,0.000000,0.000000,0.000000,0.579500,0.000000,0.000000,0.000000,0.000000,1.000000;;,
   6880;16;0.579500,0.000000,0.000000,0.000000,0.000000,0.579500,0.000000,0.000000,0.000000,0.000000,0.579500,0.000000,0.000000,0.000000,0.000000,1.000000;;,
   7040;16;0.579500,0.000000,0.000000,0.000000,0.000000,0.579500,0.000000,0.000000,0.000000,0.000000,0.579500,0.000000,0.000000,0.000000,0.000000,1.000000;;,
   7200;16;0.579500,0.000000,0.000000,0.000000,0.000000,0.579500,0.000000,0.000000,0.000000,0.000000,0.579500,0.000000,0.000000,0.000000,0.000000,1.000000;;,
   7360;16;0.579500,0.000000,0.000000,0.000000,0.000000,0.579500,0.000000,0.000000,0.000000,0.000000,0.579500,0.000000,0.000000,0.000000,0.000000,1.000000;;,
   7520;16;0.579500,0.000000,0.000000,0.000000,0.000000,0.579500,0.000000,0.000000,0.000000,0.000000,0.579500,0.000000,0.000000,0.000000,0.000000,1.000000;;,
   7680;16;0.579500,0.000000,0.000000,0.000000,0.000000,0.579500,0.000000,0.000000,0.000000,0.000000,0.579500,0.000000,0.000000,0.000000,0.000000,1.000000;;,
   7840;16;0.579500,0.000000,0.000000,0.000000,0.000000,0.579500,0.000000,0.000000,0.000000,0.000000,0.579500,0.000000,0.000000,0.000000,0.000000,1.000000;;,
   8000;16;0.579500,0.000000,0.000000,0.000000,0.000000,0.579500,0.000000,0.000000,0.000000,0.000000,0.579500,0.000000,0.000000,0.000000,0.000000,1.000000;;,
   8160;16;0.579500,0.000000,0.000000,0.000000,0.000000,0.579500,0.000000,0.000000,0.000000,0.000000,0.579500,0.000000,0.000000,0.000000,0.000000,1.000000;;,
   8320;16;0.579500,0.000000,0.000000,0.000000,0.000000,0.579500,0.000000,0.000000,0.000000,0.000000,0.579500,0.000000,0.000000,0.000000,0.000000,1.000000;;,
   8480;16;0.579500,0.000000,0.000000,0.000000,0.000000,0.579500,0.000000,0.000000,0.000000,0.000000,0.579500,0.000000,0.000000,0.000000,0.000000,1.000000;;,
   8640;16;0.579500,0.000000,0.000000,0.000000,0.000000,0.579500,0.000000,0.000000,0.000000,0.000000,0.579500,0.000000,0.000000,0.000000,0.000000,1.000000;;,
   8800;16;0.579500,0.000000,0.000000,0.000000,0.000000,0.579500,0.000000,0.000000,0.000000,0.000000,0.579500,0.000000,0.000000,0.000000,0.000000,1.000000;;,
   8960;16;0.579500,0.000000,0.000000,0.000000,0.000000,0.579500,0.000000,0.000000,0.000000,0.000000,0.579500,0.000000,0.000000,0.000000,0.000000,1.000000;;,
   9120;16;0.579500,0.000000,0.000000,0.000000,0.000000,0.579500,0.000000,0.000000,0.000000,0.000000,0.579500,0.000000,0.000000,0.000000,0.000000,1.000000;;,
   9280;16;0.579500,0.000000,0.000000,0.000000,0.000000,0.579500,0.000000,0.000000,0.000000,0.000000,0.579500,0.000000,0.000000,0.000000,0.000000,1.000000;;,
   9440;16;0.579500,0.000000,0.000000,0.000000,0.000000,0.579500,0.000000,0.000000,0.000000,0.000000,0.579500,0.000000,0.000000,0.000000,0.000000,1.000000;;,
   9600;16;0.579500,0.000000,0.000000,0.000000,0.000000,0.579500,0.000000,0.000000,0.000000,0.000000,0.579500,0.000000,0.000000,0.000000,0.000000,1.000000;;,
   9760;16;0.579500,0.000000,0.000000,0.000000,0.000000,0.579500,0.000000,0.000000,0.000000,0.000000,0.579500,0.000000,0.000000,0.000000,0.000000,1.000000;;,
   9920;16;0.579500,0.000000,0.000000,0.000000,0.000000,0.579500,0.000000,0.000000,0.000000,0.000000,0.579500,0.000000,0.000000,0.000000,0.000000,1.000000;;,
   10080;16;0.579500,0.000000,0.000000,0.000000,0.000000,0.579500,0.000000,0.000000,0.000000,0.000000,0.579500,0.000000,0.000000,0.000000,0.000000,1.000000;;,
   10240;16;0.579500,0.000000,0.000000,0.000000,0.000000,0.579500,0.000000,0.000000,0.000000,0.000000,0.579500,0.000000,0.000000,0.000000,0.000000,1.000000;;,
   10400;16;0.579500,0.000000,0.000000,0.000000,0.000000,0.579500,0.000000,0.000000,0.000000,0.000000,0.579500,0.000000,0.000000,0.000000,0.000000,1.000000;;,
   10560;16;0.579500,0.000000,0.000000,0.000000,0.000000,0.579500,0.000000,0.000000,0.000000,0.000000,0.579500,0.000000,0.000000,0.000000,0.000000,1.000000;;,
   10720;16;0.579500,0.000000,0.000000,0.000000,0.000000,0.579500,0.000000,0.000000,0.000000,0.000000,0.579500,0.000000,0.000000,0.000000,0.000000,1.000000;;,
   10880;16;0.579500,0.000000,0.000000,0.000000,0.000000,0.579500,0.000000,0.000000,0.000000,0.000000,0.579500,0.000000,0.000000,0.000000,0.000000,1.000000;;,
   11040;16;0.579500,0.000000,0.000000,0.000000,0.000000,0.579500,0.000000,0.000000,0.000000,0.000000,0.579500,0.000000,0.000000,0.000000,0.000000,1.000000;;,
   11200;16;0.579500,0.000000,0.000000,0.000000,0.000000,0.579500,0.000000,0.000000,0.000000,0.000000,0.579500,0.000000,0.000000,0.000000,0.000000,1.000000;;,
   11360;16;0.579500,0.000000,0.000000,0.000000,0.000000,0.579500,0.000000,0.000000,0.000000,0.000000,0.579500,0.000000,0.000000,0.000000,0.000000,1.000000;;,
   11520;16;0.579500,0.000000,0.000000,0.000000,0.000000,0.579500,0.000000,0.000000,0.000000,0.000000,0.579500,0.000000,0.000000,0.000000,0.000000,1.000000;;,
   11680;16;0.579500,0.000000,0.000000,0.000000,0.000000,0.579500,0.000000,0.000000,0.000000,0.000000,0.579500,0.000000,0.000000,0.000000,0.000000,1.000000;;,
   11840;16;0.579500,0.000000,0.000000,0.000000,0.000000,0.579500,0.000000,0.000000,0.000000,0.000000,0.579500,0.000000,0.000000,0.000000,0.000000,1.000000;;,
   12000;16;0.579500,0.000000,0.000000,0.000000,0.000000,0.579500,0.000000,0.000000,0.000000,0.000000,0.579500,0.000000,0.000000,0.000000,0.000000,1.000000;;,
   12160;16;0.579500,0.000000,0.000000,0.000000,0.000000,0.579500,0.000000,0.000000,0.000000,0.000000,0.579500,0.000000,0.000000,0.000000,0.000000,1.000000;;,
   12320;16;0.579500,0.000000,0.000000,0.000000,0.000000,0.579500,0.000000,0.000000,0.000000,0.000000,0.579500,0.000000,0.000000,0.000000,0.000000,1.000000;;,
   12480;16;0.579500,0.000000,0.000000,0.000000,0.000000,0.579500,0.000000,0.000000,0.000000,0.000000,0.579500,0.000000,0.000000,0.000000,0.000000,1.000000;;,
   12640;16;0.579500,0.000000,0.000000,0.000000,0.000000,0.579500,0.000000,0.000000,0.000000,0.000000,0.579500,0.000000,0.000000,0.000000,0.000000,1.000000;;,
   12800;16;0.579500,0.000000,0.000000,0.000000,0.000000,0.579500,0.000000,0.000000,0.000000,0.000000,0.579500,0.000000,0.000000,0.000000,0.000000,1.000000;;,
   12960;16;0.579500,0.000000,0.000000,0.000000,0.000000,0.579500,0.000000,0.000000,0.000000,0.000000,0.579500,0.000000,0.000000,0.000000,0.000000,1.000000;;,
   13120;16;0.579500,0.000000,0.000000,0.000000,0.000000,0.579500,0.000000,0.000000,0.000000,0.000000,0.579500,0.000000,0.000000,0.000000,0.000000,1.000000;;,
   13280;16;0.579500,0.000000,0.000000,0.000000,0.000000,0.579500,0.000000,0.000000,0.000000,0.000000,0.579500,0.000000,0.000000,0.000000,0.000000,1.000000;;,
   13440;16;0.579500,0.000000,0.000000,0.000000,0.000000,0.579500,0.000000,0.000000,0.000000,0.000000,0.579500,0.000000,0.000000,0.000000,0.000000,1.000000;;,
   13600;16;0.579500,0.000000,0.000000,0.000000,0.000000,0.579500,0.000000,0.000000,0.000000,0.000000,0.579500,0.000000,0.000000,0.000000,0.000000,1.000000;;,
   13760;16;0.579500,0.000000,0.000000,0.000000,0.000000,0.579500,0.000000,0.000000,0.000000,0.000000,0.579500,0.000000,0.000000,0.000000,0.000000,1.000000;;,
   13920;16;0.579500,0.000000,0.000000,0.000000,0.000000,0.579500,0.000000,0.000000,0.000000,0.000000,0.579500,0.000000,0.000000,0.000000,0.000000,1.000000;;,
   14080;16;0.579500,0.000000,0.000000,0.000000,0.000000,0.579500,0.000000,0.000000,0.000000,0.000000,0.579500,0.000000,0.000000,0.000000,0.000000,1.000000;;,
   14240;16;0.579500,0.000000,0.000000,0.000000,0.000000,0.579500,0.000000,0.000000,0.000000,0.000000,0.579500,0.000000,0.000000,0.000000,0.000000,1.000000;;,
   14400;16;0.579500,0.000000,0.000000,0.000000,0.000000,0.579500,0.000000,0.000000,0.000000,0.000000,0.579500,0.000000,0.000000,0.000000,0.000000,1.000000;;,
   14560;16;0.579500,0.000000,0.000000,0.000000,0.000000,0.579500,0.000000,0.000000,0.000000,0.000000,0.579500,0.000000,0.000000,0.000000,0.000000,1.000000;;,
   14720;16;0.579500,0.000000,0.000000,0.000000,0.000000,0.579500,0.000000,0.000000,0.000000,0.000000,0.579500,0.000000,0.000000,0.000000,0.000000,1.000000;;,
   14880;16;0.579500,0.000000,0.000000,0.000000,0.000000,0.579500,0.000000,0.000000,0.000000,0.000000,0.579500,0.000000,0.000000,0.000000,0.000000,1.000000;;,
   15040;16;0.579500,0.000000,0.000000,0.000000,0.000000,0.579500,0.000000,0.000000,0.000000,0.000000,0.579500,0.000000,0.000000,0.000000,0.000000,1.000000;;,
   15200;16;0.579500,0.000000,0.000000,0.000000,0.000000,0.579500,0.000000,0.000000,0.000000,0.000000,0.579500,0.000000,0.000000,0.000000,0.000000,1.000000;;,
   15360;16;0.579500,0.000000,0.000000,0.000000,0.000000,0.579500,0.000000,0.000000,0.000000,0.000000,0.579500,0.000000,0.000000,0.000000,0.000000,1.000000;;,
   15520;16;0.579500,0.000000,0.000000,0.000000,0.000000,0.579500,0.000000,0.000000,0.000000,0.000000,0.579500,0.000000,0.000000,0.000000,0.000000,1.000000;;,
   15680;16;0.579500,0.000000,0.000000,0.000000,0.000000,0.579500,0.000000,0.000000,0.000000,0.000000,0.579500,0.000000,0.000000,0.000000,0.000000,1.000000;;,
   15840;16;0.579500,0.000000,0.000000,0.000000,0.000000,0.579500,0.000000,0.000000,0.000000,0.000000,0.579500,0.000000,0.000000,0.000000,0.000000,1.000000;;,
   16000;16;0.579500,0.000000,0.000000,0.000000,0.000000,0.579500,0.000000,0.000000,0.000000,0.000000,0.579500,0.000000,0.000000,0.000000,0.000000,1.000000;;;
  }
 }
}