xof 0303txt 0032
template ColorRGBA {
 <35ff44e0-6c7c-11cf-8f52-0040333594a3>
 FLOAT red;
 FLOAT green;
 FLOAT blue;
 FLOAT alpha;
}

template ColorRGB {
 <d3e16e81-7835-11cf-8f52-0040333594a3>
 FLOAT red;
 FLOAT green;
 FLOAT blue;
}

template Material {
 <3d82ab4d-62da-11cf-ab39-0020af71e433>
 ColorRGBA faceColor;
 FLOAT power;
 ColorRGB specularColor;
 ColorRGB emissiveColor;
 [...]
}

template Frame {
 <3d82ab46-62da-11cf-ab39-0020af71e433>
 [...]
}

template Matrix4x4 {
 <f6f23f45-7686-11cf-8f52-0040333594a3>
 array FLOAT matrix[16];
}

template FrameTransformMatrix {
 <f6f23f41-7686-11cf-8f52-0040333594a3>
 Matrix4x4 frameMatrix;
}

template Vector {
 <3d82ab5e-62da-11cf-ab39-0020af71e433>
 FLOAT x;
 FLOAT y;
 FLOAT z;
}

template MeshFace {
 <3d82ab5f-62da-11cf-ab39-0020af71e433>
 DWORD nFaceVertexIndices;
 array DWORD faceVertexIndices[nFaceVertexIndices];
}

template Mesh {
 <3d82ab44-62da-11cf-ab39-0020af71e433>
 DWORD nVertices;
 array Vector vertices[nVertices];
 DWORD nFaces;
 array MeshFace faces[nFaces];
 [...]
}

template MeshNormals {
 <f6f23f43-7686-11cf-8f52-0040333594a3>
 DWORD nNormals;
 array Vector normals[nNormals];
 DWORD nFaceNormals;
 array MeshFace faceNormals[nFaceNormals];
}

template MeshMaterialList {
 <f6f23f42-7686-11cf-8f52-0040333594a3>
 DWORD nMaterials;
 DWORD nFaceIndexes;
 array DWORD faceIndexes[nFaceIndexes];
 [Material <3d82ab4d-62da-11cf-ab39-0020af71e433>]
}

template Coords2d {
 <f6f23f44-7686-11cf-8f52-0040333594a3>
 FLOAT u;
 FLOAT v;
}

template MeshTextureCoords {
 <f6f23f40-7686-11cf-8f52-0040333594a3>
 DWORD nTextureCoords;
 array Coords2d textureCoords[nTextureCoords];
}

template Animation {
 <3d82ab4f-62da-11cf-ab39-0020af71e433>
 [...]
}

template AnimationSet {
 <3d82ab50-62da-11cf-ab39-0020af71e433>
 [Animation <3d82ab4f-62da-11cf-ab39-0020af71e433>]
}

template FloatKeys {
 <10dd46a9-775b-11cf-8f52-0040333594a3>
 DWORD nValues;
 array FLOAT values[nValues];
}

template TimedFloatKeys {
 <f406b180-7b3b-11cf-8f52-0040333594a3>
 DWORD time;
 FloatKeys tfkeys;
}

template AnimationKey {
 <10dd46a8-775b-11cf-8f52-0040333594a3>
 DWORD keyType;
 DWORD nKeys;
 array TimedFloatKeys keys[nKeys];
}


Material MatD3D02 {
 0.600000;0.894118;0.600000;1.000000;;
 0.000000;
 0.000000;0.000000;0.000000;;
 0.000000;0.000000;0.000000;;
}

Frame Mesh02 {
 

 FrameTransformMatrix {
  0.000000,0.000000,-1.000000,0.000000,-1.000000,0.000000,0.000000,0.000000,0.000000,1.000000,0.000000,0.000000,0.000000,0.000000,0.000000,1.000000;;
 }

 Mesh  {
  68;
  -7.384628;-32.971795;-8.284331;,
  11.999999;-33.593670;-1.934879;,
  11.999999;-32.193325;-10.199530;,
  22.960837;0.000000;10.001902;,
  9.865203;21.853246;6.110015;,
  22.418517;27.524979;5.259282;,
  11.999999;33.593670;-1.934879;,
  -7.384628;32.971795;-8.284331;,
  11.999999;32.193325;-10.199530;,
  28.877757;17.499998;-2.120874;,
  9.865203;-21.853246;6.110015;,
  -7.442582;0.000000;8.168102;,
  28.877757;-17.499998;-2.120874;,
  32.863498;0.000000;3.333333;,
  -7.318191;30.894083;-1.063984;,
  -7.318191;-30.894083;-1.063984;,
  -18.914619;0.000000;-4.903741;,
  -32.841536;14.797912;-4.651714;,
  -34.965712;0.000000;-3.333334;,
  -16.514205;17.499998;3.333333;,
  9.103812;0.000000;-6.828483;,
  -11.999999;-17.499998;-9.999999;,
  11.999999;-17.499998;-9.675516;,
  -11.999999;17.499998;-9.999999;,
  -8.907216;0.000000;-6.686185;,
  -7.904716;-17.499998;3.246940;,
  -36.565674;0.000000;1.375407;,
  -13.661387;0.000000;7.008491;,
  -16.514205;-17.499998;3.333333;,
  -32.841536;-14.797912;-4.651714;,
  22.418517;-27.524979;5.259282;,
  29.638349;17.499998;-4.743750;,
  31.231872;0.000000;-4.902403;,
  -7.904716;17.499998;3.246940;,
  -18.372710;29.540083;5.717071;,
  7.253959;30.840598;9.999999;,
  -18.372710;-29.540083;5.717071;,
  7.253959;-30.840598;9.999999;,
  20.015654;0.000000;-5.197696;,
  11.999999;17.499998;-9.675517;,
  35.999997;26.683093;-5.693862;,
  35.999997;-26.683093;-5.693862;,
  8.679040;-37.113181;2.530916;,
  -11.999999;-34.999997;3.333333;,
  23.313560;-31.806528;4.885845;,
  35.575872;-26.879642;-2.740766;,
  -19.817787;-29.464051;2.500099;,
  -11.595496;-29.881526;-0.689384;,
  8.679040;37.113181;2.530916;,
  -11.999999;34.999997;3.333333;,
  23.313560;31.806528;4.885845;,
  35.575872;26.879642;-2.740766;,
  -19.817787;29.464051;2.500099;,
  -11.595496;29.881526;-0.689384;,
  27.054627;-24.239019;-8.510902;,
  27.054630;24.239019;-8.510902;,
  -18.114488;-28.768368;-4.513335;,
  -18.114488;28.768368;-4.513336;,
  -17.536994;-27.294534;-7.253314;,
  -17.536994;27.294534;-7.253314;,
  -22.530890;17.499998;-7.512122;,
  -22.530890;-17.499998;-7.512122;,
  26.311758;-17.499998;-7.318533;,
  29.638346;-17.499998;-4.743750;,
  26.311757;17.499998;-7.318533;,
  -3.260185;-17.499998;3.150860;,
  -3.260185;17.499998;3.150860;,
  -9.839906;0.000000;6.706996;;
  132;
  3;0,2,1;,
  3;3,5,4;,
  3;6,8,7;,
  3;9,5,3;,
  3;3,11,10;,
  3;12,13,3;,
  3;7,14,6;,
  3;1,15,0;,
  3;16,18,17;,
  3;19,17,18;,
  3;20,22,21;,
  3;20,24,23;,
  3;25,27,26;,
  3;28,18,29;,
  3;30,12,3;,
  3;30,3,10;,
  3;9,3,13;,
  3;31,13,32;,
  3;19,26,33;,
  3;34,4,35;,
  3;33,26,27;,
  3;4,11,3;,
  3;36,37,10;,
  3;28,25,26;,
  3;31,32,38;,
  3;39,20,23;,
  3;39,7,8;,
  3;40,8,6;,
  3;41,1,2;,
  3;22,2,0;,
  3;30,10,37;,
  3;42,37,43;,
  3;44,37,42;,
  3;44,42,45;,
  3;46,25,47;,
  3;43,15,42;,
  3;48,49,35;,
  3;5,35,4;,
  3;50,51,48;,
  3;50,48,35;,
  3;49,48,14;,
  3;52,53,33;,
  3;12,30,45;,
  3;54,41,2;,
  3;55,8,40;,
  3;9,51,5;,
  3;56,28,29;,
  3;0,21,22;,
  3;29,18,16;,
  3;21,24,20;,
  3;7,39,23;,
  3;57,17,19;,
  3;58,21,0;,
  3;58,0,15;,
  3;59,14,7;,
  3;59,7,23;,
  3;60,16,17;,
  3;60,17,57;,
  3;47,25,28;,
  3;47,28,56;,
  3;53,57,19;,
  3;53,19,33;,
  3;26,19,18;,
  3;26,18,28;,
  3;61,56,29;,
  3;61,29,16;,
  3;62,38,63;,
  3;62,63,41;,
  3;64,40,31;,
  3;64,31,38;,
  3;65,36,10;,
  3;65,10,11;,
  3;66,11,4;,
  3;66,4,34;,
  3;42,15,1;,
  3;42,1,45;,
  3;48,51,6;,
  3;48,6,14;,
  3;52,66,34;,
  3;49,34,35;,
  3;52,34,49;,
  3;52,49,53;,
  3;43,37,36;,
  3;46,36,65;,
  3;46,47,43;,
  3;46,43,36;,
  3;58,15,56;,
  3;58,56,61;,
  3;59,60,57;,
  3;59,57,14;,
  3;60,59,23;,
  3;60,23,24;,
  3;61,24,21;,
  3;61,21,58;,
  3;41,63,45;,
  3;41,45,1;,
  3;40,6,51;,
  3;40,51,31;,
  3;38,22,20;,
  3;38,20,39;,
  3;64,38,39;,
  3;64,39,8;,
  3;62,2,22;,
  3;62,22,38;,
  3;63,38,32;,
  3;63,32,13;,
  3;33,67,66;,
  3;33,66,52;,
  3;25,46,65;,
  3;25,65,67;,
  3;54,2,62;,
  3;54,62,41;,
  3;55,40,64;,
  3;55,64,8;,
  3;31,51,9;,
  3;31,9,13;,
  3;63,13,12;,
  3;63,12,45;,
  3;50,35,5;,
  3;50,5,51;,
  3;44,45,30;,
  3;44,30,37;,
  3;16,60,24;,
  3;16,24,61;,
  3;27,25,67;,
  3;27,67,33;,
  3;67,65,11;,
  3;67,11,66;,
  3;47,56,15;,
  3;47,15,43;,
  3;53,49,14;,
  3;53,14,57;;

  MeshNormals  {
   68;
   -0.257005;-0.811034;-0.525521;,
   0.096791;-0.623730;-0.775624;,
   0.116506;-0.927199;-0.355989;,
   0.322959;-0.000000;0.946413;,
   0.399967;-0.028620;0.916083;,
   -0.028431;-0.084957;0.995979;,
   0.116506;0.927199;-0.355989;,
   0.096791;0.623730;-0.775624;,
   -0.257005;0.811034;-0.525522;,
   0.840336;-0.033781;0.541012;,
   -0.354356;-0.000000;0.935111;,
   -0.028431;0.084957;0.995979;,
   0.840337;0.033781;0.541012;,
   0.892591;-0.000000;0.450868;,
   -0.222722;0.922616;-0.314921;,
   -0.222722;-0.922616;-0.314921;,
   -0.163127;-0.000000;-0.986605;,
   -0.801996;-0.000000;-0.597329;,
   -0.939565;0.300953;-0.163232;,
   -0.216096;0.204261;0.954767;,
   0.069698;-0.000000;-0.997568;,
   0.073742;0.088185;-0.993371;,
   -0.122677;0.033583;-0.991878;,
   -0.092533;0.000000;-0.995710;,
   -0.122677;-0.033583;-0.991878;,
   -0.036627;-0.141513;0.989259;,
   -0.109701;-0.000000;0.993965;,
   -0.928796;0.000000;0.370591;,
   -0.216096;-0.204261;0.954767;,
   -0.939565;-0.300953;-0.163232;,
   0.399967;0.028620;0.916083;,
   0.854998;-0.330859;-0.399387;,
   0.663200;-0.000000;-0.748443;,
   -0.036627;0.141513;0.989259;,
   -0.694990;0.018311;0.718786;,
   0.030330;0.210666;0.977087;,
   -0.694990;-0.018311;0.718786;,
   0.030330;-0.210666;0.977088;,
   0.140834;-0.000000;-0.990033;,
   0.073742;-0.088185;-0.993371;,
   0.870650;0.258184;-0.418700;,
   0.870650;-0.258185;-0.418700;,
   0.036333;-0.999327;-0.005097;,
   -0.319912;-0.947265;0.018610;,
   0.475719;-0.619213;0.624714;,
   0.863125;-0.300419;0.405911;,
   -0.955620;-0.011423;-0.294382;,
   -0.473159;-0.808250;-0.350504;,
   0.036333;0.999327;-0.005097;,
   -0.319912;0.947265;0.018610;,
   0.475718;0.619213;0.624714;,
   0.863125;0.300419;0.405911;,
   -0.955620;0.011423;-0.294382;,
   -0.473159;0.808250;-0.350504;,
   0.204223;0.025215;-0.978600;,
   0.204223;-0.025215;-0.978600;,
   -0.538497;-0.841762;0.038189;,
   -0.538496;0.841762;0.038189;,
   -0.466341;-0.536351;-0.703459;,
   -0.466341;0.536351;-0.703459;,
   -0.292237;0.074158;-0.953466;,
   -0.292237;-0.074158;-0.953466;,
   0.347953;0.243573;-0.905318;,
   0.854998;0.330859;-0.399387;,
   0.347953;-0.243573;-0.905318;,
   -0.167053;-0.031280;0.985452;,
   -0.167053;0.031280;0.985452;,
   -0.175243;0.000000;0.984525;;
   132;
   3;0,1,2;,
   3;3,4,5;,
   3;6,7,8;,
   3;9,4,3;,
   3;3,10,11;,
   3;12,13,3;,
   3;8,14,6;,
   3;2,15,0;,
   3;16,17,18;,
   3;19,18,17;,
   3;20,21,22;,
   3;20,23,24;,
   3;25,26,27;,
   3;28,17,29;,
   3;30,12,3;,
   3;30,3,11;,
   3;9,3,13;,
   3;31,13,32;,
   3;19,27,33;,
   3;34,5,35;,
   3;33,27,26;,
   3;5,10,3;,
   3;36,37,11;,
   3;28,25,27;,
   3;31,32,38;,
   3;39,20,24;,
   3;39,8,7;,
   3;40,7,6;,
   3;41,2,1;,
   3;21,1,0;,
   3;30,11,37;,
   3;42,37,43;,
   3;44,37,42;,
   3;44,42,45;,
   3;46,25,47;,
   3;43,15,42;,
   3;48,49,35;,
   3;4,35,5;,
   3;50,51,48;,
   3;50,48,35;,
   3;49,48,14;,
   3;52,53,33;,
   3;12,30,45;,
   3;54,41,1;,
   3;55,7,40;,
   3;9,51,4;,
   3;56,28,29;,
   3;0,22,21;,
   3;29,17,16;,
   3;22,23,20;,
   3;8,39,24;,
   3;57,18,19;,
   3;58,22,0;,
   3;58,0,15;,
   3;59,14,8;,
   3;59,8,24;,
   3;60,16,18;,
   3;60,18,57;,
   3;47,25,28;,
   3;47,28,56;,
   3;53,57,19;,
   3;53,19,33;,
   3;27,19,17;,
   3;27,17,28;,
   3;61,56,29;,
   3;61,29,16;,
   3;62,38,63;,
   3;62,63,41;,
   3;64,40,31;,
   3;64,31,38;,
   3;65,36,11;,
   3;65,11,10;,
   3;66,10,5;,
   3;66,5,34;,
   3;42,15,2;,
   3;42,2,45;,
   3;48,51,6;,
   3;48,6,14;,
   3;52,66,34;,
   3;49,34,35;,
   3;52,34,49;,
   3;52,49,53;,
   3;43,37,36;,
   3;46,36,65;,
   3;46,47,43;,
   3;46,43,36;,
   3;58,15,56;,
   3;58,56,61;,
   3;59,60,57;,
   3;59,57,14;,
   3;60,59,24;,
   3;60,24,23;,
   3;61,23,22;,
   3;61,22,58;,
   3;41,63,45;,
   3;41,45,2;,
   3;40,6,51;,
   3;40,51,31;,
   3;38,21,20;,
   3;38,20,39;,
   3;64,38,39;,
   3;64,39,7;,
   3;62,1,21;,
   3;62,21,38;,
   3;63,38,32;,
   3;63,32,13;,
   3;33,67,66;,
   3;33,66,52;,
   3;25,46,65;,
   3;25,65,67;,
   3;54,1,62;,
   3;54,62,41;,
   3;55,40,64;,
   3;55,64,7;,
   3;31,51,9;,
   3;31,9,13;,
   3;63,13,12;,
   3;63,12,45;,
   3;50,35,4;,
   3;50,4,51;,
   3;44,45,30;,
   3;44,30,37;,
   3;16,60,23;,
   3;16,23,61;,
   3;26,25,67;,
   3;26,67,33;,
   3;67,65,10;,
   3;67,10,66;,
   3;47,56,15;,
   3;47,15,43;,
   3;53,49,14;,
   3;53,14,57;;
  }

  MeshMaterialList  {
   1;
   132;
   0,
   0,
   0,
   0,
   0,
   0,
   0,
   0,
   0,
   0,
   0,
   0,
   0,
   0,
   0,
   0,
   0,
   0,
   0,
   0,
   0,
   0,
   0,
   0,
   0,
   0,
   0,
   0,
   0,
   0,
   0,
   0,
   0,
   0,
   0,
   0,
   0,
   0,
   0,
   0,
   0,
   0,
   0,
   0,
   0,
   0,
   0,
   0,
   0,
   0,
   0,
   0,
   0,
   0,
   0,
   0,
   0,
   0,
   0,
   0,
   0,
   0,
   0,
   0,
   0,
   0,
   0,
   0,
   0,
   0,
   0,
   0,
   0,
   0,
   0,
   0,
   0,
   0,
   0,
   0,
   0,
   0,
   0,
   0,
   0,
   0,
   0,
   0,
   0,
   0,
   0,
   0,
   0,
   0,
   0,
   0,
   0,
   0,
   0,
   0,
   0,
   0,
   0,
   0,
   0,
   0,
   0,
   0,
   0,
   0,
   0,
   0,
   0,
   0,
   0,
   0,
   0,
   0,
   0,
   0,
   0,
   0,
   0,
   0,
   0,
   0,
   0,
   0,
   0,
   0,
   0,
   0;
   { MatD3D02 }
  }

  MeshTextureCoords  {
   68;
   0.000000;0.000000;,
   0.000000;0.000000;,
   0.000000;0.000000;,
   0.000000;0.000000;,
   0.000000;0.000000;,
   0.000000;0.000000;,
   0.000000;0.000000;,
   0.000000;0.000000;,
   0.000000;0.000000;,
   0.000000;0.000000;,
   0.000000;0.000000;,
   0.000000;0.000000;,
   0.000000;0.000000;,
   0.000000;0.000000;,
   0.000000;0.000000;,
   0.000000;0.000000;,
   0.000000;0.000000;,
   0.000000;0.000000;,
   0.000000;0.000000;,
   0.000000;0.000000;,
   0.000000;0.000000;,
   0.000000;0.000000;,
   0.000000;0.000000;,
   0.000000;0.000000;,
   0.000000;0.000000;,
   0.000000;0.000000;,
   0.000000;0.000000;,
   0.000000;0.000000;,
   0.000000;0.000000;,
   0.000000;0.000000;,
   0.000000;0.000000;,
   0.000000;0.000000;,
   0.000000;0.000000;,
   0.000000;0.000000;,
   0.000000;0.000000;,
   0.000000;0.000000;,
   0.000000;0.000000;,
   0.000000;0.000000;,
   0.000000;0.000000;,
   0.000000;0.000000;,
   0.000000;0.000000;,
   0.000000;0.000000;,
   0.000000;0.000000;,
   0.000000;0.000000;,
   0.000000;0.000000;,
   0.000000;0.000000;,
   0.000000;0.000000;,
   0.000000;0.000000;,
   0.000000;0.000000;,
   0.000000;0.000000;,
   0.000000;0.000000;,
   0.000000;0.000000;,
   0.000000;0.000000;,
   0.000000;0.000000;,
   0.000000;0.000000;,
   0.000000;0.000000;,
   0.000000;0.000000;,
   0.000000;0.000000;,
   0.000000;0.000000;,
   0.000000;0.000000;,
   0.000000;0.000000;,
   0.000000;0.000000;,
   0.000000;0.000000;,
   0.000000;0.000000;,
   0.000000;0.000000;,
   0.000000;0.000000;,
   0.000000;0.000000;,
   0.000000;0.000000;;
  }
 }
}

AnimationSet Anim-1 {
 

 Animation Anim-Mesh02 {
  
  { Mesh02 }

  AnimationKey {
   4;
   101;
   0;16;0.000000,0.000000,-1.000000,0.000000,-1.000000,0.000000,0.000000,0.000000,0.000000,1.000000,0.000000,0.000000,0.000000,0.000000,0.000000,1.000000;;,
   160;16;0.000000,0.000000,-1.000000,0.000000,-1.000000,0.000000,0.000000,0.000000,0.000000,1.000000,0.000000,0.000000,0.000000,0.000000,0.000000,1.000000;;,
   320;16;0.000000,0.000000,-1.000000,0.000000,-1.000000,0.000000,0.000000,0.000000,0.000000,1.000000,0.000000,0.000000,0.000000,0.000000,0.000000,1.000000;;,
   480;16;0.000000,0.000000,-1.000000,0.000000,-1.000000,0.000000,0.000000,0.000000,0.000000,1.000000,0.000000,0.000000,0.000000,0.000000,0.000000,1.000000;;,
   640;16;0.000000,0.000000,-1.000000,0.000000,-1.000000,0.000000,0.000000,0.000000,0.000000,1.000000,0.000000,0.000000,0.000000,0.000000,0.000000,1.000000;;,
   800;16;0.000000,0.000000,-1.000000,0.000000,-1.000000,0.000000,0.000000,0.000000,0.000000,1.000000,0.000000,0.000000,0.000000,0.000000,0.000000,1.000000;;,
   960;16;0.000000,0.000000,-1.000000,0.000000,-1.000000,0.000000,0.000000,0.000000,0.000000,1.000000,0.000000,0.000000,0.000000,0.000000,0.000000,1.000000;;,
   1120;16;0.000000,0.000000,-1.000000,0.000000,-1.000000,0.000000,0.000000,0.000000,0.000000,1.000000,0.000000,0.000000,0.000000,0.000000,0.000000,1.000000;;,
   1280;16;0.000000,0.000000,-1.000000,0.000000,-1.000000,0.000000,0.000000,0.000000,0.000000,1.000000,0.000000,0.000000,0.000000,0.000000,0.000000,1.000000;;,
   1440;16;0.000000,0.000000,-1.000000,0.000000,-1.000000,0.000000,0.000000,0.000000,0.000000,1.000000,0.000000,0.000000,0.000000,0.000000,0.000000,1.000000;;,
   1600;16;0.000000,0.000000,-1.000000,0.000000,-1.000000,0.000000,0.000000,0.000000,0.000000,1.000000,0.000000,0.000000,0.000000,0.000000,0.000000,1.000000;;,
   1760;16;0.000000,0.000000,-1.000000,0.000000,-1.000000,0.000000,0.000000,0.000000,0.000000,1.000000,0.000000,0.000000,0.000000,0.000000,0.000000,1.000000;;,
   1920;16;0.000000,0.000000,-1.000000,0.000000,-1.000000,0.000000,0.000000,0.000000,0.000000,1.000000,0.000000,0.000000,0.000000,0.000000,0.000000,1.000000;;,
   2080;16;0.000000,0.000000,-1.000000,0.000000,-1.000000,0.000000,0.000000,0.000000,0.000000,1.000000,0.000000,0.000000,0.000000,0.000000,0.000000,1.000000;;,
   2240;16;0.000000,0.000000,-1.000000,0.000000,-1.000000,0.000000,0.000000,0.000000,0.000000,1.000000,0.000000,0.000000,0.000000,0.000000,0.000000,1.000000;;,
   2400;16;0.000000,0.000000,-1.000000,0.000000,-1.000000,0.000000,0.000000,0.000000,0.000000,1.000000,0.000000,0.000000,0.000000,0.000000,0.000000,1.000000;;,
   2560;16;0.000000,0.000000,-1.000000,0.000000,-1.000000,0.000000,0.000000,0.000000,0.000000,1.000000,0.000000,0.000000,0.000000,0.000000,0.000000,1.000000;;,
   2720;16;0.000000,0.000000,-1.000000,0.000000,-1.000000,0.000000,0.000000,0.000000,0.000000,1.000000,0.000000,0.000000,0.000000,0.000000,0.000000,1.000000;;,
   2880;16;0.000000,0.000000,-1.000000,0.000000,-1.000000,0.000000,0.000000,0.000000,0.000000,1.000000,0.000000,0.000000,0.000000,0.000000,0.000000,1.000000;;,
   3040;16;0.000000,0.000000,-1.000000,0.000000,-1.000000,0.000000,0.000000,0.000000,0.000000,1.000000,0.000000,0.000000,0.000000,0.000000,0.000000,1.000000;;,
   3200;16;0.000000,0.000000,-1.000000,0.000000,-1.000000,0.000000,0.000000,0.000000,0.000000,1.000000,0.000000,0.000000,0.000000,0.000000,0.000000,1.000000;;,
   3360;16;0.000000,0.000000,-1.000000,0.000000,-1.000000,0.000000,0.000000,0.000000,0.000000,1.000000,0.000000,0.000000,0.000000,0.000000,0.000000,1.000000;;,
   3520;16;0.000000,0.000000,-1.000000,0.000000,-1.000000,0.000000,0.000000,0.000000,0.000000,1.000000,0.000000,0.000000,0.000000,0.000000,0.000000,1.000000;;,
   3680;16;0.000000,0.000000,-1.000000,0.000000,-1.000000,0.000000,0.000000,0.000000,0.000000,1.000000,0.000000,0.000000,0.000000,0.000000,0.000000,1.000000;;,
   3840;16;0.000000,0.000000,-1.000000,0.000000,-1.000000,0.000000,0.000000,0.000000,0.000000,1.000000,0.000000,0.000000,0.000000,0.000000,0.000000,1.000000;;,
   4000;16;0.000000,0.000000,-1.000000,0.000000,-1.000000,0.000000,0.000000,0.000000,0.000000,1.000000,0.000000,0.000000,0.000000,0.000000,0.000000,1.000000;;,
   4160;16;0.000000,0.000000,-1.000000,0.000000,-1.000000,0.000000,0.000000,0.000000,0.000000,1.000000,0.000000,0.000000,0.000000,0.000000,0.000000,1.000000;;,
   4320;16;0.000000,0.000000,-1.000000,0.000000,-1.000000,0.000000,0.000000,0.000000,0.000000,1.000000,0.000000,0.000000,0.000000,0.000000,0.000000,1.000000;;,
   4480;16;0.000000,0.000000,-1.000000,0.000000,-1.000000,0.000000,0.000000,0.000000,0.000000,1.000000,0.000000,0.000000,0.000000,0.000000,0.000000,1.000000;;,
   4640;16;0.000000,0.000000,-1.000000,0.000000,-1.000000,0.000000,0.000000,0.000000,0.000000,1.000000,0.000000,0.000000,0.000000,0.000000,0.000000,1.000000;;,
   4800;16;0.000000,0.000000,-1.000000,0.000000,-1.000000,0.000000,0.000000,0.000000,0.000000,1.000000,0.000000,0.000000,0.000000,0.000000,0.000000,1.000000;;,
   4960;16;0.000000,0.000000,-1.000000,0.000000,-1.000000,0.000000,0.000000,0.000000,0.000000,1.000000,0.000000,0.000000,0.000000,0.000000,0.000000,1.000000;;,
   5120;16;0.000000,0.000000,-1.000000,0.000000,-1.000000,0.000000,0.000000,0.000000,0.000000,1.000000,0.000000,0.000000,0.000000,0.000000,0.000000,1.000000;;,
   5280;16;0.000000,0.000000,-1.000000,0.000000,-1.000000,0.000000,0.000000,0.000000,0.000000,1.000000,0.000000,0.000000,0.000000,0.000000,0.000000,1.000000;;,
   5440;16;0.000000,0.000000,-1.000000,0.000000,-1.000000,0.000000,0.000000,0.000000,0.000000,1.000000,0.000000,0.000000,0.000000,0.000000,0.000000,1.000000;;,
   5600;16;0.000000,0.000000,-1.000000,0.000000,-1.000000,0.000000,0.000000,0.000000,0.000000,1.000000,0.000000,0.000000,0.000000,0.000000,0.000000,1.000000;;,
   5760;16;0.000000,0.000000,-1.000000,0.000000,-1.000000,0.000000,0.000000,0.000000,0.000000,1.000000,0.000000,0.000000,0.000000,0.000000,0.000000,1.000000;;,
   5920;16;0.000000,0.000000,-1.000000,0.000000,-1.000000,0.000000,0.000000,0.000000,0.000000,1.000000,0.000000,0.000000,0.000000,0.000000,0.000000,1.000000;;,
   6080;16;0.000000,0.000000,-1.000000,0.000000,-1.000000,0.000000,0.000000,0.000000,0.000000,1.000000,0.000000,0.000000,0.000000,0.000000,0.000000,1.000000;;,
   6240;16;0.000000,0.000000,-1.000000,0.000000,-1.000000,0.000000,0.000000,0.000000,0.000000,1.000000,0.000000,0.000000,0.000000,0.000000,0.000000,1.000000;;,
   6400;16;0.000000,0.000000,-1.000000,0.000000,-1.000000,0.000000,0.000000,0.000000,0.000000,1.000000,0.000000,0.000000,0.000000,0.000000,0.000000,1.000000;;,
   6560;16;0.000000,0.000000,-1.000000,0.000000,-1.000000,0.000000,0.000000,0.000000,0.000000,1.000000,0.000000,0.000000,0.000000,0.000000,0.000000,1.000000;;,
   6720;16;0.000000,0.000000,-1.000000,0.000000,-1.000000,0.000000,0.000000,0.000000,0.000000,1.000000,0.000000,0.000000,0.000000,0.000000,0.000000,1.000000;;,
   6880;16;0.000000,0.000000,-1.000000,0.000000,-1.000000,0.000000,0.000000,0.000000,0.000000,1.000000,0.000000,0.000000,0.000000,0.000000,0.000000,1.000000;;,
   7040;16;0.000000,0.000000,-1.000000,0.000000,-1.000000,0.000000,0.000000,0.000000,0.000000,1.000000,0.000000,0.000000,0.000000,0.000000,0.000000,1.000000;;,
   7200;16;0.000000,0.000000,-1.000000,0.000000,-1.000000,0.000000,0.000000,0.000000,0.000000,1.000000,0.000000,0.000000,0.000000,0.000000,0.000000,1.000000;;,
   7360;16;0.000000,0.000000,-1.000000,0.000000,-1.000000,0.000000,0.000000,0.000000,0.000000,1.000000,0.000000,0.000000,0.000000,0.000000,0.000000,1.000000;;,
   7520;16;0.000000,0.000000,-1.000000,0.000000,-1.000000,0.000000,0.000000,0.000000,0.000000,1.000000,0.000000,0.000000,0.000000,0.000000,0.000000,1.000000;;,
   7680;16;0.000000,0.000000,-1.000000,0.000000,-1.000000,0.000000,0.000000,0.000000,0.000000,1.000000,0.000000,0.000000,0.000000,0.000000,0.000000,1.000000;;,
   7840;16;0.000000,0.000000,-1.000000,0.000000,-1.000000,0.000000,0.000000,0.000000,0.000000,1.000000,0.000000,0.000000,0.000000,0.000000,0.000000,1.000000;;,
   8000;16;0.000000,0.000000,-1.000000,0.000000,-1.000000,0.000000,0.000000,0.000000,0.000000,1.000000,0.000000,0.000000,0.000000,0.000000,0.000000,1.000000;;,
   8160;16;0.000000,0.000000,-1.000000,0.000000,-1.000000,0.000000,0.000000,0.000000,0.000000,1.000000,0.000000,0.000000,0.000000,0.000000,0.000000,1.000000;;,
   8320;16;0.000000,0.000000,-1.000000,0.000000,-1.000000,0.000000,0.000000,0.000000,0.000000,1.000000,0.000000,0.000000,0.000000,0.000000,0.000000,1.000000;;,
   8480;16;0.000000,0.000000,-1.000000,0.000000,-1.000000,0.000000,0.000000,0.000000,0.000000,1.000000,0.000000,0.000000,0.000000,0.000000,0.000000,1.000000;;,
   8640;16;0.000000,0.000000,-1.000000,0.000000,-1.000000,0.000000,0.000000,0.000000,0.000000,1.000000,0.000000,0.000000,0.000000,0.000000,0.000000,1.000000;;,
   8800;16;0.000000,0.000000,-1.000000,0.000000,-1.000000,0.000000,0.000000,0.000000,0.000000,1.000000,0.000000,0.000000,0.000000,0.000000,0.000000,1.000000;;,
   8960;16;0.000000,0.000000,-1.000000,0.000000,-1.000000,0.000000,0.000000,0.000000,0.000000,1.000000,0.000000,0.000000,0.000000,0.000000,0.000000,1.000000;;,
   9120;16;0.000000,0.000000,-1.000000,0.000000,-1.000000,0.000000,0.000000,0.000000,0.000000,1.000000,0.000000,0.000000,0.000000,0.000000,0.000000,1.000000;;,
   9280;16;0.000000,0.000000,-1.000000,0.000000,-1.000000,0.000000,0.000000,0.000000,0.000000,1.000000,0.000000,0.000000,0.000000,0.000000,0.000000,1.000000;;,
   9440;16;0.000000,0.000000,-1.000000,0.000000,-1.000000,0.000000,0.000000,0.000000,0.000000,1.000000,0.000000,0.000000,0.000000,0.000000,0.000000,1.000000;;,
   9600;16;0.000000,0.000000,-1.000000,0.000000,-1.000000,0.000000,0.000000,0.000000,0.000000,1.000000,0.000000,0.000000,0.000000,0.000000,0.000000,1.000000;;,
   9760;16;0.000000,0.000000,-1.000000,0.000000,-1.000000,0.000000,0.000000,0.000000,0.000000,1.000000,0.000000,0.000000,0.000000,0.000000,0.000000,1.000000;;,
   9920;16;0.000000,0.000000,-1.000000,0.000000,-1.000000,0.000000,0.000000,0.000000,0.000000,1.000000,0.000000,0.000000,0.000000,0.000000,0.000000,1.000000;;,
   10080;16;0.000000,0.000000,-1.000000,0.000000,-1.000000,0.000000,0.000000,0.000000,0.000000,1.000000,0.000000,0.000000,0.000000,0.000000,0.000000,1.000000;;,
   10240;16;0.000000,0.000000,-1.000000,0.000000,-1.000000,0.000000,0.000000,0.000000,0.000000,1.000000,0.000000,0.000000,0.000000,0.000000,0.000000,1.000000;;,
   10400;16;0.000000,0.000000,-1.000000,0.000000,-1.000000,0.000000,0.000000,0.000000,0.000000,1.000000,0.000000,0.000000,0.000000,0.000000,0.000000,1.000000;;,
   10560;16;0.000000,0.000000,-1.000000,0.000000,-1.000000,0.000000,0.000000,0.000000,0.000000,1.000000,0.000000,0.000000,0.000000,0.000000,0.000000,1.000000;;,
   10720;16;0.000000,0.000000,-1.000000,0.000000,-1.000000,0.000000,0.000000,0.000000,0.000000,1.000000,0.000000,0.000000,0.000000,0.000000,0.000000,1.000000;;,
   10880;16;0.000000,0.000000,-1.000000,0.000000,-1.000000,0.000000,0.000000,0.000000,0.000000,1.000000,0.000000,0.000000,0.000000,0.000000,0.000000,1.000000;;,
   11040;16;0.000000,0.000000,-1.000000,0.000000,-1.000000,0.000000,0.000000,0.000000,0.000000,1.000000,0.000000,0.000000,0.000000,0.000000,0.000000,1.000000;;,
   11200;16;0.000000,0.000000,-1.000000,0.000000,-1.000000,0.000000,0.000000,0.000000,0.000000,1.000000,0.000000,0.000000,0.000000,0.000000,0.000000,1.000000;;,
   11360;16;0.000000,0.000000,-1.000000,0.000000,-1.000000,0.000000,0.000000,0.000000,0.000000,1.000000,0.000000,0.000000,0.000000,0.000000,0.000000,1.000000;;,
   11520;16;0.000000,0.000000,-1.000000,0.000000,-1.000000,0.000000,0.000000,0.000000,0.000000,1.000000,0.000000,0.000000,0.000000,0.000000,0.000000,1.000000;;,
   11680;16;0.000000,0.000000,-1.000000,0.000000,-1.000000,0.000000,0.000000,0.000000,0.000000,1.000000,0.000000,0.000000,0.000000,0.000000,0.000000,1.000000;;,
   11840;16;0.000000,0.000000,-1.000000,0.000000,-1.000000,0.000000,0.000000,0.000000,0.000000,1.000000,0.000000,0.000000,0.000000,0.000000,0.000000,1.000000;;,
   12000;16;0.000000,0.000000,-1.000000,0.000000,-1.000000,0.000000,0.000000,0.000000,0.000000,1.000000,0.000000,0.000000,0.000000,0.000000,0.000000,1.000000;;,
   12160;16;0.000000,0.000000,-1.000000,0.000000,-1.000000,0.000000,0.000000,0.000000,0.000000,1.000000,0.000000,0.000000,0.000000,0.000000,0.000000,1.000000;;,
   12320;16;0.000000,0.000000,-1.000000,0.000000,-1.000000,0.000000,0.000000,0.000000,0.000000,1.000000,0.000000,0.000000,0.000000,0.000000,0.000000,1.000000;;,
   12480;16;0.000000,0.000000,-1.000000,0.000000,-1.000000,0.000000,0.000000,0.000000,0.000000,1.000000,0.000000,0.000000,0.000000,0.000000,0.000000,1.000000;;,
   12640;16;0.000000,0.000000,-1.000000,0.000000,-1.000000,0.000000,0.000000,0.000000,0.000000,1.000000,0.000000,0.000000,0.000000,0.000000,0.000000,1.000000;;,
   12800;16;0.000000,0.000000,-1.000000,0.000000,-1.000000,0.000000,0.000000,0.000000,0.000000,1.000000,0.000000,0.000000,0.000000,0.000000,0.000000,1.000000;;,
   12960;16;0.000000,0.000000,-1.000000,0.000000,-1.000000,0.000000,0.000000,0.000000,0.000000,1.000000,0.000000,0.000000,0.000000,0.000000,0.000000,1.000000;;,
   13120;16;0.000000,0.000000,-1.000000,0.000000,-1.000000,0.000000,0.000000,0.000000,0.000000,1.000000,0.000000,0.000000,0.000000,0.000000,0.000000,1.000000;;,
   13280;16;0.000000,0.000000,-1.000000,0.000000,-1.000000,0.000000,0.000000,0.000000,0.000000,1.000000,0.000000,0.000000,0.000000,0.000000,0.000000,1.000000;;,
   13440;16;0.000000,0.000000,-1.000000,0.000000,-1.000000,0.000000,0.000000,0.000000,0.000000,1.000000,0.000000,0.000000,0.000000,0.000000,0.000000,1.000000;;,
   13600;16;0.000000,0.000000,-1.000000,0.000000,-1.000000,0.000000,0.000000,0.000000,0.000000,1.000000,0.000000,0.000000,0.000000,0.000000,0.000000,1.000000;;,
   13760;16;0.000000,0.000000,-1.000000,0.000000,-1.000000,0.000000,0.000000,0.000000,0.000000,1.000000,0.000000,0.000000,0.000000,0.000000,0.000000,1.000000;;,
   13920;16;0.000000,0.000000,-1.000000,0.000000,-1.000000,0.000000,0.000000,0.000000,0.000000,1.000000,0.000000,0.000000,0.000000,0.000000,0.000000,1.000000;;,
   14080;16;0.000000,0.000000,-1.000000,0.000000,-1.000000,0.000000,0.000000,0.000000,0.000000,1.000000,0.000000,0.000000,0.000000,0.000000,0.000000,1.000000;;,
   14240;16;0.000000,0.000000,-1.000000,0.000000,-1.000000,0.000000,0.000000,0.000000,0.000000,1.000000,0.000000,0.000000,0.000000,0.000000,0.000000,1.000000;;,
   14400;16;0.000000,0.000000,-1.000000,0.000000,-1.000000,0.000000,0.000000,0.000000,0.000000,1.000000,0.000000,0.000000,0.000000,0.000000,0.000000,1.000000;;,
   14560;16;0.000000,0.000000,-1.000000,0.000000,-1.000000,0.000000,0.000000,0.000000,0.000000,1.000000,0.000000,0.000000,0.000000,0.000000,0.000000,1.000000;;,
   14720;16;0.000000,0.000000,-1.000000,0.000000,-1.000000,0.000000,0.000000,0.000000,0.000000,1.000000,0.000000,0.000000,0.000000,0.000000,0.000000,1.000000;;,
   14880;16;0.000000,0.000000,-1.000000,0.000000,-1.000000,0.000000,0.000000,0.000000,0.000000,1.000000,0.000000,0.000000,0.000000,0.000000,0.000000,1.000000;;,
   15040;16;0.000000,0.000000,-1.000000,0.000000,-1.000000,0.000000,0.000000,0.000000,0.000000,1.000000,0.000000,0.000000,0.000000,0.000000,0.000000,1.000000;;,
   15200;16;0.000000,0.000000,-1.000000,0.000000,-1.000000,0.000000,0.000000,0.000000,0.000000,1.000000,0.000000,0.000000,0.000000,0.000000,0.000000,1.000000;;,
   15360;16;0.000000,0.000000,-1.000000,0.000000,-1.000000,0.000000,0.000000,0.000000,0.000000,1.000000,0.000000,0.000000,0.000000,0.000000,0.000000,1.000000;;,
   15520;16;0.000000,0.000000,-1.000000,0.000000,-1.000000,0.000000,0.000000,0.000000,0.000000,1.000000,0.000000,0.000000,0.000000,0.000000,0.000000,1.000000;;,
   15680;16;0.000000,0.000000,-1.000000,0.000000,-1.000000,0.000000,0.000000,0.000000,0.000000,1.000000,0.000000,0.000000,0.000000,0.000000,0.000000,1.000000;;,
   15840;16;0.000000,0.000000,-1.000000,0.000000,-1.000000,0.000000,0.000000,0.000000,0.000000,1.000000,0.000000,0.000000,0.000000,0.000000,0.000000,1.000000;;,
   16000;16;0.000000,0.000000,-1.000000,0.000000,-1.000000,0.000000,0.000000,0.000000,0.000000,1.000000,0.000000,0.000000,0.000000,0.000000,0.000000,1.000000;;;
  }
 }
}