xof 0303txt 0032
template ColorRGBA {
 <35ff44e0-6c7c-11cf-8f52-0040333594a3>
 FLOAT red;
 FLOAT green;
 FLOAT blue;
 FLOAT alpha;
}

template ColorRGB {
 <d3e16e81-7835-11cf-8f52-0040333594a3>
 FLOAT red;
 FLOAT green;
 FLOAT blue;
}

template Material {
 <3d82ab4d-62da-11cf-ab39-0020af71e433>
 ColorRGBA faceColor;
 FLOAT power;
 ColorRGB specularColor;
 ColorRGB emissiveColor;
 [...]
}

template TextureFilename {
 <a42790e1-7810-11cf-8f52-0040333594a3>
 STRING filename;
}

template Frame {
 <3d82ab46-62da-11cf-ab39-0020af71e433>
 [...]
}

template Matrix4x4 {
 <f6f23f45-7686-11cf-8f52-0040333594a3>
 array FLOAT matrix[16];
}

template FrameTransformMatrix {
 <f6f23f41-7686-11cf-8f52-0040333594a3>
 Matrix4x4 frameMatrix;
}

template Vector {
 <3d82ab5e-62da-11cf-ab39-0020af71e433>
 FLOAT x;
 FLOAT y;
 FLOAT z;
}

template MeshFace {
 <3d82ab5f-62da-11cf-ab39-0020af71e433>
 DWORD nFaceVertexIndices;
 array DWORD faceVertexIndices[nFaceVertexIndices];
}

template Mesh {
 <3d82ab44-62da-11cf-ab39-0020af71e433>
 DWORD nVertices;
 array Vector vertices[nVertices];
 DWORD nFaces;
 array MeshFace faces[nFaces];
 [...]
}

template MeshNormals {
 <f6f23f43-7686-11cf-8f52-0040333594a3>
 DWORD nNormals;
 array Vector normals[nNormals];
 DWORD nFaceNormals;
 array MeshFace faceNormals[nFaceNormals];
}

template MeshMaterialList {
 <f6f23f42-7686-11cf-8f52-0040333594a3>
 DWORD nMaterials;
 DWORD nFaceIndexes;
 array DWORD faceIndexes[nFaceIndexes];
 [Material <3d82ab4d-62da-11cf-ab39-0020af71e433>]
}

template Coords2d {
 <f6f23f44-7686-11cf-8f52-0040333594a3>
 FLOAT u;
 FLOAT v;
}

template MeshTextureCoords {
 <f6f23f40-7686-11cf-8f52-0040333594a3>
 DWORD nTextureCoords;
 array Coords2d textureCoords[nTextureCoords];
}

template Animation {
 <3d82ab4f-62da-11cf-ab39-0020af71e433>
 [...]
}

template AnimationSet {
 <3d82ab50-62da-11cf-ab39-0020af71e433>
 [Animation <3d82ab4f-62da-11cf-ab39-0020af71e433>]
}

template FloatKeys {
 <10dd46a9-775b-11cf-8f52-0040333594a3>
 DWORD nValues;
 array FLOAT values[nValues];
}

template TimedFloatKeys {
 <f406b180-7b3b-11cf-8f52-0040333594a3>
 DWORD time;
 FloatKeys tfkeys;
}

template AnimationKey {
 <10dd46a8-775b-11cf-8f52-0040333594a3>
 DWORD keyType;
 DWORD nKeys;
 array TimedFloatKeys keys[nKeys];
}


Material small_fighter_1 {
 1.000000;1.000000;1.000000;1.000000;;
 3.200000;
 0.000000;0.000000;0.000000;;
 0.000000;0.000000;0.000000;;

 TextureFilename {
  "small_fighter_1_color.jpg";
 }
}

Frame small_fighter_1 {
 

 FrameTransformMatrix {
  1.000000,0.000000,0.000000,0.000000,0.000000,1.000000,0.000000,0.000000,0.000000,0.000000,1.000000,0.000000,0.000000,0.000000,0.000000,1.000000;;
 }

 Frame {
  

  FrameTransformMatrix {
   1.000000,0.000000,0.000000,0.000000,0.000000,1.000000,0.000000,0.000000,0.000000,0.000000,1.000000,0.000000,-0.638388,-1.240838,0.000000,1.000000;;
  }

  Mesh  {
   369;
   -5.427160;-0.313747;-1.874671;,
   9.019063;-0.122817;-1.874671;,
   -5.427160;0.754631;-1.874671;,
   8.530018;0.765649;-1.874671;,
   -5.427160;1.795755;0.000000;,
   -5.427160;1.453840;-1.332249;,
   8.076888;1.298160;-1.332249;,
   -5.725343;-0.063082;-1.434132;,
   -5.725343;1.210504;-1.047020;,
   -5.725343;1.402361;0.000000;,
   -11.573823;-0.063082;0.000000;,
   -10.575446;-0.063082;-0.786372;,
   -8.160682;1.210504;-0.831964;,
   -10.345251;0.907810;0.000000;,
   2.180708;-0.313747;-2.427375;,
   -0.474056;-0.313747;-2.427375;,
   -0.474057;1.453840;-1.884954;,
   2.180708;1.453840;-1.884954;,
   -0.474057;0.754631;-2.427375;,
   2.180708;0.754631;-2.427375;,
   8.197125;1.156860;-1.210398;,
   8.576616;0.710887;-1.664671;,
   8.882971;0.350864;-1.664671;,
   6.643256;1.146642;0.000000;,
   6.764915;1.003669;-0.888281;,
   7.042392;0.677582;-1.220437;,
   7.266393;0.414340;-1.220437;,
   7.266393;0.414340;1.220437;,
   -4.855670;-0.313747;-1.168635;,
   8.369302;-0.140428;-1.113990;,
   2.154498;-0.314265;-1.616296;,
   -0.407111;-0.313747;-1.616296;,
   -4.136406;-1.016650;-0.749850;,
   7.974033;-0.843331;-0.695205;,
   2.179243;-1.017168;-1.197511;,
   -0.382367;-1.016650;-1.197511;,
   -9.737638;0.687653;-0.761534;,
   -8.788120;1.402361;0.000000;,
   9.019063;-0.122817;1.874671;,
   -5.427160;0.754631;1.874671;,
   8.530018;0.765649;1.874671;,
   -5.427160;-0.313747;1.874671;,
   7.855307;1.558559;0.000000;,
   -5.427160;1.453840;1.332249;,
   8.076888;1.298160;1.332249;,
   -5.725343;-0.063082;1.434132;,
   -5.725343;1.210504;1.047020;,
   -10.575446;-0.063082;0.786372;,
   -8.160682;1.210504;0.831964;,
   2.180708;-0.313747;2.427375;,
   -0.474056;-0.313747;2.427375;,
   -0.474057;1.453840;1.884954;,
   2.180708;1.453840;1.884954;,
   2.180708;1.795755;0.000000;,
   -0.474056;1.795755;0.000000;,
   -0.474057;0.754631;2.427375;,
   2.180708;0.754631;2.427375;,
   8.030738;1.352396;0.000000;,
   8.197125;1.156860;1.210398;,
   8.576616;0.710887;1.664671;,
   8.882971;0.350864;1.664671;,
   6.764915;1.003669;0.888281;,
   7.042392;0.677582;1.220437;,
   -4.855670;-0.313747;1.168635;,
   8.369302;-0.140428;1.113990;,
   2.154498;-0.314265;1.616296;,
   -0.407111;-0.313747;1.616296;,
   -4.136406;-1.016650;0.749850;,
   -0.382367;-1.016650;1.197511;,
   7.974033;-0.843331;0.695205;,
   2.179243;-1.017168;1.197511;,
   -9.737638;0.687653;0.761534;,
   -4.775320;1.172759;-4.270491;,
   5.429224;1.219002;-4.290827;,
   -6.055198;0.716179;-2.036608;,
   6.650115;0.762422;-2.056943;,
   -3.527131;2.788645;-3.284883;,
   5.429225;2.834888;-3.305219;,
   -4.807009;1.684531;-1.192603;,
   6.650115;1.730774;-1.212939;,
   -1.932659;1.019912;-2.426355;,
   2.448002;1.019912;-2.426355;,
   2.448001;1.476492;-4.660239;,
   -1.932660;1.476492;-4.660239;,
   -1.100534;3.092378;-3.674631;,
   2.864064;3.092378;-3.674631;,
   2.864064;1.988264;-1.582350;,
   -1.100534;1.988264;-1.582350;,
   -5.765975;0.963574;-2.120791;,
   -4.673207;1.328579;-3.910279;,
   -3.872159;2.490343;-3.202523;,
   -4.811943;1.617361;-1.549640;,
   -3.699514;1.104779;-2.383725;,
   -2.865084;1.383493;-3.750164;,
   -2.253411;2.270607;-3.209728;,
   -2.971022;1.604005;-1.947599;,
   0.994595;-0.136304;-21.651498;,
   4.541617;-0.136304;-21.651498;,
   7.718146;-0.062803;-1.971598;,
   1.729065;0.205133;-21.119614;,
   3.634756;0.205133;-21.119614;,
   -3.110035;0.600642;-1.766656;,
   6.815997;0.600642;-1.971598;,
   -4.223231;-0.136304;-1.766656;,
   5.594731;0.579073;-5.602817;,
   -3.429461;0.579073;-6.081220;,
   4.692582;1.316019;-5.602816;,
   -2.316264;1.316019;-6.081221;,
   9.645913;-1.634569;-12.284138;,
   12.657114;-1.560120;-12.284141;,
   7.889394;-0.744029;-0.713003;,
   10.036460;-1.467520;-11.780562;,
   11.533880;-1.393071;-11.780562;,
   1.357229;-0.401286;-0.863355;,
   0.476367;-0.921998;-0.863355;,
   7.183258;-0.223317;-0.713003;,
   3.415260;-1.742976;-6.573747;,
   8.192898;-1.272886;-6.246782;,
   9.107584;-1.616767;-6.498571;,
   4.050965;-1.399096;-6.321958;,
   8.088178;4.011614;-5.949001;,
   10.134840;4.173164;-5.829642;,
   1.717682;1.917481;-0.587598;,
   6.470458;2.179725;-0.393840;,
   8.378849;4.155116;-5.446777;,
   9.152306;4.224652;-5.395400;,
   2.473537;2.491558;-0.372020;,
   5.640495;2.661790;-0.246245;,
   4.095915;3.382368;-3.108155;,
   7.755723;3.594265;-2.951597;,
   6.849475;3.861042;-2.660679;,
   4.619178;3.741158;-2.749255;,
   -4.382791;1.510675;-0.797552;,
   7.654082;1.375534;-0.797552;,
   -4.382791;1.510675;0.858278;,
   7.654082;1.375534;0.858278;,
   -4.096404;1.962433;-0.352455;,
   6.244359;2.961639;-0.352455;,
   -4.096404;1.962433;0.413181;,
   6.244359;2.961639;0.413180;,
   -1.159256;2.946098;-0.352455;,
   -1.159257;2.946098;0.413181;,
   -4.247874;-0.919050;-0.317843;,
   -4.247874;-0.919050;0.423890;,
   -4.247874;-0.254465;-0.317843;,
   -22.445382;-0.586757;0.053024;,
   -4.247874;-0.254465;0.423890;,
   -1.932659;1.019912;2.426355;,
   2.448002;1.019912;2.426355;,
   2.448001;1.476492;4.660239;,
   -1.932660;1.476492;4.660239;,
   -1.100534;3.092378;3.674631;,
   2.864064;3.092378;3.674631;,
   2.864064;1.988264;1.582350;,
   -1.100534;1.988264;1.582350;,
   5.429224;1.219002;4.290827;,
   6.650115;0.762422;2.056943;,
   6.650115;1.730774;1.212939;,
   5.429225;2.834888;3.305219;,
   -3.699514;1.104779;2.383725;,
   -2.865084;1.383493;3.750164;,
   -2.253411;2.270607;3.209728;,
   -2.971022;1.604005;1.947599;,
   -4.775320;1.172759;4.270491;,
   -6.055198;0.716179;2.036608;,
   -4.807009;1.684531;1.192603;,
   -3.527131;2.788645;3.284883;,
   -4.673207;1.328579;3.910279;,
   -5.765975;0.963574;2.120791;,
   -3.872159;2.490343;3.202523;,
   -4.811943;1.617361;1.549640;,
   0.994595;-0.136304;21.651498;,
   -3.429461;0.579073;6.081220;,
   5.594731;0.579073;5.602817;,
   4.541617;-0.136304;21.651498;,
   1.729065;0.205133;21.119614;,
   3.634756;0.205133;21.119614;,
   4.692582;1.316019;5.602816;,
   -2.316264;1.316019;6.081221;,
   7.718146;-0.062803;1.971598;,
   6.815997;0.600642;1.971598;,
   -4.223231;-0.136304;1.766656;,
   -3.110035;0.600642;1.766656;,
   9.645913;-1.634569;12.284138;,
   3.415260;-1.742976;6.573747;,
   9.107584;-1.616767;6.498571;,
   12.657114;-1.560120;12.284141;,
   10.036460;-1.467520;11.780562;,
   11.533880;-1.393071;11.780562;,
   8.192898;-1.272886;6.246782;,
   4.050965;-1.399096;6.321958;,
   0.476367;-0.921998;0.863355;,
   1.357229;-0.401286;0.863355;,
   7.889394;-0.744029;0.713003;,
   7.183258;-0.223317;0.713003;,
   8.088178;4.011614;5.949001;,
   4.095915;3.382368;3.108155;,
   7.755723;3.594265;2.951597;,
   10.134840;4.173164;5.829642;,
   8.378849;4.155116;5.446777;,
   9.152306;4.224652;5.395400;,
   6.849475;3.861042;2.660679;,
   4.619178;3.741158;2.749255;,
   1.717682;1.917481;0.587598;,
   2.473537;2.491558;0.372020;,
   6.470458;2.179725;0.393840;,
   5.640495;2.661790;0.246245;,
   -5.725343;-0.063082;1.434132;,
   -10.575446;-0.063082;-0.786372;,
   -5.725343;-0.063082;-1.434132;,
   -11.573823;-0.063082;0.000000;,
   -5.725343;1.210504;-1.047020;,
   -9.737638;0.687653;-0.761534;,
   -5.725343;1.210504;-1.047020;,
   -5.725343;1.402361;0.000000;,
   -8.160682;1.210504;-0.831964;,
   -5.427160;1.795755;0.000000;,
   -5.427160;1.453840;-1.332249;,
   -5.427160;0.754631;-1.874671;,
   -5.427160;-0.313747;-1.874671;,
   7.855307;1.558559;0.000000;,
   8.076888;1.298160;-1.332249;,
   8.530018;0.765649;-1.874671;,
   9.019063;-0.122817;-1.874671;,
   8.576616;0.710887;-1.664671;,
   9.019063;-0.122817;-1.874671;,
   8.882971;0.350864;-1.664671;,
   8.030738;1.352396;0.000000;,
   6.764915;1.003669;-0.888281;,
   8.197125;1.156860;-1.210398;,
   6.643256;1.146642;0.000000;,
   7.042392;0.677582;-1.220437;,
   8.576616;0.710887;-1.664671;,
   7.266393;0.414340;-1.220437;,
   8.882971;0.350864;-1.664671;,
   7.266393;0.414340;1.220437;,
   8.882971;0.350864;1.664671;,
   -5.427160;-0.313747;-1.874671;,
   -5.427160;-0.313747;1.874671;,
   9.019063;-0.122817;1.874671;,
   9.019063;-0.122817;-1.874671;,
   2.180708;-0.313747;-2.427375;,
   -0.474056;-0.313747;-2.427375;,
   -10.575446;-0.063082;0.786372;,
   -9.737638;0.687653;0.761534;,
   -5.725343;1.210504;1.047020;,
   -5.725343;1.210504;1.047020;,
   -8.160682;1.210504;0.831964;,
   -5.427160;1.453840;1.332249;,
   9.019063;-0.122817;1.874671;,
   -5.427160;0.754631;1.874671;,
   -5.427160;-0.313747;1.874671;,
   8.076888;1.298160;1.332249;,
   8.530018;0.765649;1.874671;,
   8.530018;0.765649;1.874671;,
   9.019063;-0.122817;1.874671;,
   6.764915;1.003669;0.888281;,
   8.197125;1.156860;1.210398;,
   7.042392;0.677582;1.220437;,
   8.576616;0.710887;1.664671;,
   7.266393;0.414340;1.220437;,
   8.882971;0.350864;1.664671;,
   2.180708;-0.313747;2.427375;,
   -0.474056;-0.313747;2.427375;,
   2.448002;1.019912;-2.426355;,
   -1.100534;1.988264;-1.582350;,
   -1.932659;1.019912;-2.426355;,
   2.864064;1.988264;-1.582350;,
   6.650115;0.762422;-2.056943;,
   5.429224;1.219002;-4.290827;,
   5.429225;2.834888;-3.305219;,
   6.650115;1.730774;-1.212939;,
   -4.807009;1.684531;-1.192603;,
   -6.055198;0.716179;-2.036608;,
   6.650115;0.762422;-2.056943;,
   6.650115;1.730774;-1.212939;,
   -6.055198;0.716179;-2.036608;,
   -4.775320;1.172759;-4.270491;,
   -3.527131;2.788645;-3.284883;,
   -4.673207;1.328579;-3.910279;,
   -4.807009;1.684531;-1.192603;,
   -5.765975;0.963574;-2.120791;,
   -6.055198;0.716179;-2.036608;,
   -5.765975;0.963574;-2.120791;,
   -2.865084;1.383493;-3.750164;,
   -4.673207;1.328579;-3.910279;,
   -3.699514;1.104779;-2.383725;,
   -4.673207;1.328579;-3.910279;,
   -2.253411;2.270607;-3.209728;,
   -3.872159;2.490343;-3.202523;,
   -2.865084;1.383493;-3.750164;,
   -2.971022;1.604005;-1.947599;,
   -4.811943;1.617361;-1.549640;,
   0.994595;-0.136304;-21.651498;,
   4.541617;-0.136304;-21.651498;,
   5.594731;0.579073;-5.602817;,
   -3.429461;0.579073;-6.081220;,
   -4.223231;-0.136304;-1.766656;,
   7.718146;-0.062803;-1.971598;,
   9.645913;-1.634569;-12.284138;,
   12.657114;-1.560120;-12.284141;,
   9.107584;-1.616767;-6.498571;,
   3.415260;-1.742976;-6.573747;,
   0.476367;-0.921998;-0.863355;,
   7.889394;-0.744029;-0.713003;,
   8.088178;4.011614;-5.949001;,
   10.134840;4.173164;-5.829642;,
   7.755723;3.594265;-2.951597;,
   4.095915;3.382368;-3.108155;,
   1.717682;1.917481;-0.587598;,
   6.470458;2.179725;-0.393840;,
   -1.159256;2.946098;-0.352455;,
   -4.096404;1.962433;-0.352455;,
   7.654082;1.375534;-0.797552;,
   6.244359;2.961639;-0.352455;,
   7.654082;1.375534;0.858278;,
   -4.096404;1.962433;0.413181;,
   -1.159257;2.946098;0.413181;,
   6.244359;2.961639;0.413180;,
   -4.382791;1.510675;0.858278;,
   -4.382791;1.510675;-0.797552;,
   -4.247874;-0.254465;-0.317843;,
   2.448002;1.019912;2.426355;,
   -1.100534;1.988264;1.582350;,
   2.864064;1.988264;1.582350;,
   -1.932659;1.019912;2.426355;,
   6.650115;0.762422;2.056943;,
   5.429224;1.219002;4.290827;,
   5.429225;2.834888;3.305219;,
   6.650115;1.730774;1.212939;,
   -4.807009;1.684531;1.192603;,
   -6.055198;0.716179;2.036608;,
   6.650115;0.762422;2.056943;,
   6.650115;1.730774;1.212939;,
   -6.055198;0.716179;2.036608;,
   -4.775320;1.172759;4.270491;,
   -4.673207;1.328579;3.910279;,
   -3.527131;2.788645;3.284883;,
   -4.807009;1.684531;1.192603;,
   -5.765975;0.963574;2.120791;,
   -6.055198;0.716179;2.036608;,
   -5.765975;0.963574;2.120791;,
   -2.865084;1.383493;3.750164;,
   -3.699514;1.104779;2.383725;,
   -4.673207;1.328579;3.910279;,
   -4.673207;1.328579;3.910279;,
   -2.253411;2.270607;3.209728;,
   -2.865084;1.383493;3.750164;,
   -3.872159;2.490343;3.202523;,
   -2.971022;1.604005;1.947599;,
   -4.811943;1.617361;1.549640;,
   0.994595;-0.136304;21.651498;,
   4.541617;-0.136304;21.651498;,
   5.594731;0.579073;5.602817;,
   -3.429461;0.579073;6.081220;,
   -4.223231;-0.136304;1.766656;,
   7.718146;-0.062803;1.971598;,
   9.645913;-1.634569;12.284138;,
   12.657114;-1.560120;12.284141;,
   9.107584;-1.616767;6.498571;,
   3.415260;-1.742976;6.573747;,
   0.476367;-0.921998;0.863355;,
   7.889394;-0.744029;0.713003;,
   8.088178;4.011614;5.949001;,
   10.134840;4.173164;5.829642;,
   7.755723;3.594265;2.951597;,
   4.095915;3.382368;3.108155;,
   1.717682;1.917481;0.587598;,
   6.470458;2.179725;0.393840;;
   354;
   3;70,35,34;,
   3;35,70,68;,
   3;17,54,53;,
   3;54,17,16;,
   3;14,18,19;,
   3;18,14,15;,
   3;62,23,61;,
   3;27,23,62;,
   3;23,25,24;,
   3;27,25,23;,
   3;26,25,27;,
   3;11,13,36;,
   3;13,11,10;,
   3;19,16,17;,
   3;16,19,18;,
   3;41,7,0;,
   3;7,41,45;,
   3;0,7,2;,
   3;2,8,5;,
   3;8,2,7;,
   3;5,9,4;,
   3;9,5,8;,
   3;207,208,209;,
   3;207,210,208;,
   3;207,47,210;,
   3;211,212,12;,
   3;209,212,211;,
   3;209,208,212;,
   3;213,37,214;,
   3;37,213,215;,
   3;69,34,33;,
   3;34,69,70;,
   3;32,68,67;,
   3;68,32,35;,
   3;6,53,42;,
   3;53,6,17;,
   3;216,16,217;,
   3;16,216,54;,
   3;1,19,3;,
   3;19,1,14;,
   3;218,15,219;,
   3;15,218,18;,
   3;3,17,6;,
   3;17,3,19;,
   3;217,18,218;,
   3;18,217,16;,
   3;220,20,221;,
   3;20,220,57;,
   3;221,21,222;,
   3;21,221,20;,
   3;222,22,223;,
   3;22,222,224;,
   3;225,60,38;,
   3;60,225,226;,
   3;227,228,229;,
   3;228,227,230;,
   3;229,231,232;,
   3;231,229,228;,
   3;232,233,234;,
   3;233,232,231;,
   3;234,235,236;,
   3;235,234,233;,
   3;237,63,238;,
   3;63,237,28;,
   3;239,29,240;,
   3;29,239,64;,
   3;240,30,241;,
   3;30,240,29;,
   3;241,31,242;,
   3;31,241,30;,
   3;242,28,237;,
   3;28,242,31;,
   3;28,67,63;,
   3;67,28,32;,
   3;64,33,29;,
   3;33,64,69;,
   3;29,34,30;,
   3;34,29,33;,
   3;30,35,31;,
   3;35,30,34;,
   3;31,32,28;,
   3;32,31,35;,
   3;36,37,215;,
   3;37,36,13;,
   3;52,54,51;,
   3;54,52,53;,
   3;49,55,50;,
   3;55,49,56;,
   3;243,13,10;,
   3;13,243,71;,
   3;56,51,55;,
   3;51,56,52;,
   3;41,39,45;,
   3;39,46,45;,
   3;46,39,43;,
   3;43,9,46;,
   3;9,43,4;,
   3;207,244,47;,
   3;244,245,48;,
   3;207,245,244;,
   3;246,37,247;,
   3;37,246,214;,
   3;44,53,52;,
   3;53,44,42;,
   3;216,51,54;,
   3;51,216,248;,
   3;249,56,49;,
   3;56,249,40;,
   3;250,50,55;,
   3;50,250,251;,
   3;40,52,56;,
   3;52,40,44;,
   3;248,55,51;,
   3;55,248,250;,
   3;220,58,57;,
   3;58,220,252;,
   3;252,59,58;,
   3;59,252,253;,
   3;254,60,59;,
   3;60,254,255;,
   3;227,256,230;,
   3;256,227,257;,
   3;257,258,256;,
   3;258,257,259;,
   3;259,260,258;,
   3;260,259,261;,
   3;239,65,64;,
   3;65,239,262;,
   3;262,66,65;,
   3;66,262,263;,
   3;263,63,66;,
   3;63,263,238;,
   3;64,70,69;,
   3;70,64,65;,
   3;65,68,70;,
   3;68,65,66;,
   3;66,67,68;,
   3;67,66,63;,
   3;71,37,13;,
   3;37,71,247;,
   3;81,83,82;,
   3;83,81,80;,
   3;85,87,86;,
   3;87,85,84;,
   3;82,84,85;,
   3;84,82,83;,
   3;73,79,75;,
   3;79,73,77;,
   3;264,265,266;,
   3;265,264,267;,
   3;92,94,93;,
   3;94,92,95;,
   3;268,82,269;,
   3;82,268,81;,
   3;72,80,74;,
   3;80,72,83;,
   3;270,86,271;,
   3;86,270,85;,
   3;78,84,76;,
   3;84,78,87;,
   3;269,85,270;,
   3;85,269,82;,
   3;76,83,72;,
   3;83,76,84;,
   3;266,272,273;,
   3;272,266,265;,
   3;267,274,275;,
   3;274,267,264;,
   3;276,89,277;,
   3;89,276,88;,
   3;277,90,278;,
   3;90,277,279;,
   3;278,91,280;,
   3;91,278,90;,
   3;280,281,282;,
   3;281,280,91;,
   3;283,284,285;,
   3;284,283,286;,
   3;287,288,289;,
   3;288,287,290;,
   3;289,291,292;,
   3;291,289,288;,
   3;292,286,283;,
   3;286,292,291;,
   3;96,104,105;,
   3;104,96,97;,
   3;99,106,100;,
   3;106,99,107;,
   3;293,100,294;,
   3;100,293,99;,
   3;295,100,106;,
   3;100,295,294;,
   3;98,106,102;,
   3;106,98,295;,
   3;296,101,107;,
   3;101,296,103;,
   3;297,104,298;,
   3;104,297,105;,
   3;106,101,102;,
   3;101,106,107;,
   3;293,107,99;,
   3;107,293,296;,
   3;108,118,116;,
   3;118,108,109;,
   3;111,117,112;,
   3;117,111,119;,
   3;299,112,300;,
   3;112,299,111;,
   3;301,112,117;,
   3;112,301,300;,
   3;302,113,119;,
   3;113,302,114;,
   3;116,110,303;,
   3;110,116,118;,
   3;115,119,113;,
   3;119,115,117;,
   3;304,117,115;,
   3;117,304,301;,
   3;299,119,111;,
   3;119,299,302;,
   3;120,129,128;,
   3;129,120,121;,
   3;124,130,125;,
   3;130,124,131;,
   3;305,125,306;,
   3;125,305,124;,
   3;307,125,130;,
   3;125,307,306;,
   3;308,126,131;,
   3;126,308,122;,
   3;128,123,309;,
   3;123,128,129;,
   3;127,131,126;,
   3;131,127,130;,
   3;307,127,310;,
   3;127,307,130;,
   3;305,131,124;,
   3;131,305,308;,
   3;140,138,141;,
   3;138,140,136;,
   3;132,137,133;,
   3;132,311,137;,
   3;132,312,311;,
   3;313,139,135;,
   3;139,313,314;,
   3;315,316,134;,
   3;315,317,316;,
   3;315,318,317;,
   3;319,136,320;,
   3;136,319,138;,
   3;314,141,139;,
   3;141,314,140;,
   3;145,142,143;,
   3;144,145,146;,
   3;142,145,321;,
   3;143,146,145;,
   3;148,150,147;,
   3;150,148,149;,
   3;152,154,151;,
   3;154,152,153;,
   3;149,151,150;,
   3;151,149,152;,
   3;155,157,158;,
   3;157,155,156;,
   3;322,323,324;,
   3;323,322,325;,
   3;159,161,162;,
   3;161,159,160;,
   3;326,149,148;,
   3;149,326,327;,
   3;163,147,150;,
   3;147,163,164;,
   3;328,153,152;,
   3;153,328,329;,
   3;165,151,154;,
   3;151,165,166;,
   3;327,152,149;,
   3;152,327,328;,
   3;166,150,151;,
   3;150,166,163;,
   3;325,330,323;,
   3;330,325,331;,
   3;324,332,322;,
   3;332,324,333;,
   3;334,167,168;,
   3;167,334,335;,
   3;335,169,336;,
   3;169,335,337;,
   3;337,170,169;,
   3;170,337,338;,
   3;338,339,170;,
   3;339,338,340;,
   3;341,342,343;,
   3;342,341,344;,
   3;345,346,347;,
   3;346,345,348;,
   3;348,349,346;,
   3;349,348,350;,
   3;350,343,349;,
   3;343,350,341;,
   3;171,173,174;,
   3;173,171,172;,
   3;175,177,178;,
   3;177,175,176;,
   3;351,176,175;,
   3;176,351,352;,
   3;353,176,352;,
   3;176,353,177;,
   3;179,177,353;,
   3;177,179,180;,
   3;354,182,181;,
   3;182,354,178;,
   3;355,173,172;,
   3;173,355,356;,
   3;177,182,178;,
   3;182,177,180;,
   3;351,178,354;,
   3;178,351,175;,
   3;183,185,186;,
   3;185,183,184;,
   3;187,189,190;,
   3;189,187,188;,
   3;357,188,187;,
   3;188,357,358;,
   3;359,188,358;,
   3;188,359,189;,
   3;360,192,191;,
   3;192,360,190;,
   3;184,193,185;,
   3;193,184,361;,
   3;194,190,189;,
   3;190,194,192;,
   3;362,189,359;,
   3;189,362,194;,
   3;357,190,360;,
   3;190,357,187;,
   3;195,197,198;,
   3;197,195,196;,
   3;199,201,202;,
   3;201,199,200;,
   3;363,200,199;,
   3;200,363,364;,
   3;365,200,364;,
   3;200,365,201;,
   3;366,204,203;,
   3;204,366,202;,
   3;196,205,197;,
   3;205,196,367;,
   3;206,202,201;,
   3;202,206,204;,
   3;365,206,201;,
   3;206,365,368;,
   3;363,202,366;,
   3;202,363,199;;

   MeshNormals  {
    427;
    -0.000202;-1.000000;0.000000;,
    0.029828;0.852623;-0.521674;,
    0.000000;1.000000;0.000000;,
    0.021520;0.999768;-0.000000;,
    -0.025918;0.847654;-0.529917;,
    0.039953;0.000000;-0.999202;,
    -0.055535;-0.000000;-0.998457;,
    0.040586;0.001958;-0.999174;,
    -0.055535;-0.000000;-0.998457;,
    0.761590;0.648060;0.000001;,
    0.761590;0.648059;0.000000;,
    0.761590;0.648060;-0.000001;,
    0.761590;0.648059;-0.000000;,
    0.761590;0.648059;0.000000;,
    -0.502604;0.612953;-0.609653;,
    -0.521735;0.853108;0.000000;,
    -0.378038;0.771464;-0.511792;,
    -0.620025;0.784582;0.000000;,
    0.033203;0.612610;-0.789687;,
    -0.042983;0.612382;-0.789393;,
    -0.857334;-0.338898;0.387463;,
    -0.859392;-0.429188;-0.277929;,
    -0.857334;-0.338898;-0.387463;,
    -0.859392;-0.429188;0.277929;,
    -0.877745;0.146113;-0.456305;,
    -0.801170;0.519788;-0.296558;,
    -0.780436;0.516126;-0.352894;,
    -0.781290;0.624168;-0.000000;,
    -0.796939;0.604059;0.000000;,
    0.000000;-1.000000;0.000000;,
    -0.087217;0.130011;-0.987669;,
    -0.105384;0.289198;-0.951451;,
    -0.130275;0.177657;-0.975432;,
    -0.003543;0.981728;-0.190257;,
    -0.225670;0.974204;0.000000;,
    -0.108146;0.947752;-0.300118;,
    0.029985;-0.999550;0.000000;,
    0.029985;-0.999550;0.000000;,
    0.000000;-1.000000;0.000000;,
    0.067170;0.875754;-0.478063;,
    0.041763;0.999128;0.000000;,
    -0.021826;0.999762;0.000000;,
    -0.059322;0.844904;-0.531618;,
    0.085708;0.040912;-0.995480;,
    0.086541;0.047635;-0.995109;,
    -0.110899;-0.000000;-0.993832;,
    -0.110899;0.000000;-0.993832;,
    0.080124;0.729075;-0.679728;,
    -0.087827;0.610580;-0.787070;,
    0.761590;0.648059;-0.000000;,
    0.761590;0.648059;0.000000;,
    0.761590;0.648059;0.000000;,
    0.761590;0.648059;0.000000;,
    0.761590;0.648059;0.000001;,
    0.778324;0.623062;-0.077499;,
    0.887853;0.395184;-0.235685;,
    0.935221;0.327908;-0.133559;,
    0.887853;0.395184;0.235685;,
    0.935221;0.327908;0.133559;,
    0.146424;-0.989222;0.000000;,
    0.186463;-0.896592;0.401690;,
    0.216488;-0.774680;0.594141;,
    0.146689;-0.989183;0.000000;,
    0.264770;-0.380985;0.885860;,
    0.278148;-0.001147;0.960538;,
    0.266345;0.226641;0.936853;,
    0.266345;0.226641;0.936853;,
    0.039236;0.999230;0.000000;,
    0.039236;0.999230;0.000000;,
    0.027093;-0.999633;0.000000;,
    0.027093;-0.999633;0.000000;,
    0.027888;-0.999611;0.000262;,
    0.027905;-0.999610;0.000694;,
    -0.000202;-1.000000;-0.000646;,
    -0.698926;-0.715194;0.000000;,
    0.871636;-0.490154;0.000000;,
    0.088014;-0.541777;-0.835902;,
    0.043000;-0.511885;-0.857977;,
    0.040694;-0.510354;-0.859001;,
    0.088590;-0.546119;-0.833010;,
    -0.050982;-0.512494;-0.857176;,
    -0.049745;-0.516791;-0.854665;,
    -0.084082;-0.565359;-0.820548;,
    -0.082208;-0.570845;-0.816932;,
    0.029828;0.852623;0.521674;,
    -0.025918;0.847654;0.529917;,
    0.039953;0.000000;0.999202;,
    -0.055535;-0.000000;0.998457;,
    -0.055535;-0.000000;0.998457;,
    0.040586;0.001958;0.999174;,
    -0.502604;0.612953;0.609653;,
    -0.378038;0.771464;0.511792;,
    0.033203;0.612610;0.789687;,
    -0.042983;0.612382;0.789393;,
    -0.877745;0.146113;0.456305;,
    -0.801170;0.519788;0.296558;,
    -0.780436;0.516126;0.352894;,
    -0.130275;0.177657;0.975432;,
    -0.087217;0.130011;0.987669;,
    -0.105384;0.289198;0.951451;,
    -0.003543;0.981728;0.190257;,
    -0.108146;0.947752;0.300118;,
    0.067170;0.875754;0.478063;,
    -0.059322;0.844904;0.531618;,
    0.085708;0.040912;0.995480;,
    0.086541;0.047635;0.995109;,
    -0.110899;-0.000000;0.993832;,
    -0.110899;0.000000;0.993832;,
    0.080124;0.729075;0.679728;,
    -0.087827;0.610580;0.787070;,
    0.761590;0.648059;-0.000000;,
    0.761590;0.648059;-0.000000;,
    0.761590;0.648059;-0.000001;,
    0.778324;0.623062;0.077499;,
    0.186463;-0.896592;-0.401690;,
    0.216488;-0.774680;-0.594141;,
    0.264770;-0.380985;-0.885860;,
    0.278148;-0.001147;-0.960538;,
    0.266345;0.226641;-0.936853;,
    0.266345;0.226641;-0.936853;,
    0.027905;-0.999610;-0.000694;,
    0.027888;-0.999611;-0.000262;,
    -0.000202;-1.000000;0.000646;,
    0.088014;-0.541777;0.835902;,
    0.043000;-0.511885;0.857977;,
    0.088590;-0.546119;0.833010;,
    0.040694;-0.510354;0.859001;,
    -0.050982;-0.512494;0.857176;,
    -0.049745;-0.516791;0.854665;,
    -0.084082;-0.565359;0.820548;,
    -0.082208;-0.570845;0.816932;,
    -0.021843;-0.979511;-0.200201;,
    0.036542;-0.979091;-0.200115;,
    -0.023409;-0.980459;-0.195325;,
    0.035517;-0.980436;-0.193607;,
    0.010155;0.884365;0.466687;,
    -0.012163;0.884345;0.466676;,
    0.009770;0.885240;0.465032;,
    -0.013505;0.885898;0.463683;,
    0.064605;0.507463;-0.859248;,
    -0.073285;0.546562;-0.834206;,
    0.089377;0.508322;-0.856516;,
    -0.119305;0.569561;-0.813245;,
    0.851665;0.344349;-0.395082;,
    0.888280;0.239171;-0.392117;,
    -0.042404;-0.646040;0.762125;,
    0.041964;-0.676718;0.735045;,
    0.087661;-0.699906;0.708835;,
    -0.065129;-0.642624;0.763408;,
    -0.695670;0.656853;-0.290839;,
    -0.596501;0.798361;0.082506;,
    -0.053859;-0.981757;-0.182355;,
    -0.064433;-0.984034;-0.165910;,
    0.063206;-0.981852;-0.178808;,
    0.056549;-0.984039;-0.168727;,
    0.017760;0.886631;0.462136;,
    0.015557;0.888022;0.459539;,
    -0.030788;0.888439;0.457960;,
    -0.040045;0.893604;0.447066;,
    0.163039;0.502518;-0.849055;,
    0.172587;0.512914;-0.840912;,
    -0.182508;0.597033;-0.781181;,
    -0.171256;0.606069;-0.776757;,
    0.119754;-0.730386;0.672455;,
    0.117316;-0.734133;0.668795;,
    -0.115142;-0.647328;0.753465;,
    -0.117422;-0.652502;0.748635;,
    -0.587562;0.789991;-0.175172;,
    -0.670099;0.692196;-0.268014;,
    -0.664716;0.689261;-0.288223;,
    -0.818450;0.574342;-0.016435;,
    -0.748214;0.653822;-0.112666;,
    -0.649282;0.759867;0.032165;,
    -0.638046;0.767406;0.063132;,
    -0.494078;0.855643;-0.154147;,
    -0.045207;0.983871;0.173075;,
    -0.045207;0.983871;0.173075;,
    -0.062309;-0.487571;0.870857;,
    -0.062309;-0.487570;0.870858;,
    -0.117535;-0.848964;-0.515214;,
    -0.117535;-0.848964;-0.515214;,
    -0.133268;0.755177;-0.641831;,
    -0.133268;0.755177;-0.641831;,
    -0.000721;-0.998999;0.044737;,
    0.001662;-0.996340;-0.085461;,
    0.003749;-0.997489;-0.070725;,
    0.000000;-0.999008;0.044531;,
    0.001213;0.997430;-0.071640;,
    0.001980;0.996612;0.082225;,
    0.000000;0.997447;-0.071410;,
    -0.003872;0.998383;0.056722;,
    0.000000;0.841529;-0.540212;,
    0.000000;0.841529;-0.540211;,
    0.000000;0.841529;-0.540211;,
    0.000000;0.841529;-0.540212;,
    0.618443;0.766834;-0.171736;,
    0.331147;0.941371;-0.064514;,
    0.622850;0.768428;-0.146890;,
    0.319036;0.945641;-0.063087;,
    0.589164;0.784635;-0.192960;,
    0.582277;0.791776;-0.184510;,
    -0.550951;0.832242;-0.061857;,
    -0.551637;0.833278;0.036675;,
    -0.545793;0.832748;-0.092957;,
    0.007134;-0.986160;-0.165643;,
    0.003042;-0.984423;-0.175792;,
    -0.006187;0.985227;0.171144;,
    0.003945;0.981569;0.191069;,
    -0.336903;0.928152;-0.158213;,
    -0.321592;0.934022;-0.155504;,
    0.023913;-0.999700;0.005301;,
    0.021621;-0.997717;0.063975;,
    0.020827;-0.993373;0.113036;,
    0.024716;-0.999680;0.005376;,
    -0.045345;0.997709;-0.050198;,
    -0.029669;0.994076;-0.104563;,
    -0.049591;0.997436;-0.051603;,
    -0.026879;0.988109;-0.151385;,
    -0.040335;0.951474;-0.305074;,
    -0.025535;0.935341;-0.352826;,
    -0.023053;0.932391;-0.360716;,
    -0.047657;0.958522;-0.281006;,
    0.373015;0.919255;0.125815;,
    0.214525;0.966708;0.139483;,
    0.369099;0.929308;0.012320;,
    0.204751;0.969445;0.135109;,
    -0.348104;0.873534;-0.340239;,
    -0.466524;0.808751;-0.358157;,
    -0.335625;0.879435;-0.337564;,
    -0.474791;0.803180;-0.359827;,
    0.020264;-0.988028;0.152937;,
    0.020625;-0.988062;0.152668;,
    -0.025581;0.981180;-0.191395;,
    -0.025024;0.981135;-0.191696;,
    0.572229;0.818754;-0.046863;,
    0.592912;0.804046;-0.044323;,
    -0.174991;0.963569;-0.202269;,
    -0.164917;0.967248;-0.192960;,
    0.077832;-0.988584;-0.129015;,
    0.070389;-0.966870;-0.245371;,
    0.068167;-0.920735;-0.384189;,
    0.085462;-0.988073;-0.128097;,
    -0.086368;0.994599;0.057570;,
    -0.062509;0.979159;0.193239;,
    -0.092963;0.994209;0.053909;,
    -0.063994;0.937205;0.342859;,
    -0.067115;0.967614;-0.243351;,
    -0.063019;0.966033;-0.250617;,
    -0.061421;0.965398;-0.253443;,
    -0.071489;0.969226;-0.235564;,
    0.383206;0.795340;0.469667;,
    0.217871;0.907690;0.358651;,
    0.391468;0.752903;0.529047;,
    0.203419;0.913655;0.351930;,
    -0.485338;0.859148;-0.162211;,
    -0.582615;0.808580;-0.082208;,
    -0.439191;0.872945;-0.212317;,
    -0.586942;0.805057;-0.085920;,
    0.069366;-0.888187;-0.454216;,
    0.067517;-0.888977;-0.452948;,
    -0.065298;0.906336;0.417481;,
    -0.065298;0.906336;0.417481;,
    0.464336;0.660034;0.590549;,
    0.479721;0.643212;0.596780;,
    -0.230308;0.958387;-0.168681;,
    -0.214829;0.964853;-0.151353;,
    -0.161916;0.986805;-0.000000;,
    -0.317569;0.948235;-0.000000;,
    -0.161916;0.986805;-0.000000;,
    -0.317569;0.948235;0.000000;,
    -0.168340;0.614559;-0.770701;,
    0.002835;0.274232;-0.961660;,
    0.003062;0.272706;-0.962093;,
    -0.014671;0.326048;-0.945239;,
    -0.253068;0.755643;-0.604119;,
    0.747444;0.664325;0.000000;,
    -0.004835;0.274136;0.961679;,
    0.001289;0.620523;0.784188;,
    0.007851;0.699285;0.714800;,
    -0.030705;0.109267;0.993538;,
    -0.000566;0.269719;0.962939;,
    -0.844588;0.535418;0.000000;,
    -0.002099;0.999998;-0.000000;,
    -0.002099;0.999998;0.000000;,
    -0.018257;-0.999833;0.000000;,
    -0.018257;-0.999833;0.000000;,
    -0.018257;0.999833;0.000000;,
    -0.018257;0.999833;0.000000;,
    -0.020376;0.000000;-0.999792;,
    -0.020376;0.000000;-0.999792;,
    -0.020376;0.000000;0.999792;,
    -0.020376;0.000000;0.999792;,
    -0.021843;-0.979511;0.200201;,
    0.036542;-0.979091;0.200115;,
    0.035517;-0.980436;0.193607;,
    -0.023409;-0.980459;0.195325;,
    0.010155;0.884365;-0.466687;,
    -0.012163;0.884345;-0.466676;,
    -0.013505;0.885898;-0.463683;,
    0.009770;0.885240;-0.465032;,
    0.064605;0.507463;0.859248;,
    -0.073285;0.546562;0.834206;,
    -0.119305;0.569561;0.813245;,
    0.089377;0.508322;0.856516;,
    0.888280;0.239171;0.392117;,
    0.851665;0.344349;0.395082;,
    -0.042404;-0.646040;-0.762125;,
    0.041964;-0.676718;-0.735045;,
    -0.065129;-0.642624;-0.763408;,
    0.087661;-0.699906;-0.708835;,
    -0.596501;0.798361;-0.082506;,
    -0.695670;0.656853;0.290839;,
    -0.053859;-0.981757;0.182355;,
    -0.064433;-0.984034;0.165910;,
    0.063206;-0.981852;0.178808;,
    0.056549;-0.984039;0.168727;,
    0.017760;0.886631;-0.462136;,
    0.015557;0.888022;-0.459539;,
    -0.030788;0.888439;-0.457961;,
    -0.040045;0.893604;-0.447066;,
    0.163039;0.502518;0.849055;,
    0.172587;0.512914;0.840912;,
    -0.182508;0.597033;0.781181;,
    -0.171256;0.606069;0.776757;,
    0.119754;-0.730386;-0.672455;,
    0.117316;-0.734133;-0.668795;,
    -0.115142;-0.647328;-0.753465;,
    -0.117422;-0.652502;-0.748635;,
    -0.670099;0.692196;0.268014;,
    -0.587562;0.789991;0.175172;,
    -0.818450;0.574342;0.016435;,
    -0.664716;0.689261;0.288223;,
    -0.649282;0.759867;-0.032165;,
    -0.748214;0.653822;0.112666;,
    -0.494078;0.855643;0.154147;,
    -0.638046;0.767406;-0.063132;,
    -0.045207;0.983871;-0.173075;,
    -0.045207;0.983871;-0.173075;,
    -0.062309;-0.487570;-0.870858;,
    -0.062309;-0.487571;-0.870857;,
    -0.117535;-0.848964;0.515214;,
    -0.117535;-0.848964;0.515214;,
    -0.133268;0.755177;0.641831;,
    -0.133268;0.755177;0.641831;,
    -0.000721;-0.998999;-0.044737;,
    0.001662;-0.996340;0.085461;,
    0.000000;-0.999008;-0.044531;,
    0.003749;-0.997489;0.070725;,
    0.001213;0.997430;0.071640;,
    0.001980;0.996612;-0.082225;,
    -0.003872;0.998383;-0.056722;,
    0.000000;0.997447;0.071410;,
    0.000000;0.841529;0.540212;,
    0.000000;0.841529;0.540211;,
    0.000000;0.841529;0.540212;,
    0.000000;0.841529;0.540211;,
    0.618443;0.766834;0.171736;,
    0.331147;0.941371;0.064514;,
    0.319036;0.945641;0.063087;,
    0.622850;0.768428;0.146890;,
    0.589164;0.784635;0.192960;,
    0.582277;0.791776;0.184510;,
    -0.550951;0.832242;0.061857;,
    -0.551637;0.833278;-0.036675;,
    -0.545793;0.832748;0.092957;,
    0.007134;-0.986160;0.165643;,
    0.003042;-0.984423;0.175792;,
    -0.006187;0.985227;-0.171144;,
    0.003945;0.981569;-0.191069;,
    -0.336903;0.928152;0.158213;,
    -0.321592;0.934022;0.155504;,
    0.023913;-0.999700;-0.005301;,
    0.021621;-0.997717;-0.063975;,
    0.024716;-0.999680;-0.005376;,
    0.020827;-0.993373;-0.113036;,
    -0.045345;0.997709;0.050198;,
    -0.029669;0.994076;0.104563;,
    -0.026879;0.988109;0.151385;,
    -0.049591;0.997436;0.051603;,
    -0.040335;0.951474;0.305074;,
    -0.025535;0.935341;0.352826;,
    -0.047657;0.958522;0.281006;,
    -0.023053;0.932391;0.360716;,
    0.373015;0.919255;-0.125815;,
    0.214525;0.966708;-0.139483;,
    0.204751;0.969445;-0.135109;,
    0.369099;0.929308;-0.012320;,
    -0.348104;0.873534;0.340239;,
    -0.466524;0.808751;0.358157;,
    -0.474791;0.803180;0.359827;,
    -0.335625;0.879435;0.337564;,
    0.020264;-0.988028;-0.152937;,
    0.020625;-0.988062;-0.152668;,
    -0.025581;0.981180;0.191395;,
    -0.025024;0.981135;0.191696;,
    0.572229;0.818754;0.046863;,
    0.592912;0.804046;0.044323;,
    -0.174992;0.963569;0.202269;,
    -0.164917;0.967248;0.192960;,
    0.077832;-0.988584;0.129015;,
    0.070389;-0.966870;0.245371;,
    0.085462;-0.988073;0.128097;,
    0.068167;-0.920735;0.384189;,
    -0.086368;0.994599;-0.057570;,
    -0.062509;0.979159;-0.193239;,
    -0.063994;0.937205;-0.342859;,
    -0.092963;0.994209;-0.053909;,
    -0.067115;0.967614;0.243351;,
    -0.063019;0.966033;0.250617;,
    -0.071489;0.969226;0.235564;,
    -0.061421;0.965398;0.253443;,
    0.383206;0.795341;-0.469667;,
    0.217871;0.907690;-0.358651;,
    0.203419;0.913655;-0.351930;,
    0.391468;0.752903;-0.529047;,
    -0.485338;0.859148;0.162211;,
    -0.582615;0.808580;0.082208;,
    -0.586942;0.805057;0.085920;,
    -0.439191;0.872945;0.212317;,
    0.069366;-0.888187;0.454216;,
    0.067517;-0.888977;0.452948;,
    -0.065298;0.906336;-0.417481;,
    -0.065298;0.906336;-0.417481;,
    0.464336;0.660034;-0.590549;,
    0.479721;0.643212;-0.596780;,
    -0.230308;0.958387;0.168681;,
    -0.214829;0.964853;0.151353;;
    354;
    3;0,0,0;,
    3;0,0,0;,
    3;1,2,3;,
    3;2,1,4;,
    3;5,6,7;,
    3;6,5,8;,
    3;9,9,9;,
    3;10,10,10;,
    3;11,11,11;,
    3;12,12,12;,
    3;13,13,13;,
    3;14,15,16;,
    3;15,14,17;,
    3;18,4,1;,
    3;4,18,19;,
    3;20,21,22;,
    3;21,20,23;,
    3;22,21,24;,
    3;24,25,26;,
    3;25,24,21;,
    3;26,27,28;,
    3;27,26,25;,
    3;29,29,29;,
    3;29,29,29;,
    3;29,29,29;,
    3;30,30,30;,
    3;31,31,31;,
    3;32,32,32;,
    3;33,34,2;,
    3;34,33,35;,
    3;36,36,36;,
    3;37,37,37;,
    3;38,38,38;,
    3;29,29,29;,
    3;39,3,40;,
    3;3,39,1;,
    3;41,4,42;,
    3;4,41,2;,
    3;43,7,44;,
    3;7,43,5;,
    3;45,8,46;,
    3;8,45,6;,
    3;47,1,39;,
    3;1,47,18;,
    3;42,19,48;,
    3;19,42,4;,
    3;49,50,51;,
    3;50,49,52;,
    3;51,53,54;,
    3;53,51,50;,
    3;54,55,56;,
    3;55,54,53;,
    3;56,57,58;,
    3;57,56,55;,
    3;59,60,61;,
    3;60,59,62;,
    3;61,63,64;,
    3;63,61,60;,
    3;64,65,66;,
    3;65,64,63;,
    3;67,67,67;,
    3;68,68,68;,
    3;29,29,29;,
    3;29,29,29;,
    3;69,69,69;,
    3;70,70,70;,
    3;71,71,71;,
    3;72,72,72;,
    3;29,29,29;,
    3;73,73,73;,
    3;29,29,29;,
    3;29,29,29;,
    3;74,74,74;,
    3;74,74,74;,
    3;75,75,75;,
    3;75,75,75;,
    3;76,77,78;,
    3;77,76,79;,
    3;78,80,81;,
    3;80,78,77;,
    3;81,82,83;,
    3;82,81,80;,
    3;16,34,35;,
    3;34,16,15;,
    3;84,2,85;,
    3;2,84,3;,
    3;86,87,88;,
    3;87,86,89;,
    3;90,15,17;,
    3;15,90,91;,
    3;92,85,93;,
    3;85,92,84;,
    3;20,94,23;,
    3;94,95,23;,
    3;95,94,96;,
    3;96,27,95;,
    3;27,96,28;,
    3;97,97,97;,
    3;98,98,98;,
    3;99,99,99;,
    3;100,34,101;,
    3;34,100,2;,
    3;102,3,84;,
    3;3,102,40;,
    3;41,85,2;,
    3;85,41,103;,
    3;104,89,86;,
    3;89,104,105;,
    3;106,88,87;,
    3;88,106,107;,
    3;108,84,92;,
    3;84,108,102;,
    3;103,93,85;,
    3;93,103,109;,
    3;49,110,52;,
    3;110,49,111;,
    3;111,112,110;,
    3;112,111,113;,
    3;113,57,112;,
    3;57,113,58;,
    3;59,114,62;,
    3;114,59,115;,
    3;115,116,114;,
    3;116,115,117;,
    3;117,118,116;,
    3;118,117,119;,
    3;120,120,120;,
    3;121,121,121;,
    3;122,122,122;,
    3;29,29,29;,
    3;29,29,29;,
    3;29,29,29;,
    3;123,124,125;,
    3;124,123,126;,
    3;126,127,124;,
    3;127,126,128;,
    3;128,129,127;,
    3;129,128,130;,
    3;91,34,15;,
    3;34,91,101;,
    3;131,132,133;,
    3;132,131,134;,
    3;135,136,137;,
    3;136,135,138;,
    3;139,140,141;,
    3;140,139,142;,
    3;143,143,143;,
    3;144,144,144;,
    3;145,146,147;,
    3;146,145,148;,
    3;149,149,149;,
    3;150,150,150;,
    3;151,133,152;,
    3;133,151,131;,
    3;153,134,154;,
    3;134,153,132;,
    3;155,137,156;,
    3;137,155,135;,
    3;157,138,158;,
    3;138,157,136;,
    3;159,141,160;,
    3;141,159,139;,
    3;161,142,162;,
    3;142,161,140;,
    3;147,163,164;,
    3;163,147,146;,
    3;148,165,166;,
    3;165,148,145;,
    3;167,167,167;,
    3;168,168,168;,
    3;169,169,169;,
    3;170,170,170;,
    3;171,171,171;,
    3;172,172,172;,
    3;173,173,173;,
    3;174,174,174;,
    3;175,175,175;,
    3;176,176,176;,
    3;177,177,177;,
    3;178,178,178;,
    3;179,179,179;,
    3;180,180,180;,
    3;181,181,181;,
    3;182,182,182;,
    3;183,184,185;,
    3;184,183,186;,
    3;187,188,189;,
    3;188,187,190;,
    3;191,192,193;,
    3;192,191,194;,
    3;195,196,197;,
    3;196,195,198;,
    3;199,197,200;,
    3;197,199,195;,
    3;201,202,203;,
    3;202,201,202;,
    3;204,184,205;,
    3;184,204,185;,
    3;188,206,207;,
    3;206,188,190;,
    3;208,203,209;,
    3;203,208,201;,
    3;210,211,212;,
    3;211,210,213;,
    3;214,215,216;,
    3;215,214,217;,
    3;218,219,220;,
    3;219,218,221;,
    3;222,223,224;,
    3;223,222,225;,
    3;226,227,228;,
    3;227,226,229;,
    3;212,230,231;,
    3;230,212,211;,
    3;232,217,233;,
    3;217,232,215;,
    3;234,224,235;,
    3;224,234,222;,
    3;236,228,237;,
    3;228,236,226;,
    3;238,239,240;,
    3;239,238,241;,
    3;242,243,244;,
    3;243,242,245;,
    3;246,247,248;,
    3;247,246,249;,
    3;250,251,252;,
    3;251,250,253;,
    3;254,255,256;,
    3;255,254,257;,
    3;240,258,259;,
    3;258,240,239;,
    3;260,245,261;,
    3;245,260,243;,
    3;250,262,263;,
    3;262,250,252;,
    3;264,256,265;,
    3;256,264,254;,
    3;266,267,268;,
    3;267,266,269;,
    3;270,271,272;,
    3;270,273,271;,
    3;270,274,273;,
    3;275,275,275;,
    3;275,275,275;,
    3;276,277,278;,
    3;276,279,277;,
    3;276,280,279;,
    3;281,281,281;,
    3;281,281,281;,
    3;282,268,283;,
    3;268,282,266;,
    3;284,285,285;,
    3;286,287,286;,
    3;288,289,288;,
    3;290,290,291;,
    3;292,293,294;,
    3;293,292,295;,
    3;296,297,298;,
    3;297,296,299;,
    3;300,301,302;,
    3;301,300,303;,
    3;304,304,304;,
    3;305,305,305;,
    3;306,307,308;,
    3;307,306,309;,
    3;310,310,310;,
    3;311,311,311;,
    3;312,295,292;,
    3;295,312,313;,
    3;314,294,293;,
    3;294,314,315;,
    3;316,299,296;,
    3;299,316,317;,
    3;318,298,297;,
    3;298,318,319;,
    3;320,303,300;,
    3;303,320,321;,
    3;322,302,301;,
    3;302,322,323;,
    3;309,324,307;,
    3;324,309,325;,
    3;308,326,306;,
    3;326,308,327;,
    3;328,328,328;,
    3;329,329,329;,
    3;330,330,330;,
    3;331,331,331;,
    3;332,332,332;,
    3;333,333,333;,
    3;334,334,334;,
    3;335,335,335;,
    3;336,336,336;,
    3;337,337,337;,
    3;338,338,338;,
    3;339,339,339;,
    3;340,340,340;,
    3;341,341,341;,
    3;342,342,342;,
    3;343,343,343;,
    3;344,345,346;,
    3;345,344,347;,
    3;348,349,350;,
    3;349,348,351;,
    3;352,353,354;,
    3;353,352,355;,
    3;356,357,358;,
    3;357,356,359;,
    3;360,359,356;,
    3;359,360,361;,
    3;362,363,363;,
    3;363,362,364;,
    3;365,345,347;,
    3;345,365,366;,
    3;349,367,350;,
    3;367,349,368;,
    3;369,364,362;,
    3;364,369,370;,
    3;371,372,373;,
    3;372,371,374;,
    3;375,376,377;,
    3;376,375,378;,
    3;379,380,381;,
    3;380,379,382;,
    3;383,384,385;,
    3;384,383,386;,
    3;387,388,389;,
    3;388,387,390;,
    3;374,391,372;,
    3;391,374,392;,
    3;393,377,376;,
    3;377,393,394;,
    3;395,386,383;,
    3;386,395,396;,
    3;397,390,387;,
    3;390,397,398;,
    3;399,400,401;,
    3;400,399,402;,
    3;403,404,405;,
    3;404,403,406;,
    3;407,408,409;,
    3;408,407,410;,
    3;411,412,413;,
    3;412,411,414;,
    3;415,416,417;,
    3;416,415,418;,
    3;402,419,400;,
    3;419,402,420;,
    3;421,405,404;,
    3;405,421,422;,
    3;411,423,414;,
    3;423,411,424;,
    3;425,418,415;,
    3;418,425,426;;
   }

   MeshMaterialList  {
    1;
    354;
    0,
    0,
    0,
    0,
    0,
    0,
    0,
    0,
    0,
    0,
    0,
    0,
    0,
    0,
    0,
    0,
    0,
    0,
    0,
    0,
    0,
    0,
    0,
    0,
    0,
    0,
    0,
    0,
    0,
    0,
    0,
    0,
    0,
    0,
    0,
    0,
    0,
    0,
    0,
    0,
    0,
    0,
    0,
    0,
    0,
    0,
    0,
    0,
    0,
    0,
    0,
    0,
    0,
    0,
    0,
    0,
    0,
    0,
    0,
    0,
    0,
    0,
    0,
    0,
    0,
    0,
    0,
    0,
    0,
    0,
    0,
    0,
    0,
    0,
    0,
    0,
    0,
    0,
    0,
    0,
    0,
    0,
    0,
    0,
    0,
    0,
    0,
    0,
    0,
    0,
    0,
    0,
    0,
    0,
    0,
    0,
    0,
    0,
    0,
    0,
    0,
    0,
    0,
    0,
    0,
    0,
    0,
    0,
    0,
    0,
    0,
    0,
    0,
    0,
    0,
    0,
    0,
    0,
    0,
    0,
    0,
    0,
    0,
    0,
    0,
    0,
    0,
    0,
    0,
    0,
    0,
    0,
    0,
    0,
    0,
    0,
    0,
    0,
    0,
    0,
    0,
    0,
    0,
    0,
    0,
    0,
    0,
    0,
    0,
    0,
    0,
    0,
    0,
    0,
    0,
    0,
    0,
    0,
    0,
    0,
    0,
    0,
    0,
    0,
    0,
    0,
    0,
    0,
    0,
    0,
    0,
    0,
    0,
    0,
    0,
    0,
    0,
    0,
    0,
    0,
    0,
    0,
    0,
    0,
    0,
    0,
    0,
    0,
    0,
    0,
    0,
    0,
    0,
    0,
    0,
    0,
    0,
    0,
    0,
    0,
    0,
    0,
    0,
    0,
    0,
    0,
    0,
    0,
    0,
    0,
    0,
    0,
    0,
    0,
    0,
    0,
    0,
    0,
    0,
    0,
    0,
    0,
    0,
    0,
    0,
    0,
    0,
    0,
    0,
    0,
    0,
    0,
    0,
    0,
    0,
    0,
    0,
    0,
    0,
    0,
    0,
    0,
    0,
    0,
    0,
    0,
    0,
    0,
    0,
    0,
    0,
    0,
    0,
    0,
    0,
    0,
    0,
    0,
    0,
    0,
    0,
    0,
    0,
    0,
    0,
    0,
    0,
    0,
    0,
    0,
    0,
    0,
    0,
    0,
    0,
    0,
    0,
    0,
    0,
    0,
    0,
    0,
    0,
    0,
    0,
    0,
    0,
    0,
    0,
    0,
    0,
    0,
    0,
    0,
    0,
    0,
    0,
    0,
    0,
    0,
    0,
    0,
    0,
    0,
    0,
    0,
    0,
    0,
    0,
    0,
    0,
    0,
    0,
    0,
    0,
    0,
    0,
    0,
    0,
    0,
    0,
    0,
    0,
    0,
    0,
    0,
    0,
    0,
    0,
    0,
    0,
    0,
    0,
    0,
    0,
    0,
    0,
    0,
    0,
    0,
    0,
    0,
    0,
    0,
    0,
    0,
    0,
    0,
    0,
    0,
    0,
    0,
    0,
    0;
    { small_fighter_1 }
   }

   MeshTextureCoords  {
    369;
    0.159282;0.183767;,
    0.841313;0.713751;,
    0.159282;0.155407;,
    0.825880;0.691697;,
    0.109519;0.127770;,
    0.144884;0.136846;,
    0.812955;0.672178;,
    0.147588;0.177113;,
    0.137313;0.143306;,
    0.109519;0.138213;,
    0.603646;0.262615;,
    0.630149;0.283489;,
    0.651237;0.086043;,
    0.636259;0.262615;,
    0.658297;0.738630;,
    0.583472;0.738727;,
    0.585415;0.686964;,
    0.656088;0.686925;,
    0.584972;0.710447;,
    0.656755;0.710357;,
    0.890529;0.144226;,
    0.877658;0.159104;,
    0.877490;0.171462;,
    0.925519;0.037628;,
    0.901939;0.042611;,
    0.893122;0.053977;,
    0.893122;0.063152;,
    0.957915;0.063152;,
    0.626013;0.395697;,
    0.977073;0.394246;,
    0.812100;0.407580;,
    0.744101;0.407580;,
    0.645106;0.384581;,
    0.966581;0.383130;,
    0.812756;0.396464;,
    0.744758;0.396464;,
    0.652388;0.282830;,
    0.677593;0.262615;,
    0.970260;0.189210;,
    0.059755;0.155407;,
    0.825888;0.580688;,
    0.059755;0.183767;,
    0.806798;0.636191;,
    0.074154;0.136846;,
    0.812960;0.600205;,
    0.071450;0.177113;,
    0.081726;0.143306;,
    0.592689;0.170498;,
    0.651237;0.213201;,
    0.658305;0.533516;,
    0.583187;0.533528;,
    0.585273;0.585280;,
    0.656091;0.585221;,
    0.655900;0.636073;,
    0.585335;0.636122;,
    0.584763;0.561801;,
    0.656760;0.561789;,
    0.922978;0.139135;,
    0.954698;0.147657;,
    0.965910;0.163822;,
    0.964540;0.176190;,
    0.949098;0.042611;,
    0.957915;0.053977;,
    0.626013;0.333654;,
    0.977073;0.335104;,
    0.812100;0.321771;,
    0.744101;0.321771;,
    0.645106;0.344771;,
    0.744758;0.332888;,
    0.966581;0.346221;,
    0.812756;0.332888;,
    0.652388;0.242400;,
    0.434889;0.913642;,
    0.186403;0.118748;,
    0.409013;0.978153;,
    0.253776;0.131850;,
    0.467712;0.863048;,
    0.210265;0.074564;,
    0.421001;0.809061;,
    0.274210;0.104602;,
    0.519274;0.971392;,
    0.636009;0.971431;,
    0.627975;0.911433;,
    0.511465;0.911756;,
    0.533413;0.861752;,
    0.638564;0.861215;,
    0.624922;0.799984;,
    0.519858;0.800436;,
    0.900380;0.565584;,
    0.956870;0.565021;,
    0.957735;0.523177;,
    0.902734;0.530969;,
    0.886950;0.470022;,
    0.929422;0.464043;,
    0.925817;0.432586;,
    0.885336;0.444341;,
    0.057822;0.442986;,
    0.030806;0.352788;,
    0.477162;0.455647;,
    0.318180;0.963936;,
    0.368767;0.963936;,
    0.189725;0.450207;,
    0.453214;0.455647;,
    0.160175;0.450207;,
    0.431294;0.203653;,
    0.487873;0.436770;,
    0.396847;0.552039;,
    0.210796;0.564738;,
    0.922680;0.606664;,
    0.999227;0.583562;,
    0.967817;0.915809;,
    0.222665;0.955691;,
    0.262190;0.959899;,
    0.024248;0.643128;,
    0.000997;0.640653;,
    0.178455;0.655532;,
    0.808119;0.799581;,
    0.189553;0.804440;,
    0.953390;0.757820;,
    0.080012;0.794784;,
    0.967612;0.253246;,
    0.990299;0.302893;,
    0.005227;0.464606;,
    0.807459;0.285364;,
    0.154259;0.624898;,
    0.174675;0.627468;,
    0.026014;0.462808;,
    0.109180;0.475535;,
    0.850565;0.194118;,
    0.892156;0.282192;,
    0.128484;0.544564;,
    0.069915;0.535602;,
    0.495957;0.523166;,
    0.815453;0.526429;,
    0.495957;0.523166;,
    0.823681;0.450761;,
    0.503413;0.482900;,
    0.777885;0.482883;,
    0.503413;0.462576;,
    0.777911;0.462576;,
    0.581380;0.482900;,
    0.581380;0.462576;,
    0.044166;0.302512;,
    0.036017;0.284588;,
    0.022601;0.249758;,
    0.479911;0.093597;,
    0.029342;0.268258;,
    0.519274;0.971392;,
    0.636009;0.971431;,
    0.627975;0.911433;,
    0.511465;0.911756;,
    0.533413;0.861752;,
    0.638564;0.861215;,
    0.624922;0.799984;,
    0.519858;0.800436;,
    0.186403;0.118748;,
    0.253776;0.131850;,
    0.274210;0.104602;,
    0.210265;0.074564;,
    0.886950;0.470022;,
    0.929422;0.464043;,
    0.925817;0.432586;,
    0.885336;0.444341;,
    0.434889;0.913642;,
    0.409013;0.978153;,
    0.421001;0.809061;,
    0.467712;0.863048;,
    0.956870;0.565021;,
    0.900380;0.565584;,
    0.957735;0.523177;,
    0.902734;0.530969;,
    0.057822;0.442986;,
    0.487873;0.436770;,
    0.431294;0.203653;,
    0.030806;0.352788;,
    0.318180;0.963936;,
    0.368767;0.963936;,
    0.396847;0.552039;,
    0.210796;0.564738;,
    0.477162;0.455647;,
    0.453214;0.455647;,
    0.160175;0.450207;,
    0.189725;0.450207;,
    0.922680;0.606664;,
    0.808119;0.799581;,
    0.953390;0.757820;,
    0.999227;0.583562;,
    0.222665;0.955691;,
    0.262190;0.959899;,
    0.189553;0.804440;,
    0.080012;0.794784;,
    0.000997;0.640653;,
    0.024248;0.643128;,
    0.967817;0.915809;,
    0.178455;0.655532;,
    0.967612;0.253246;,
    0.850565;0.194118;,
    0.892156;0.282192;,
    0.990299;0.302893;,
    0.154259;0.624898;,
    0.174675;0.627468;,
    0.128484;0.544564;,
    0.069915;0.535602;,
    0.005227;0.464606;,
    0.026014;0.462808;,
    0.807459;0.285364;,
    0.109180;0.475535;,
    0.721427;0.187692;,
    0.592689;0.128746;,
    0.721427;0.111553;,
    0.566178;0.149623;,
    0.715449;0.076795;,
    0.611764;0.105798;,
    0.758895;0.290408;,
    0.758895;0.262615;,
    0.694249;0.284700;,
    0.453901;0.636639;,
    0.453983;0.673118;,
    0.453093;0.696592;,
    0.450094;0.724794;,
    0.923361;0.131960;,
    0.887562;0.139135;,
    0.872193;0.156901;,
    0.870461;0.183717;,
    0.877446;0.159019;,
    0.870739;0.190317;,
    0.876167;0.177174;,
    0.841223;0.069927;,
    0.881232;0.056886;,
    0.865028;0.092557;,
    0.863759;0.040287;,
    0.888629;0.069222;,
    0.875145;0.109430;,
    0.893777;0.076818;,
    0.882185;0.119818;,
    0.958569;0.076516;,
    0.970562;0.119405;,
    0.610843;0.414439;,
    0.610843;0.314912;,
    0.994321;0.314912;,
    0.994321;0.414439;,
    0.812795;0.429111;,
    0.742324;0.429111;,
    0.630149;0.241741;,
    0.611764;0.193447;,
    0.715449;0.222450;,
    0.758895;0.234821;,
    0.694249;0.240531;,
    0.453779;0.600161;,
    0.841324;0.558636;,
    0.452755;0.576692;,
    0.449601;0.548508;,
    0.958191;0.142911;,
    0.971579;0.162214;,
    0.971359;0.162276;,
    0.970222;0.189125;,
    0.843092;0.027888;,
    0.813052;0.053040;,
    0.829226;0.024059;,
    0.794088;0.047803;,
    0.820531;0.021130;,
    0.782196;0.043798;,
    0.812795;0.300240;,
    0.742324;0.300240;,
    0.534061;0.784416;,
    0.628259;0.750320;,
    0.650346;0.784416;,
    0.523017;0.750320;,
    0.748029;0.967629;,
    0.707935;0.911897;,
    0.707918;0.861648;,
    0.726150;0.793321;,
    0.727509;0.749041;,
    0.760555;0.783218;,
    0.421883;0.783336;,
    0.421816;0.749243;,
    0.893503;0.573289;,
    0.962905;0.573913;,
    0.965645;0.513800;,
    0.956891;0.565052;,
    0.895146;0.525083;,
    0.899885;0.565069;,
    0.892820;0.572560;,
    0.980818;0.504789;,
    0.934059;0.429037;,
    0.978227;0.448352;,
    0.936037;0.472132;,
    0.869537;0.554999;,
    0.868458;0.483613;,
    0.892316;0.519824;,
    0.851063;0.510472;,
    0.910187;0.476050;,
    0.946964;0.509920;,
    0.298684;0.978055;,
    0.392840;0.978055;,
    0.420795;0.552039;,
    0.181246;0.564738;,
    0.605139;0.423725;,
    0.508950;0.121630;,
    0.210941;0.967886;,
    0.290425;0.976348;,
    0.212991;0.813657;,
    0.062524;0.799644;,
    0.778212;0.968827;,
    0.197094;0.657517;,
    0.144147;0.636517;,
    0.198085;0.643749;,
    0.150630;0.556725;,
    0.054466;0.542310;,
    0.753397;0.171042;,
    0.130062;0.483575;,
    0.581370;0.482943;,
    0.503410;0.508071;,
    0.823681;0.494715;,
    0.777911;0.482900;,
    0.815453;0.526429;,
    0.503410;0.508071;,
    0.581370;0.482943;,
    0.777885;0.482883;,
    0.490752;0.450761;,
    0.490752;0.494715;,
    0.052082;0.318278;,
    0.534061;0.784416;,
    0.628259;0.750320;,
    0.523017;0.750320;,
    0.650346;0.784416;,
    0.748029;0.967629;,
    0.707935;0.911897;,
    0.707918;0.861648;,
    0.726150;0.793321;,
    0.727509;0.749041;,
    0.760555;0.783218;,
    0.421883;0.783336;,
    0.421816;0.749243;,
    0.893503;0.573289;,
    0.962905;0.573913;,
    0.956891;0.565052;,
    0.965645;0.513800;,
    0.895146;0.525083;,
    0.899885;0.565069;,
    0.892820;0.572560;,
    0.980818;0.504789;,
    0.934059;0.429037;,
    0.936037;0.472132;,
    0.978227;0.448352;,
    0.869537;0.554999;,
    0.868458;0.483613;,
    0.851063;0.510472;,
    0.892316;0.519824;,
    0.910187;0.476050;,
    0.946964;0.509920;,
    0.298684;0.978055;,
    0.392840;0.978055;,
    0.420795;0.552039;,
    0.181246;0.564738;,
    0.605139;0.423725;,
    0.508950;0.121630;,
    0.210941;0.967886;,
    0.290425;0.976348;,
    0.212991;0.813657;,
    0.062524;0.799644;,
    0.778212;0.968827;,
    0.197094;0.657517;,
    0.144147;0.636517;,
    0.198085;0.643749;,
    0.150630;0.556725;,
    0.054466;0.542310;,
    0.753397;0.171042;,
    0.130062;0.483575;;
   }
  }
 }
}

AnimationSet Anim-1 {
 

 Animation Anim-small_fighter_1 {
  
  { small_fighter_1 }

  AnimationKey {
   4;
   101;
   0;16;1.000000,0.000000,0.000000,0.000000,0.000000,1.000000,0.000000,0.000000,0.000000,0.000000,1.000000,0.000000,0.000000,0.000000,0.000000,1.000000;;,
   160;16;1.000000,0.000000,0.000000,0.000000,0.000000,1.000000,0.000000,0.000000,0.000000,0.000000,1.000000,0.000000,0.000000,0.000000,0.000000,1.000000;;,
   320;16;1.000000,0.000000,0.000000,0.000000,0.000000,1.000000,0.000000,0.000000,0.000000,0.000000,1.000000,0.000000,0.000000,0.000000,0.000000,1.000000;;,
   480;16;1.000000,0.000000,0.000000,0.000000,0.000000,1.000000,0.000000,0.000000,0.000000,0.000000,1.000000,0.000000,0.000000,0.000000,0.000000,1.000000;;,
   640;16;1.000000,0.000000,0.000000,0.000000,0.000000,1.000000,0.000000,0.000000,0.000000,0.000000,1.000000,0.000000,0.000000,0.000000,0.000000,1.000000;;,
   800;16;1.000000,0.000000,0.000000,0.000000,0.000000,1.000000,0.000000,0.000000,0.000000,0.000000,1.000000,0.000000,0.000000,0.000000,0.000000,1.000000;;,
   960;16;1.000000,0.000000,0.000000,0.000000,0.000000,1.000000,0.000000,0.000000,0.000000,0.000000,1.000000,0.000000,0.000000,0.000000,0.000000,1.000000;;,
   1120;16;1.000000,0.000000,0.000000,0.000000,0.000000,1.000000,0.000000,0.000000,0.000000,0.000000,1.000000,0.000000,0.000000,0.000000,0.000000,1.000000;;,
   1280;16;1.000000,0.000000,0.000000,0.000000,0.000000,1.000000,0.000000,0.000000,0.000000,0.000000,1.000000,0.000000,0.000000,0.000000,0.000000,1.000000;;,
   1440;16;1.000000,0.000000,0.000000,0.000000,0.000000,1.000000,0.000000,0.000000,0.000000,0.000000,1.000000,0.000000,0.000000,0.000000,0.000000,1.000000;;,
   1600;16;1.000000,0.000000,0.000000,0.000000,0.000000,1.000000,0.000000,0.000000,0.000000,0.000000,1.000000,0.000000,0.000000,0.000000,0.000000,1.000000;;,
   1760;16;1.000000,0.000000,0.000000,0.000000,0.000000,1.000000,0.000000,0.000000,0.000000,0.000000,1.000000,0.000000,0.000000,0.000000,0.000000,1.000000;;,
   1920;16;1.000000,0.000000,0.000000,0.000000,0.000000,1.000000,0.000000,0.000000,0.000000,0.000000,1.000000,0.000000,0.000000,0.000000,0.000000,1.000000;;,
   2080;16;1.000000,0.000000,0.000000,0.000000,0.000000,1.000000,0.000000,0.000000,0.000000,0.000000,1.000000,0.000000,0.000000,0.000000,0.000000,1.000000;;,
   2240;16;1.000000,0.000000,0.000000,0.000000,0.000000,1.000000,0.000000,0.000000,0.000000,0.000000,1.000000,0.000000,0.000000,0.000000,0.000000,1.000000;;,
   2400;16;1.000000,0.000000,0.000000,0.000000,0.000000,1.000000,0.000000,0.000000,0.000000,0.000000,1.000000,0.000000,0.000000,0.000000,0.000000,1.000000;;,
   2560;16;1.000000,0.000000,0.000000,0.000000,0.000000,1.000000,0.000000,0.000000,0.000000,0.000000,1.000000,0.000000,0.000000,0.000000,0.000000,1.000000;;,
   2720;16;1.000000,0.000000,0.000000,0.000000,0.000000,1.000000,0.000000,0.000000,0.000000,0.000000,1.000000,0.000000,0.000000,0.000000,0.000000,1.000000;;,
   2880;16;1.000000,0.000000,0.000000,0.000000,0.000000,1.000000,0.000000,0.000000,0.000000,0.000000,1.000000,0.000000,0.000000,0.000000,0.000000,1.000000;;,
   3040;16;1.000000,0.000000,0.000000,0.000000,0.000000,1.000000,0.000000,0.000000,0.000000,0.000000,1.000000,0.000000,0.000000,0.000000,0.000000,1.000000;;,
   3200;16;1.000000,0.000000,0.000000,0.000000,0.000000,1.000000,0.000000,0.000000,0.000000,0.000000,1.000000,0.000000,0.000000,0.000000,0.000000,1.000000;;,
   3360;16;1.000000,0.000000,0.000000,0.000000,0.000000,1.000000,0.000000,0.000000,0.000000,0.000000,1.000000,0.000000,0.000000,0.000000,0.000000,1.000000;;,
   3520;16;1.000000,0.000000,0.000000,0.000000,0.000000,1.000000,0.000000,0.000000,0.000000,0.000000,1.000000,0.000000,0.000000,0.000000,0.000000,1.000000;;,
   3680;16;1.000000,0.000000,0.000000,0.000000,0.000000,1.000000,0.000000,0.000000,0.000000,0.000000,1.000000,0.000000,0.000000,0.000000,0.000000,1.000000;;,
   3840;16;1.000000,0.000000,0.000000,0.000000,0.000000,1.000000,0.000000,0.000000,0.000000,0.000000,1.000000,0.000000,0.000000,0.000000,0.000000,1.000000;;,
   4000;16;1.000000,0.000000,0.000000,0.000000,0.000000,1.000000,0.000000,0.000000,0.000000,0.000000,1.000000,0.000000,0.000000,0.000000,0.000000,1.000000;;,
   4160;16;1.000000,0.000000,0.000000,0.000000,0.000000,1.000000,0.000000,0.000000,0.000000,0.000000,1.000000,0.000000,0.000000,0.000000,0.000000,1.000000;;,
   4320;16;1.000000,0.000000,0.000000,0.000000,0.000000,1.000000,0.000000,0.000000,0.000000,0.000000,1.000000,0.000000,0.000000,0.000000,0.000000,1.000000;;,
   4480;16;1.000000,0.000000,0.000000,0.000000,0.000000,1.000000,0.000000,0.000000,0.000000,0.000000,1.000000,0.000000,0.000000,0.000000,0.000000,1.000000;;,
   4640;16;1.000000,0.000000,0.000000,0.000000,0.000000,1.000000,0.000000,0.000000,0.000000,0.000000,1.000000,0.000000,0.000000,0.000000,0.000000,1.000000;;,
   4800;16;1.000000,0.000000,0.000000,0.000000,0.000000,1.000000,0.000000,0.000000,0.000000,0.000000,1.000000,0.000000,0.000000,0.000000,0.000000,1.000000;;,
   4960;16;1.000000,0.000000,0.000000,0.000000,0.000000,1.000000,0.000000,0.000000,0.000000,0.000000,1.000000,0.000000,0.000000,0.000000,0.000000,1.000000;;,
   5120;16;1.000000,0.000000,0.000000,0.000000,0.000000,1.000000,0.000000,0.000000,0.000000,0.000000,1.000000,0.000000,0.000000,0.000000,0.000000,1.000000;;,
   5280;16;1.000000,0.000000,0.000000,0.000000,0.000000,1.000000,0.000000,0.000000,0.000000,0.000000,1.000000,0.000000,0.000000,0.000000,0.000000,1.000000;;,
   5440;16;1.000000,0.000000,0.000000,0.000000,0.000000,1.000000,0.000000,0.000000,0.000000,0.000000,1.000000,0.000000,0.000000,0.000000,0.000000,1.000000;;,
   5600;16;1.000000,0.000000,0.000000,0.000000,0.000000,1.000000,0.000000,0.000000,0.000000,0.000000,1.000000,0.000000,0.000000,0.000000,0.000000,1.000000;;,
   5760;16;1.000000,0.000000,0.000000,0.000000,0.000000,1.000000,0.000000,0.000000,0.000000,0.000000,1.000000,0.000000,0.000000,0.000000,0.000000,1.000000;;,
   5920;16;1.000000,0.000000,0.000000,0.000000,0.000000,1.000000,0.000000,0.000000,0.000000,0.000000,1.000000,0.000000,0.000000,0.000000,0.000000,1.000000;;,
   6080;16;1.000000,0.000000,0.000000,0.000000,0.000000,1.000000,0.000000,0.000000,0.000000,0.000000,1.000000,0.000000,0.000000,0.000000,0.000000,1.000000;;,
   6240;16;1.000000,0.000000,0.000000,0.000000,0.000000,1.000000,0.000000,0.000000,0.000000,0.000000,1.000000,0.000000,0.000000,0.000000,0.000000,1.000000;;,
   6400;16;1.000000,0.000000,0.000000,0.000000,0.000000,1.000000,0.000000,0.000000,0.000000,0.000000,1.000000,0.000000,0.000000,0.000000,0.000000,1.000000;;,
   6560;16;1.000000,0.000000,0.000000,0.000000,0.000000,1.000000,0.000000,0.000000,0.000000,0.000000,1.000000,0.000000,0.000000,0.000000,0.000000,1.000000;;,
   6720;16;1.000000,0.000000,0.000000,0.000000,0.000000,1.000000,0.000000,0.000000,0.000000,0.000000,1.000000,0.000000,0.000000,0.000000,0.000000,1.000000;;,
   6880;16;1.000000,0.000000,0.000000,0.000000,0.000000,1.000000,0.000000,0.000000,0.000000,0.000000,1.000000,0.000000,0.000000,0.000000,0.000000,1.000000;;,
   7040;16;1.000000,0.000000,0.000000,0.000000,0.000000,1.000000,0.000000,0.000000,0.000000,0.000000,1.000000,0.000000,0.000000,0.000000,0.000000,1.000000;;,
   7200;16;1.000000,0.000000,0.000000,0.000000,0.000000,1.000000,0.000000,0.000000,0.000000,0.000000,1.000000,0.000000,0.000000,0.000000,0.000000,1.000000;;,
   7360;16;1.000000,0.000000,0.000000,0.000000,0.000000,1.000000,0.000000,0.000000,0.000000,0.000000,1.000000,0.000000,0.000000,0.000000,0.000000,1.000000;;,
   7520;16;1.000000,0.000000,0.000000,0.000000,0.000000,1.000000,0.000000,0.000000,0.000000,0.000000,1.000000,0.000000,0.000000,0.000000,0.000000,1.000000;;,
   7680;16;1.000000,0.000000,0.000000,0.000000,0.000000,1.000000,0.000000,0.000000,0.000000,0.000000,1.000000,0.000000,0.000000,0.000000,0.000000,1.000000;;,
   7840;16;1.000000,0.000000,0.000000,0.000000,0.000000,1.000000,0.000000,0.000000,0.000000,0.000000,1.000000,0.000000,0.000000,0.000000,0.000000,1.000000;;,
   8000;16;1.000000,0.000000,0.000000,0.000000,0.000000,1.000000,0.000000,0.000000,0.000000,0.000000,1.000000,0.000000,0.000000,0.000000,0.000000,1.000000;;,
   8160;16;1.000000,0.000000,0.000000,0.000000,0.000000,1.000000,0.000000,0.000000,0.000000,0.000000,1.000000,0.000000,0.000000,0.000000,0.000000,1.000000;;,
   8320;16;1.000000,0.000000,0.000000,0.000000,0.000000,1.000000,0.000000,0.000000,0.000000,0.000000,1.000000,0.000000,0.000000,0.000000,0.000000,1.000000;;,
   8480;16;1.000000,0.000000,0.000000,0.000000,0.000000,1.000000,0.000000,0.000000,0.000000,0.000000,1.000000,0.000000,0.000000,0.000000,0.000000,1.000000;;,
   8640;16;1.000000,0.000000,0.000000,0.000000,0.000000,1.000000,0.000000,0.000000,0.000000,0.000000,1.000000,0.000000,0.000000,0.000000,0.000000,1.000000;;,
   8800;16;1.000000,0.000000,0.000000,0.000000,0.000000,1.000000,0.000000,0.000000,0.000000,0.000000,1.000000,0.000000,0.000000,0.000000,0.000000,1.000000;;,
   8960;16;1.000000,0.000000,0.000000,0.000000,0.000000,1.000000,0.000000,0.000000,0.000000,0.000000,1.000000,0.000000,0.000000,0.000000,0.000000,1.000000;;,
   9120;16;1.000000,0.000000,0.000000,0.000000,0.000000,1.000000,0.000000,0.000000,0.000000,0.000000,1.000000,0.000000,0.000000,0.000000,0.000000,1.000000;;,
   9280;16;1.000000,0.000000,0.000000,0.000000,0.000000,1.000000,0.000000,0.000000,0.000000,0.000000,1.000000,0.000000,0.000000,0.000000,0.000000,1.000000;;,
   9440;16;1.000000,0.000000,0.000000,0.000000,0.000000,1.000000,0.000000,0.000000,0.000000,0.000000,1.000000,0.000000,0.000000,0.000000,0.000000,1.000000;;,
   9600;16;1.000000,0.000000,0.000000,0.000000,0.000000,1.000000,0.000000,0.000000,0.000000,0.000000,1.000000,0.000000,0.000000,0.000000,0.000000,1.000000;;,
   9760;16;1.000000,0.000000,0.000000,0.000000,0.000000,1.000000,0.000000,0.000000,0.000000,0.000000,1.000000,0.000000,0.000000,0.000000,0.000000,1.000000;;,
   9920;16;1.000000,0.000000,0.000000,0.000000,0.000000,1.000000,0.000000,0.000000,0.000000,0.000000,1.000000,0.000000,0.000000,0.000000,0.000000,1.000000;;,
   10080;16;1.000000,0.000000,0.000000,0.000000,0.000000,1.000000,0.000000,0.000000,0.000000,0.000000,1.000000,0.000000,0.000000,0.000000,0.000000,1.000000;;,
   10240;16;1.000000,0.000000,0.000000,0.000000,0.000000,1.000000,0.000000,0.000000,0.000000,0.000000,1.000000,0.000000,0.000000,0.000000,0.000000,1.000000;;,
   10400;16;1.000000,0.000000,0.000000,0.000000,0.000000,1.000000,0.000000,0.000000,0.000000,0.000000,1.000000,0.000000,0.000000,0.000000,0.000000,1.000000;;,
   10560;16;1.000000,0.000000,0.000000,0.000000,0.000000,1.000000,0.000000,0.000000,0.000000,0.000000,1.000000,0.000000,0.000000,0.000000,0.000000,1.000000;;,
   10720;16;1.000000,0.000000,0.000000,0.000000,0.000000,1.000000,0.000000,0.000000,0.000000,0.000000,1.000000,0.000000,0.000000,0.000000,0.000000,1.000000;;,
   10880;16;1.000000,0.000000,0.000000,0.000000,0.000000,1.000000,0.000000,0.000000,0.000000,0.000000,1.000000,0.000000,0.000000,0.000000,0.000000,1.000000;;,
   11040;16;1.000000,0.000000,0.000000,0.000000,0.000000,1.000000,0.000000,0.000000,0.000000,0.000000,1.000000,0.000000,0.000000,0.000000,0.000000,1.000000;;,
   11200;16;1.000000,0.000000,0.000000,0.000000,0.000000,1.000000,0.000000,0.000000,0.000000,0.000000,1.000000,0.000000,0.000000,0.000000,0.000000,1.000000;;,
   11360;16;1.000000,0.000000,0.000000,0.000000,0.000000,1.000000,0.000000,0.000000,0.000000,0.000000,1.000000,0.000000,0.000000,0.000000,0.000000,1.000000;;,
   11520;16;1.000000,0.000000,0.000000,0.000000,0.000000,1.000000,0.000000,0.000000,0.000000,0.000000,1.000000,0.000000,0.000000,0.000000,0.000000,1.000000;;,
   11680;16;1.000000,0.000000,0.000000,0.000000,0.000000,1.000000,0.000000,0.000000,0.000000,0.000000,1.000000,0.000000,0.000000,0.000000,0.000000,1.000000;;,
   11840;16;1.000000,0.000000,0.000000,0.000000,0.000000,1.000000,0.000000,0.000000,0.000000,0.000000,1.000000,0.000000,0.000000,0.000000,0.000000,1.000000;;,
   12000;16;1.000000,0.000000,0.000000,0.000000,0.000000,1.000000,0.000000,0.000000,0.000000,0.000000,1.000000,0.000000,0.000000,0.000000,0.000000,1.000000;;,
   12160;16;1.000000,0.000000,0.000000,0.000000,0.000000,1.000000,0.000000,0.000000,0.000000,0.000000,1.000000,0.000000,0.000000,0.000000,0.000000,1.000000;;,
   12320;16;1.000000,0.000000,0.000000,0.000000,0.000000,1.000000,0.000000,0.000000,0.000000,0.000000,1.000000,0.000000,0.000000,0.000000,0.000000,1.000000;;,
   12480;16;1.000000,0.000000,0.000000,0.000000,0.000000,1.000000,0.000000,0.000000,0.000000,0.000000,1.000000,0.000000,0.000000,0.000000,0.000000,1.000000;;,
   12640;16;1.000000,0.000000,0.000000,0.000000,0.000000,1.000000,0.000000,0.000000,0.000000,0.000000,1.000000,0.000000,0.000000,0.000000,0.000000,1.000000;;,
   12800;16;1.000000,0.000000,0.000000,0.000000,0.000000,1.000000,0.000000,0.000000,0.000000,0.000000,1.000000,0.000000,0.000000,0.000000,0.000000,1.000000;;,
   12960;16;1.000000,0.000000,0.000000,0.000000,0.000000,1.000000,0.000000,0.000000,0.000000,0.000000,1.000000,0.000000,0.000000,0.000000,0.000000,1.000000;;,
   13120;16;1.000000,0.000000,0.000000,0.000000,0.000000,1.000000,0.000000,0.000000,0.000000,0.000000,1.000000,0.000000,0.000000,0.000000,0.000000,1.000000;;,
   13280;16;1.000000,0.000000,0.000000,0.000000,0.000000,1.000000,0.000000,0.000000,0.000000,0.000000,1.000000,0.000000,0.000000,0.000000,0.000000,1.000000;;,
   13440;16;1.000000,0.000000,0.000000,0.000000,0.000000,1.000000,0.000000,0.000000,0.000000,0.000000,1.000000,0.000000,0.000000,0.000000,0.000000,1.000000;;,
   13600;16;1.000000,0.000000,0.000000,0.000000,0.000000,1.000000,0.000000,0.000000,0.000000,0.000000,1.000000,0.000000,0.000000,0.000000,0.000000,1.000000;;,
   13760;16;1.000000,0.000000,0.000000,0.000000,0.000000,1.000000,0.000000,0.000000,0.000000,0.000000,1.000000,0.000000,0.000000,0.000000,0.000000,1.000000;;,
   13920;16;1.000000,0.000000,0.000000,0.000000,0.000000,1.000000,0.000000,0.000000,0.000000,0.000000,1.000000,0.000000,0.000000,0.000000,0.000000,1.000000;;,
   14080;16;1.000000,0.000000,0.000000,0.000000,0.000000,1.000000,0.000000,0.000000,0.000000,0.000000,1.000000,0.000000,0.000000,0.000000,0.000000,1.000000;;,
   14240;16;1.000000,0.000000,0.000000,0.000000,0.000000,1.000000,0.000000,0.000000,0.000000,0.000000,1.000000,0.000000,0.000000,0.000000,0.000000,1.000000;;,
   14400;16;1.000000,0.000000,0.000000,0.000000,0.000000,1.000000,0.000000,0.000000,0.000000,0.000000,1.000000,0.000000,0.000000,0.000000,0.000000,1.000000;;,
   14560;16;1.000000,0.000000,0.000000,0.000000,0.000000,1.000000,0.000000,0.000000,0.000000,0.000000,1.000000,0.000000,0.000000,0.000000,0.000000,1.000000;;,
   14720;16;1.000000,0.000000,0.000000,0.000000,0.000000,1.000000,0.000000,0.000000,0.000000,0.000000,1.000000,0.000000,0.000000,0.000000,0.000000,1.000000;;,
   14880;16;1.000000,0.000000,0.000000,0.000000,0.000000,1.000000,0.000000,0.000000,0.000000,0.000000,1.000000,0.000000,0.000000,0.000000,0.000000,1.000000;;,
   15040;16;1.000000,0.000000,0.000000,0.000000,0.000000,1.000000,0.000000,0.000000,0.000000,0.000000,1.000000,0.000000,0.000000,0.000000,0.000000,1.000000;;,
   15200;16;1.000000,0.000000,0.000000,0.000000,0.000000,1.000000,0.000000,0.000000,0.000000,0.000000,1.000000,0.000000,0.000000,0.000000,0.000000,1.000000;;,
   15360;16;1.000000,0.000000,0.000000,0.000000,0.000000,1.000000,0.000000,0.000000,0.000000,0.000000,1.000000,0.000000,0.000000,0.000000,0.000000,1.000000;;,
   15520;16;1.000000,0.000000,0.000000,0.000000,0.000000,1.000000,0.000000,0.000000,0.000000,0.000000,1.000000,0.000000,0.000000,0.000000,0.000000,1.000000;;,
   15680;16;1.000000,0.000000,0.000000,0.000000,0.000000,1.000000,0.000000,0.000000,0.000000,0.000000,1.000000,0.000000,0.000000,0.000000,0.000000,1.000000;;,
   15840;16;1.000000,0.000000,0.000000,0.000000,0.000000,1.000000,0.000000,0.000000,0.000000,0.000000,1.000000,0.000000,0.000000,0.000000,0.000000,1.000000;;,
   16000;16;1.000000,0.000000,0.000000,0.000000,0.000000,1.000000,0.000000,0.000000,0.000000,0.000000,1.000000,0.000000,0.000000,0.000000,0.000000,1.000000;;;
  }
 }
}